5 Q0 CSIRO132-07263415 1 3.34992 bm25
5 Q0 CSIRO205-15585834 2 3.13297 bm25
5 Q0 CSIRO134-12734961 3 3.08771 bm25
5 Q0 CSIRO129-10309081 4 2.99946 bm25
5 Q0 CSIRO265-16107985 5 1.75954 bm25
5 Q0 CSIRO132-09085818 6 1.74619 bm25
5 Q0 CSIRO143-06361582 7 1.63957 bm25
5 Q0 CSIRO131-05551059 8 1.54671 bm25
5 Q0 CSIRO173-13285955 9 1.50925 bm25
5 Q0 CSIRO069-15437241 10 1.44894 bm25
5 Q0 CSIRO112-13202732 11 1.13731 bm25
5 Q0 CSIRO130-04150369 12 1.12911 bm25
5 Q0 CSIRO132-07175653 13 1.12843 bm25
5 Q0 CSIRO135-14200166 14 1.12416 bm25
5 Q0 CSIRO065-01561612 15 1.11592 bm25
5 Q0 CSIRO265-16625137 16 1.11394 bm25
5 Q0 CSIRO132-15255187 17 1.10586 bm25
5 Q0 CSIRO135-01163093 18 1.10154 bm25
5 Q0 CSIRO135-01427234 19 1.09832 bm25
5 Q0 CSIRO134-13904277 20 1.09576 bm25
5 Q0 CSIRO139-14077357 21 1.07446 bm25
5 Q0 CSIRO133-10515246 22 1.06998 bm25
5 Q0 CSIRO145-05884559 23 1.04869 bm25
5 Q0 CSIRO143-06256522 24 1.03864 bm25
5 Q0 CSIRO132-11919193 25 1.03864 bm25
5 Q0 CSIRO143-08288718 26 1.03464 bm25
5 Q0 CSIRO133-04907302 27 1.03407 bm25
5 Q0 CSIRO143-06326150 28 1.03293 bm25
5 Q0 CSIRO145-05534443 29 1.02468 bm25
5 Q0 CSIRO133-09856790 30 1.02319 bm25
5 Q0 CSIRO131-00286503 31 0.873424 bm25
5 Q0 CSIRO197-02129838 32 0.821619 bm25
5 Q0 CSIRO112-14413479 33 0.430716 bm25
5 Q0 CSIRO180-15517031 34 0.0807674 bm25
