3 Q0 CSIRO197-02129838 1 2.77129 bm25
3 Q0 CSIRO127-06797573 2 2.74827 bm25
3 Q0 CSIRO130-00195625 3 2.42418 bm25
3 Q0 CSIRO129-16545538 4 2.38049 bm25
3 Q0 CSIRO139-15723114 5 2.19517 bm25
3 Q0 CSIRO131-12850648 6 2.17296 bm25
3 Q0 CSIRO139-15735123 7 2.16798 bm25
3 Q0 CSIRO131-12565294 8 2.16573 bm25
3 Q0 CSIRO063-12268790 9 2.12992 bm25
3 Q0 CSIRO131-12753880 10 2.07024 bm25
3 Q0 CSIRO115-10957636 11 2.06824 bm25
3 Q0 CSIRO129-16466164 12 2.04295 bm25
3 Q0 CSIRO205-15585834 13 2.03253 bm25
3 Q0 CSIRO131-12596833 14 1.9804 bm25
3 Q0 CSIRO133-10151601 15 1.91483 bm25
3 Q0 CSIRO140-05758130 16 1.90307 bm25
3 Q0 CSIRO144-06045005 17 1.88146 bm25
3 Q0 CSIRO135-12644434 18 1.86746 bm25
3 Q0 CSIRO063-16421918 19 1.85336 bm25
3 Q0 CSIRO135-01163093 20 1.84286 bm25
3 Q0 CSIRO133-09856790 21 1.84051 bm25
3 Q0 CSIRO069-15437241 22 1.76693 bm25
3 Q0 CSIRO131-12251338 23 1.76646 bm25
3 Q0 CSIRO131-12229037 24 1.73464 bm25
3 Q0 CSIRO131-06342164 25 1.73032 bm25
3 Q0 CSIRO131-12699482 26 1.70861 bm25
3 Q0 CSIRO133-11574847 27 1.63731 bm25
3 Q0 CSIRO139-13945406 28 1.45922 bm25
3 Q0 CSIRO131-12872798 29 1.41305 bm25
3 Q0 CSIRO131-05668430 30 1.39997 bm25
3 Q0 CSIRO131-00286503 31 1.39338 bm25
3 Q0 CSIRO112-14413479 32 1.36597 bm25
3 Q0 CSIRO131-05551059 33 1.36048 bm25
3 Q0 CSIRO130-04150369 34 1.34568 bm25
3 Q0 CSIRO156-13474993 35 1.27477 bm25
3 Q0 CSIRO133-11520197 36 1.26123 bm25
3 Q0 CSIRO132-07263415 37 1.25153 bm25
3 Q0 CSIRO140-11762402 38 1.20529 bm25
3 Q0 CSIRO139-08803101 39 1.08474 bm25
3 Q0 CSIRO146-00551386 40 1.08167 bm25
3 Q0 CSIRO144-11175582 41 1.06841 bm25
3 Q0 CSIRO131-12453311 42 1.05776 bm25
3 Q0 CSIRO145-12322561 43 1.05627 bm25
3 Q0 CSIRO139-14077357 44 1.02409 bm25
3 Q0 CSIRO139-12625432 45 1.01128 bm25
3 Q0 CSIRO131-10743776 46 1.00488 bm25
3 Q0 CSIRO131-12777641 47 0.995797 bm25
3 Q0 CSIRO139-11490655 48 0.968456 bm25
3 Q0 CSIRO145-05225156 49 0.951414 bm25
3 Q0 CSIRO132-01480712 50 0.914216 bm25
3 Q0 CSIRO131-16721510 51 0.893651 bm25
3 Q0 CSIRO145-14070427 52 0.891153 bm25
3 Q0 CSIRO139-14631656 53 0.889515 bm25
3 Q0 CSIRO133-00069480 54 0.887953 bm25
3 Q0 CSIRO146-00587153 55 0.8848 bm25
3 Q0 CSIRO134-08922119 56 0.848373 bm25
3 Q0 CSIRO139-16434753 57 0.848183 bm25
3 Q0 CSIRO133-02295937 58 0.839265 bm25
3 Q0 CSIRO134-12734961 59 0.839102 bm25
3 Q0 CSIRO133-01822561 60 0.838612 bm25
3 Q0 CSIRO134-11903180 61 0.837472 bm25
3 Q0 CSIRO145-06454342 62 0.804043 bm25
3 Q0 CSIRO133-04941278 63 0.775406 bm25
3 Q0 CSIRO135-13787078 64 0.742311 bm25
3 Q0 CSIRO129-10309081 65 0.725156 bm25
3 Q0 CSIRO265-14779177 66 0.721794 bm25
3 Q0 CSIRO145-05069540 67 0.36287 bm25
3 Q0 CSIRO071-13529236 68 0.360913 bm25
3 Q0 CSIRO068-04810988 69 0.360882 bm25
3 Q0 CSIRO145-05108814 70 0.354297 bm25
3 Q0 CSIRO145-05056085 71 0.352555 bm25
3 Q0 CSIRO132-02700019 72 0.344587 bm25
3 Q0 CSIRO135-01211798 73 0.344426 bm25
3 Q0 CSIRO112-05149969 74 0.335884 bm25
3 Q0 CSIRO134-14241751 75 0.332848 bm25
3 Q0 CSIRO145-11557922 76 0.325528 bm25
3 Q0 CSIRO144-09895603 77 0.319738 bm25
3 Q0 CSIRO145-12250314 78 0.318867 bm25
3 Q0 CSIRO145-14573066 79 0.318284 bm25
3 Q0 CSIRO134-11984748 80 0.316057 bm25
3 Q0 CSIRO134-12034852 81 0.314862 bm25
3 Q0 CSIRO140-11713267 82 0.314402 bm25
3 Q0 CSIRO141-01306006 83 0.313963 bm25
3 Q0 CSIRO145-11725455 84 0.305421 bm25
3 Q0 CSIRO145-02248445 85 0.30394 bm25
3 Q0 CSIRO180-15517031 86 0.300117 bm25
3 Q0 CSIRO145-02141752 87 0.292596 bm25
3 Q0 CSIRO145-02213132 88 0.291153 bm25
3 Q0 CSIRO134-12577583 89 0.282174 bm25
3 Q0 CSIRO138-14589171 90 0.278522 bm25
3 Q0 CSIRO144-12516997 91 0.277825 bm25
3 Q0 CSIRO131-12897049 92 0.270572 bm25
3 Q0 CSIRO131-10796117 93 0.270572 bm25
3 Q0 CSIRO112-13202732 94 0.270444 bm25
3 Q0 CSIRO131-12185537 95 0.270062 bm25
3 Q0 CSIRO265-16107985 96 0.269453 bm25
3 Q0 CSIRO130-00063457 97 0.268193 bm25
3 Q0 CSIRO140-05307643 98 0.266996 bm25
3 Q0 CSIRO140-02275138 99 0.266599 bm25
3 Q0 CSIRO144-14210292 100 0.262573 bm25
3 Q0 CSIRO145-06493866 101 0.262189 bm25
3 Q0 CSIRO134-07751458 102 0.25972 bm25
3 Q0 CSIRO135-01262721 103 0.247996 bm25
3 Q0 CSIRO133-09927606 104 0.245818 bm25
3 Q0 CSIRO138-13950052 105 0.242059 bm25
3 Q0 CSIRO145-15096261 106 0.241422 bm25
3 Q0 CSIRO133-03375296 107 0.222102 bm25
3 Q0 CSIRO131-05276360 108 0.221274 bm25
3 Q0 CSIRO139-16264896 109 0.213427 bm25
3 Q0 CSIRO145-11361941 110 0.213401 bm25
3 Q0 CSIRO144-11565923 111 0.213374 bm25
3 Q0 CSIRO133-10515246 112 0.212636 bm25
3 Q0 CSIRO139-15242770 113 0.212243 bm25
3 Q0 CSIRO139-16225396 114 0.210375 bm25
3 Q0 CSIRO143-05000504 115 0.206861 bm25
3 Q0 CSIRO131-05240034 116 0.191468 bm25
3 Q0 CSIRO139-11043968 117 0.182739 bm25
3 Q0 CSIRO265-01515181 118 0.181009 bm25
3 Q0 CSIRO134-02469451 119 0.180298 bm25
3 Q0 CSIRO145-14351098 120 0.179818 bm25
3 Q0 CSIRO131-06291763 121 0.178199 bm25
3 Q0 CSIRO132-03191095 122 0.17729 bm25
3 Q0 CSIRO134-11500075 123 0.17612 bm25
3 Q0 CSIRO135-04106002 124 0.175796 bm25
3 Q0 CSIRO135-01427234 125 0.175286 bm25
3 Q0 CSIRO144-15179677 126 0.173405 bm25
3 Q0 CSIRO138-15933953 127 0.172105 bm25
3 Q0 CSIRO140-06484033 128 0.171719 bm25
3 Q0 CSIRO145-10228675 129 0.170875 bm25
3 Q0 CSIRO144-04759979 130 0.170621 bm25
3 Q0 CSIRO143-04694722 131 0.168467 bm25
3 Q0 CSIRO143-04964410 132 0.168294 bm25
3 Q0 CSIRO266-00310534 133 0.121272 bm25
3 Q0 CSIRO132-01615773 134 0.117329 bm25
3 Q0 CSIRO132-01702653 135 0.117329 bm25
3 Q0 CSIRO265-01473951 136 0.117162 bm25
3 Q0 CSIRO132-14560042 137 0.117138 bm25
3 Q0 CSIRO144-05140025 138 0.117138 bm25
3 Q0 CSIRO144-04905894 139 0.117138 bm25
3 Q0 CSIRO144-04925349 140 0.117114 bm25
3 Q0 CSIRO129-16628562 141 0.116994 bm25
3 Q0 CSIRO137-02500415 142 0.115814 bm25
3 Q0 CSIRO138-00368059 143 0.114955 bm25
3 Q0 CSIRO132-07175653 144 0.114817 bm25
3 Q0 CSIRO138-00864658 145 0.114611 bm25
3 Q0 CSIRO141-12380701 146 0.114382 bm25
3 Q0 CSIRO134-11830768 147 0.114268 bm25
3 Q0 CSIRO141-16595363 148 0.114087 bm25
3 Q0 CSIRO138-01340380 149 0.113951 bm25
3 Q0 CSIRO132-09085818 150 0.113702 bm25
3 Q0 CSIRO265-16625137 151 0.113343 bm25
3 Q0 CSIRO134-12681469 152 0.113209 bm25
3 Q0 CSIRO138-00324936 153 0.113209 bm25
3 Q0 CSIRO132-14854295 154 0.113119 bm25
3 Q0 CSIRO132-15390036 155 0.113097 bm25
3 Q0 CSIRO132-15320355 156 0.113052 bm25
3 Q0 CSIRO143-13233335 157 0.112808 bm25
3 Q0 CSIRO132-15255187 158 0.11252 bm25
3 Q0 CSIRO138-00023148 159 0.112498 bm25
3 Q0 CSIRO143-04938426 160 0.112454 bm25
3 Q0 CSIRO138-00045920 161 0.112388 bm25
3 Q0 CSIRO132-11895269 162 0.111993 bm25
3 Q0 CSIRO132-01455556 163 0.111884 bm25
3 Q0 CSIRO144-09433010 164 0.111688 bm25
3 Q0 CSIRO145-05173880 165 0.111536 bm25
3 Q0 CSIRO138-00000000 166 0.111493 bm25
3 Q0 CSIRO134-13904277 167 0.111493 bm25
3 Q0 CSIRO134-05033426 168 0.111255 bm25
3 Q0 CSIRO139-08412608 169 0.111061 bm25
3 Q0 CSIRO135-01377416 170 0.110889 bm25
3 Q0 CSIRO135-05149065 171 0.110761 bm25
3 Q0 CSIRO133-04881416 172 0.110335 bm25
3 Q0 CSIRO145-00429165 173 0.110081 bm25
3 Q0 CSIRO139-08576080 174 0.110081 bm25
3 Q0 CSIRO094-04634425 175 0.10987 bm25
3 Q0 CSIRO139-12012919 176 0.109849 bm25
3 Q0 CSIRO130-00773576 177 0.109765 bm25
3 Q0 CSIRO145-10750042 178 0.109535 bm25
3 Q0 CSIRO139-00126054 179 0.109368 bm25
3 Q0 CSIRO139-04960548 180 0.109263 bm25
3 Q0 CSIRO139-05999685 181 0.109035 bm25
3 Q0 CSIRO146-16756368 182 0.10854 bm25
3 Q0 CSIRO141-01749044 183 0.108478 bm25
3 Q0 CSIRO144-13309868 184 0.108396 bm25
3 Q0 CSIRO140-14710325 185 0.108315 bm25
3 Q0 CSIRO146-14218036 186 0.108253 bm25
3 Q0 CSIRO145-02061840 187 0.108151 bm25
3 Q0 CSIRO145-12516153 188 0.107968 bm25
3 Q0 CSIRO145-04117894 189 0.107786 bm25
3 Q0 CSIRO145-04081935 190 0.107705 bm25
3 Q0 CSIRO139-00898490 191 0.107684 bm25
3 Q0 CSIRO145-04767447 192 0.107022 bm25
3 Q0 CSIRO143-04904874 193 0.106922 bm25
3 Q0 CSIRO141-05017988 194 0.106862 bm25
3 Q0 CSIRO145-06856110 195 0.106802 bm25
3 Q0 CSIRO145-05884559 196 0.106703 bm25
3 Q0 CSIRO132-11919193 197 0.105681 bm25
3 Q0 CSIRO143-06256522 198 0.105681 bm25
3 Q0 CSIRO132-14596615 199 0.105332 bm25
