6 Q0 CSIRO129-16545538 1 2.05923 bm25
6 Q0 CSIRO131-12453311 2 1.93829 bm25
6 Q0 CSIRO139-15735123 3 1.91804 bm25
6 Q0 CSIRO131-12872798 4 1.89212 bm25
6 Q0 CSIRO139-15723114 5 1.86527 bm25
6 Q0 CSIRO063-16421918 6 1.82744 bm25
6 Q0 CSIRO131-05668430 7 1.82705 bm25
6 Q0 CSIRO205-15585834 8 1.8269 bm25
6 Q0 CSIRO145-14573066 9 1.81214 bm25
6 Q0 CSIRO135-01211798 10 1.80537 bm25
6 Q0 CSIRO131-12699482 11 1.80276 bm25
6 Q0 CSIRO131-12565294 12 1.78932 bm25
6 Q0 CSIRO129-16466164 13 1.78297 bm25
6 Q0 CSIRO131-12229037 14 1.78233 bm25
6 Q0 CSIRO197-02129838 15 1.74332 bm25
6 Q0 CSIRO131-05551059 16 1.73482 bm25
6 Q0 CSIRO144-12516997 17 1.72773 bm25
6 Q0 CSIRO144-14210292 18 1.71755 bm25
6 Q0 CSIRO139-16264896 19 1.71405 bm25
6 Q0 CSIRO144-15179677 20 1.67721 bm25
6 Q0 CSIRO133-10151601 21 1.67703 bm25
6 Q0 CSIRO131-12185537 22 1.64489 bm25
6 Q0 CSIRO139-08803101 23 1.63711 bm25
6 Q0 CSIRO131-12251338 24 1.62333 bm25
6 Q0 CSIRO130-00063457 25 1.623 bm25
6 Q0 CSIRO131-12850648 26 1.61074 bm25
6 Q0 CSIRO145-05108814 27 1.60828 bm25
6 Q0 CSIRO069-15437241 28 1.58965 bm25
6 Q0 CSIRO145-05225156 29 1.58392 bm25
6 Q0 CSIRO131-10796117 30 1.57104 bm25
6 Q0 CSIRO139-12625432 31 1.56501 bm25
6 Q0 CSIRO135-12644434 32 1.56001 bm25
6 Q0 CSIRO131-12777641 33 1.54318 bm25
6 Q0 CSIRO145-06493866 34 1.52237 bm25
6 Q0 CSIRO145-05069540 35 1.50003 bm25
6 Q0 CSIRO144-06045005 36 1.47865 bm25
6 Q0 CSIRO139-14077357 37 1.475 bm25
6 Q0 CSIRO139-15242770 38 1.47323 bm25
6 Q0 CSIRO131-10743776 39 1.45061 bm25
6 Q0 CSIRO131-12753880 40 1.40677 bm25
6 Q0 CSIRO071-13529236 41 1.3774 bm25
6 Q0 CSIRO068-04810988 42 1.37699 bm25
6 Q0 CSIRO145-05056085 43 1.37292 bm25
6 Q0 CSIRO145-12322561 44 1.36938 bm25
6 Q0 CSIRO140-05758130 45 1.34702 bm25
6 Q0 CSIRO131-12897049 46 1.33423 bm25
6 Q0 CSIRO265-16107985 47 1.32713 bm25
6 Q0 CSIRO131-00286503 48 1.32447 bm25
6 Q0 CSIRO140-05307643 49 1.31159 bm25
6 Q0 CSIRO133-09856790 50 1.29965 bm25
6 Q0 CSIRO138-14589171 51 1.29701 bm25
6 Q0 CSIRO135-01163093 52 1.28673 bm25
6 Q0 CSIRO131-12596833 53 1.28233 bm25
6 Q0 CSIRO115-10957636 54 1.27592 bm25
6 Q0 CSIRO130-04150369 55 1.2372 bm25
6 Q0 CSIRO146-00551386 56 1.19692 bm25
6 Q0 CSIRO144-11175582 57 1.18573 bm25
6 Q0 CSIRO145-02248445 58 1.13613 bm25
6 Q0 CSIRO139-00898490 59 1.12242 bm25
6 Q0 CSIRO145-02141752 60 1.12017 bm25
6 Q0 CSIRO140-02275138 61 1.11206 bm25
6 Q0 CSIRO145-02213132 62 1.11037 bm25
6 Q0 CSIRO135-01262721 63 1.10582 bm25
6 Q0 CSIRO133-09927606 64 1.09284 bm25
6 Q0 CSIRO133-03375296 65 1.09237 bm25
6 Q0 CSIRO133-11574847 66 1.08774 bm25
6 Q0 CSIRO139-11490655 67 1.08497 bm25
6 Q0 CSIRO138-13950052 68 1.07063 bm25
6 Q0 CSIRO133-10515246 69 1.03798 bm25
6 Q0 CSIRO145-14070427 70 1.0067 bm25
6 Q0 CSIRO133-00069480 71 1.00633 bm25
6 Q0 CSIRO127-06797573 72 0.995047 bm25
6 Q0 CSIRO132-07263415 73 0.967246 bm25
6 Q0 CSIRO156-13474993 74 0.966561 bm25
6 Q0 CSIRO265-16625137 75 0.965201 bm25
6 Q0 CSIRO139-16434753 76 0.962131 bm25
6 Q0 CSIRO130-00195625 77 0.935338 bm25
6 Q0 CSIRO112-05149969 78 0.89163 bm25
6 Q0 CSIRO139-13945406 79 0.862186 bm25
6 Q0 CSIRO140-11713267 80 0.852473 bm25
6 Q0 CSIRO132-02700019 81 0.850109 bm25
6 Q0 CSIRO141-01306006 82 0.84963 bm25
6 Q0 CSIRO145-11557922 83 0.849391 bm25
6 Q0 CSIRO131-06342164 84 0.849325 bm25
6 Q0 CSIRO112-13202732 85 0.826638 bm25
6 Q0 CSIRO134-07751458 86 0.770769 bm25
6 Q0 CSIRO145-14351098 87 0.734781 bm25
6 Q0 CSIRO131-06291763 88 0.726758 bm25
6 Q0 CSIRO131-16721510 89 0.713997 bm25
6 Q0 CSIRO266-00310534 90 0.704152 bm25
6 Q0 CSIRO139-12012919 91 0.637825 bm25
6 Q0 CSIRO145-06454342 92 0.621407 bm25
6 Q0 CSIRO140-11762402 93 0.618178 bm25
6 Q0 CSIRO180-15517031 94 0.513027 bm25
6 Q0 CSIRO112-14413479 95 0.363711 bm25
6 Q0 CSIRO134-14241751 96 0.332848 bm25
6 Q0 CSIRO144-09895603 97 0.319738 bm25
6 Q0 CSIRO145-12250314 98 0.318867 bm25
6 Q0 CSIRO134-11984748 99 0.316057 bm25
6 Q0 CSIRO134-12034852 100 0.314862 bm25
6 Q0 CSIRO145-11725455 101 0.305421 bm25
6 Q0 CSIRO134-12577583 102 0.282174 bm25
6 Q0 CSIRO145-15096261 103 0.241422 bm25
6 Q0 CSIRO132-01480712 104 0.23555 bm25
6 Q0 CSIRO131-05276360 105 0.221274 bm25
6 Q0 CSIRO145-11361941 106 0.213401 bm25
6 Q0 CSIRO144-11565923 107 0.213374 bm25
6 Q0 CSIRO139-16225396 108 0.210375 bm25
6 Q0 CSIRO143-05000504 109 0.206861 bm25
6 Q0 CSIRO131-05240034 110 0.191468 bm25
6 Q0 CSIRO139-11043968 111 0.182739 bm25
6 Q0 CSIRO265-01515181 112 0.181009 bm25
6 Q0 CSIRO134-02469451 113 0.180298 bm25
6 Q0 CSIRO132-03191095 114 0.17729 bm25
6 Q0 CSIRO134-11500075 115 0.17612 bm25
6 Q0 CSIRO135-04106002 116 0.175796 bm25
6 Q0 CSIRO135-01427234 117 0.175286 bm25
6 Q0 CSIRO139-14631656 118 0.173118 bm25
6 Q0 CSIRO146-00587153 119 0.172364 bm25
6 Q0 CSIRO138-15933953 120 0.172105 bm25
6 Q0 CSIRO140-06484033 121 0.171719 bm25
6 Q0 CSIRO145-10228675 122 0.170875 bm25
6 Q0 CSIRO144-04759979 123 0.170621 bm25
6 Q0 CSIRO143-04694722 124 0.168467 bm25
6 Q0 CSIRO143-04964410 125 0.168294 bm25
6 Q0 CSIRO133-11520197 126 0.167875 bm25
6 Q0 CSIRO134-08922119 127 0.166487 bm25
6 Q0 CSIRO135-13787078 128 0.148852 bm25
6 Q0 CSIRO132-01702653 129 0.117329 bm25
6 Q0 CSIRO132-01615773 130 0.117329 bm25
6 Q0 CSIRO265-01473951 131 0.117162 bm25
6 Q0 CSIRO132-14560042 132 0.117138 bm25
6 Q0 CSIRO144-05140025 133 0.117138 bm25
6 Q0 CSIRO144-04905894 134 0.117138 bm25
6 Q0 CSIRO144-04925349 135 0.117114 bm25
6 Q0 CSIRO129-16628562 136 0.116994 bm25
6 Q0 CSIRO137-02500415 137 0.115814 bm25
6 Q0 CSIRO138-00368059 138 0.114955 bm25
6 Q0 CSIRO132-07175653 139 0.114817 bm25
6 Q0 CSIRO138-00864658 140 0.114611 bm25
6 Q0 CSIRO141-12380701 141 0.114382 bm25
6 Q0 CSIRO134-11830768 142 0.114268 bm25
6 Q0 CSIRO141-16595363 143 0.114087 bm25
6 Q0 CSIRO138-01340380 144 0.113951 bm25
6 Q0 CSIRO132-09085818 145 0.113702 bm25
6 Q0 CSIRO134-12681469 146 0.113209 bm25
6 Q0 CSIRO138-00324936 147 0.113209 bm25
6 Q0 CSIRO132-14854295 148 0.113119 bm25
6 Q0 CSIRO132-15390036 149 0.113097 bm25
6 Q0 CSIRO132-15320355 150 0.113052 bm25
6 Q0 CSIRO143-13233335 151 0.112808 bm25
6 Q0 CSIRO132-15255187 152 0.11252 bm25
6 Q0 CSIRO138-00023148 153 0.112498 bm25
6 Q0 CSIRO143-04938426 154 0.112454 bm25
6 Q0 CSIRO138-00045920 155 0.112388 bm25
6 Q0 CSIRO132-11895269 156 0.111993 bm25
6 Q0 CSIRO132-01455556 157 0.111884 bm25
6 Q0 CSIRO133-02295937 158 0.11171 bm25
6 Q0 CSIRO144-09433010 159 0.111688 bm25
6 Q0 CSIRO134-12734961 160 0.111688 bm25
6 Q0 CSIRO133-01822561 161 0.111623 bm25
6 Q0 CSIRO145-05173880 162 0.111536 bm25
6 Q0 CSIRO134-13904277 163 0.111493 bm25
6 Q0 CSIRO138-00000000 164 0.111493 bm25
6 Q0 CSIRO134-11903180 165 0.111471 bm25
6 Q0 CSIRO134-05033426 166 0.111255 bm25
6 Q0 CSIRO139-08412608 167 0.111061 bm25
6 Q0 CSIRO135-01377416 168 0.110889 bm25
6 Q0 CSIRO135-05149065 169 0.110761 bm25
6 Q0 CSIRO133-04881416 170 0.110335 bm25
6 Q0 CSIRO145-00429165 171 0.110081 bm25
6 Q0 CSIRO139-08576080 172 0.110081 bm25
6 Q0 CSIRO094-04634425 173 0.10987 bm25
6 Q0 CSIRO130-00773576 174 0.109765 bm25
6 Q0 CSIRO145-10750042 175 0.109535 bm25
6 Q0 CSIRO139-00126054 176 0.109368 bm25
6 Q0 CSIRO139-04960548 177 0.109263 bm25
6 Q0 CSIRO139-05999685 178 0.109035 bm25
6 Q0 CSIRO146-16756368 179 0.10854 bm25
6 Q0 CSIRO141-01749044 180 0.108478 bm25
6 Q0 CSIRO144-13309868 181 0.108396 bm25
6 Q0 CSIRO140-14710325 182 0.108315 bm25
6 Q0 CSIRO146-14218036 183 0.108253 bm25
6 Q0 CSIRO145-02061840 184 0.108151 bm25
6 Q0 CSIRO145-12516153 185 0.107968 bm25
6 Q0 CSIRO145-04117894 186 0.107786 bm25
6 Q0 CSIRO145-04081935 187 0.107705 bm25
6 Q0 CSIRO145-04767447 188 0.107022 bm25
6 Q0 CSIRO143-04904874 189 0.106922 bm25
6 Q0 CSIRO141-05017988 190 0.106862 bm25
6 Q0 CSIRO145-06856110 191 0.106802 bm25
6 Q0 CSIRO145-05884559 192 0.106703 bm25
6 Q0 CSIRO132-11919193 193 0.105681 bm25
6 Q0 CSIRO143-06256522 194 0.105681 bm25
6 Q0 CSIRO132-14596615 195 0.105332 bm25
6 Q0 CSIRO143-08288718 196 0.105274 bm25
6 Q0 CSIRO133-04907302 197 0.105216 bm25
6 Q0 CSIRO143-06326150 198 0.1051 bm25
6 Q0 CSIRO143-06222087 199 0.105004 bm25
