1,0.04
1,0.08
1,0.12
1,0.16
1,0.2
1,0.24
1,0.28
1,0.32
0.888889,0.32
0.9,0.36
0.818182,0.36
0.75,0.36
0.692308,0.36
0.714286,0.4
0.733333,0.44
0.6875,0.44
0.705882,0.48
0.722222,0.52
0.736842,0.56
0.75,0.6
0.714286,0.6
0.727273,0.64
0.73913,0.68
0.708333,0.68
0.68,0.68
