7 Q0 CSIRO145-04767447 1 2.08222 adaRank_B
7 Q0 CSIRO145-04755872 2 1.99072 adaRank_B
7 Q0 CSIRO140-14710325 3 1.94841 adaRank_B
7 Q0 CSIRO140-14699594 4 1.81247 adaRank_B
7 Q0 CSIRO265-14667001 5 1.78471 adaRank_B
7 Q0 CSIRO112-14413479 6 1.76268 adaRank_B
7 Q0 CSIRO138-15933953 7 1.66935 adaRank_B
7 Q0 CSIRO138-00324936 8 1.61955 adaRank_B
7 Q0 CSIRO112-02825901 9 1.53605 adaRank_B
7 Q0 CSIRO138-00000000 10 1.52651 adaRank_B
7 Q0 CSIRO266-04184084 11 1.51581 adaRank_B
7 Q0 CSIRO135-12129360 12 1.5048 adaRank_B
7 Q0 CSIRO135-09430735 13 1.46575 adaRank_B
7 Q0 CSIRO136-07094003 14 1.41483 adaRank_B
7 Q0 CSIRO132-11952760 15 1.40128 adaRank_B
7 Q0 CSIRO116-12006206 16 1.39822 adaRank_B
7 Q0 CSIRO143-06222087 17 1.39413 adaRank_B
7 Q0 CSIRO143-08253479 18 1.39364 adaRank_B
7 Q0 CSIRO143-06326150 19 1.39269 adaRank_B
7 Q0 CSIRO133-04881416 20 1.38346 adaRank_B
7 Q0 CSIRO135-09089936 21 1.32784 adaRank_B
7 Q0 CSIRO132-11895269 22 1.31888 adaRank_B
7 Q0 CSIRO138-16031141 23 1.31327 adaRank_B
7 Q0 CSIRO265-07995298 24 1.24764 adaRank_B
7 Q0 CSIRO131-16185860 25 1.21595 adaRank_B
7 Q0 CSIRO138-00368059 26 1.17115 adaRank_B
7 Q0 CSIRO133-04941278 27 1.16779 adaRank_B
7 Q0 CSIRO135-12559229 28 1.1674 adaRank_B
7 Q0 CSIRO138-00023148 29 1.15738 adaRank_B
7 Q0 CSIRO137-03152831 30 1.14945 adaRank_B
7 Q0 CSIRO144-16031155 31 1.12301 adaRank_B
7 Q0 CSIRO139-12218544 32 1.12212 adaRank_B
7 Q0 CSIRO132-14596615 33 1.11728 adaRank_B
7 Q0 CSIRO135-08674632 34 1.10724 adaRank_B
7 Q0 CSIRO132-15320355 35 1.10363 adaRank_B
7 Q0 CSIRO148-04110586 36 1.09763 adaRank_B
7 Q0 CSIRO148-03957246 37 1.09763 adaRank_B
7 Q0 CSIRO145-16135941 38 1.09433 adaRank_B
7 Q0 CSIRO133-10342198 39 1.08381 adaRank_B
7 Q0 CSIRO119-06250149 40 1.07555 adaRank_B
7 Q0 CSIRO141-05420421 41 1.05759 adaRank_B
7 Q0 CSIRO265-06850347 42 1.01776 adaRank_B
7 Q0 CSIRO265-06591096 43 1.01776 adaRank_B
7 Q0 CSIRO140-04539147 44 1.0171 adaRank_B
7 Q0 CSIRO145-06856110 45 1.01445 adaRank_B
7 Q0 CSIRO136-00770129 46 1.01198 adaRank_B
7 Q0 CSIRO146-12743315 47 1.00949 adaRank_B
7 Q0 CSIRO189-10072187 48 1.00748 adaRank_B
7 Q0 CSIRO139-12206051 49 1.00357 adaRank_B
7 Q0 CSIRO062-16403623 50 0.997495 adaRank_B
7 Q0 CSIRO265-07001451 51 0.994274 adaRank_B
7 Q0 CSIRO147-03954897 52 0.994036 adaRank_B
7 Q0 CSIRO140-02861362 53 0.983777 adaRank_B
7 Q0 CSIRO265-06720575 54 0.980538 adaRank_B
7 Q0 CSIRO143-04938426 55 0.965565 adaRank_B
7 Q0 CSIRO132-01583924 56 0.960069 adaRank_B
7 Q0 CSIRO135-01377416 57 0.959 adaRank_B
7 Q0 CSIRO119-13048487 58 0.950175 adaRank_B
7 Q0 CSIRO080-09230100 59 0.947076 adaRank_B
7 Q0 CSIRO129-11692497 60 0.938977 adaRank_B
7 Q0 CSIRO174-04478898 61 0.936727 adaRank_B
7 Q0 CSIRO173-14608025 62 0.936727 adaRank_B
7 Q0 CSIRO120-02139268 63 0.931307 adaRank_B
7 Q0 CSIRO265-06458524 64 0.928267 adaRank_B
7 Q0 CSIRO265-06816407 65 0.928267 adaRank_B
7 Q0 CSIRO145-11725455 66 0.923703 adaRank_B
7 Q0 CSIRO063-09922950 67 0.917361 adaRank_B
7 Q0 CSIRO142-05673211 68 0.916878 adaRank_B
7 Q0 CSIRO119-06796045 69 0.914239 adaRank_B
7 Q0 CSIRO138-00045920 70 0.907266 adaRank_B
7 Q0 CSIRO141-05017988 71 0.902098 adaRank_B
7 Q0 CSIRO119-14327112 72 0.898979 adaRank_B
7 Q0 CSIRO144-16021163 73 0.895562 adaRank_B
7 Q0 CSIRO145-05186172 74 0.891835 adaRank_B
7 Q0 CSIRO142-05386737 75 0.89029 adaRank_B
7 Q0 CSIRO136-00274327 76 0.889589 adaRank_B
7 Q0 CSIRO173-09395701 77 0.889539 adaRank_B
7 Q0 CSIRO079-14748894 78 0.889383 adaRank_B
7 Q0 CSIRO145-07703616 79 0.888878 adaRank_B
7 Q0 CSIRO173-09186457 80 0.887698 adaRank_B
7 Q0 CSIRO189-10823696 81 0.88467 adaRank_B
7 Q0 CSIRO100-11290692 82 0.882705 adaRank_B
7 Q0 CSIRO146-13992390 83 0.879461 adaRank_B
7 Q0 CSIRO139-00126054 84 0.877318 adaRank_B
7 Q0 CSIRO132-14854295 85 0.874803 adaRank_B
7 Q0 CSIRO132-15390036 86 0.87122 adaRank_B
7 Q0 CSIRO265-06145224 87 0.868774 adaRank_B
7 Q0 CSIRO173-13419999 88 0.867757 adaRank_B
7 Q0 CSIRO145-07166283 89 0.866921 adaRank_B
7 Q0 CSIRO173-13301001 90 0.865473 adaRank_B
7 Q0 CSIRO133-10515246 91 0.864156 adaRank_B
7 Q0 CSIRO134-11855437 92 0.86321 adaRank_B
7 Q0 CSIRO140-14964739 93 0.862931 adaRank_B
7 Q0 CSIRO140-15001822 94 0.862552 adaRank_B
7 Q0 CSIRO139-14644628 95 0.862093 adaRank_B
7 Q0 CSIRO145-04840316 96 0.858717 adaRank_B
7 Q0 CSIRO265-08242356 97 0.857878 adaRank_B
7 Q0 CSIRO063-10263890 98 0.853693 adaRank_B
7 Q0 CSIRO146-13188187 99 0.853506 adaRank_B
7 Q0 CSIRO130-08278681 100 0.851067 adaRank_B
7 Q0 CSIRO138-15720698 101 0.848961 adaRank_B
7 Q0 CSIRO140-16591476 102 0.842213 adaRank_B
7 Q0 CSIRO145-16125750 103 0.841526 adaRank_B
7 Q0 CSIRO146-13375551 104 0.835038 adaRank_B
7 Q0 CSIRO136-05449318 105 0.834861 adaRank_B
7 Q0 CSIRO133-04907302 106 0.832593 adaRank_B
7 Q0 CSIRO112-16590613 107 0.829298 adaRank_B
7 Q0 CSIRO142-11890512 108 0.828835 adaRank_B
7 Q0 CSIRO139-04751648 109 0.824791 adaRank_B
7 Q0 CSIRO100-10705362 110 0.824047 adaRank_B
7 Q0 CSIRO141-09933942 111 0.823402 adaRank_B
7 Q0 CSIRO132-01388179 112 0.820235 adaRank_B
7 Q0 CSIRO141-01749044 113 0.818885 adaRank_B
7 Q0 CSIRO144-11601334 114 0.818836 adaRank_B
7 Q0 CSIRO130-07587334 115 0.816721 adaRank_B
7 Q0 CSIRO140-07859780 116 0.816511 adaRank_B
7 Q0 CSIRO138-00516887 117 0.814802 adaRank_B
7 Q0 CSIRO138-11929259 118 0.81458 adaRank_B
7 Q0 CSIRO146-16756368 119 0.814057 adaRank_B
7 Q0 CSIRO145-05173880 120 0.809034 adaRank_B
7 Q0 CSIRO141-02994489 121 0.808194 adaRank_B
7 Q0 CSIRO143-05000504 122 0.805608 adaRank_B
7 Q0 CSIRO146-09814252 123 0.80221 adaRank_B
7 Q0 CSIRO140-04892417 124 0.799519 adaRank_B
7 Q0 CSIRO140-06484033 125 0.799471 adaRank_B
7 Q0 CSIRO139-06205389 126 0.798366 adaRank_B
7 Q0 CSIRO142-09518518 127 0.798054 adaRank_B
7 Q0 CSIRO132-11919193 128 0.796089 adaRank_B
7 Q0 CSIRO266-00497054 129 0.794006 adaRank_B
7 Q0 CSIRO145-07664557 130 0.791951 adaRank_B
7 Q0 CSIRO139-09702840 131 0.791202 adaRank_B
7 Q0 CSIRO144-10500305 132 0.79105 adaRank_B
7 Q0 CSIRO136-05968116 133 0.787423 adaRank_B
7 Q0 CSIRO140-12087084 134 0.785066 adaRank_B
7 Q0 CSIRO138-16051510 135 0.783413 adaRank_B
7 Q0 CSIRO142-05649601 136 0.783112 adaRank_B
7 Q0 CSIRO116-00283272 137 0.782594 adaRank_B
7 Q0 CSIRO173-04157429 138 0.782125 adaRank_B
7 Q0 CSIRO145-12555733 139 0.778607 adaRank_B
7 Q0 CSIRO129-15777022 140 0.778073 adaRank_B
7 Q0 CSIRO138-11981182 141 0.775941 adaRank_B
7 Q0 CSIRO142-00882417 142 0.775051 adaRank_B
7 Q0 CSIRO145-05534443 143 0.772276 adaRank_B
7 Q0 CSIRO139-12117799 144 0.771775 adaRank_B
7 Q0 CSIRO142-06223826 145 0.768784 adaRank_B
7 Q0 CSIRO144-16285399 146 0.767951 adaRank_B
7 Q0 CSIRO140-14852036 147 0.767313 adaRank_B
7 Q0 CSIRO119-08798171 148 0.766073 adaRank_B
7 Q0 CSIRO133-15199996 149 0.762614 adaRank_B
7 Q0 CSIRO187-13254051 150 0.760599 adaRank_B
7 Q0 CSIRO140-04856338 151 0.755143 adaRank_B
7 Q0 CSIRO145-04486399 152 0.752696 adaRank_B
7 Q0 CSIRO126-15043595 153 0.751029 adaRank_B
7 Q0 CSIRO119-03740779 154 0.750538 adaRank_B
7 Q0 CSIRO146-11989385 155 0.750052 adaRank_B
7 Q0 CSIRO188-07104061 156 0.749501 adaRank_B
7 Q0 CSIRO188-07129809 157 0.749064 adaRank_B
7 Q0 CSIRO112-01531358 158 0.747917 adaRank_B
7 Q0 CSIRO144-11639940 159 0.747509 adaRank_B
7 Q0 CSIRO173-05342509 160 0.747406 adaRank_B
7 Q0 CSIRO132-15255187 161 0.747079 adaRank_B
7 Q0 CSIRO141-16030527 162 0.747024 adaRank_B
7 Q0 CSIRO116-15969518 163 0.746845 adaRank_B
7 Q0 CSIRO133-15959284 164 0.744115 adaRank_B
7 Q0 CSIRO145-04725804 165 0.743543 adaRank_B
7 Q0 CSIRO140-12048755 166 0.742484 adaRank_B
7 Q0 CSIRO132-05145886 167 0.742253 adaRank_B
7 Q0 CSIRO145-12663639 168 0.740163 adaRank_B
7 Q0 CSIRO129-02670231 169 0.740039 adaRank_B
7 Q0 CSIRO138-12671801 170 0.738454 adaRank_B
7 Q0 CSIRO138-12130441 171 0.734692 adaRank_B
7 Q0 CSIRO144-13309868 172 0.732082 adaRank_B
7 Q0 CSIRO145-04117894 173 0.73193 adaRank_B
7 Q0 CSIRO134-14020554 174 0.730483 adaRank_B
7 Q0 CSIRO132-15654244 175 0.730312 adaRank_B
7 Q0 CSIRO173-03270094 176 0.728608 adaRank_B
7 Q0 CSIRO173-05971705 177 0.728603 adaRank_B
7 Q0 CSIRO198-06847868 178 0.727772 adaRank_B
7 Q0 CSIRO173-06437291 179 0.727377 adaRank_B
7 Q0 CSIRO148-03902404 180 0.725931 adaRank_B
7 Q0 CSIRO135-05990875 181 0.725798 adaRank_B
7 Q0 CSIRO145-04989294 182 0.723303 adaRank_B
7 Q0 CSIRO141-04638164 183 0.720123 adaRank_B
7 Q0 CSIRO134-13871483 184 0.719865 adaRank_B
7 Q0 CSIRO119-07820149 185 0.717616 adaRank_B
7 Q0 CSIRO140-04252961 186 0.717597 adaRank_B
7 Q0 CSIRO141-12404665 187 0.717077 adaRank_B
7 Q0 CSIRO134-13904277 188 0.716925 adaRank_B
7 Q0 CSIRO146-16574875 189 0.716332 adaRank_B
7 Q0 CSIRO134-04585648 190 0.714809 adaRank_B
7 Q0 CSIRO134-13986217 191 0.714217 adaRank_B
7 Q0 CSIRO140-14990504 192 0.712826 adaRank_B
7 Q0 CSIRO063-09884602 193 0.712517 adaRank_B
7 Q0 CSIRO140-16554621 194 0.712491 adaRank_B
7 Q0 CSIRO127-06508087 195 0.712373 adaRank_B
7 Q0 CSIRO188-11770423 196 0.711338 adaRank_B
7 Q0 CSIRO063-09904867 197 0.710881 adaRank_B
7 Q0 CSIRO188-11788375 198 0.710433 adaRank_B
7 Q0 CSIRO135-05590568 199 0.710349 adaRank_B
