0,0
0.5,0.04
0.333333,0.04
0.25,0.04
0.2,0.04
0.166667,0.04
0.142857,0.04
0.125,0.04
0.111111,0.04
0.1,0.04
0.0909091,0.04
0.166667,0.08
0.153846,0.08
0.142857,0.08
0.133333,0.08
0.125,0.08
0.117647,0.08
0.111111,0.08
0.105263,0.08
0.1,0.08
0.0952381,0.08
0.0909091,0.08
0.0869565,0.08
0.0833333,0.08
0.08,0.08
