24 Q0 CSIRO144-11565923 1 8.57529 tfidf
24 Q0 CSIRO146-14218036 2 6.74024 tfidf
24 Q0 CSIRO146-16756368 3 6.42722 tfidf
24 Q0 CSIRO142-05442261 4 6.38157 tfidf
24 Q0 CSIRO180-15517031 5 5.83085 tfidf
24 Q0 CSIRO112-14413479 6 1.73601 tfidf
24 Q0 CSIRO092-02894761 7 0.286327 tfidf
24 Q0 CSIRO143-04694722 8 0.262057 tfidf
24 Q0 CSIRO136-06425377 9 0.25087 tfidf
24 Q0 CSIRO183-07728081 10 0.25087 tfidf
24 Q0 CSIRO181-10236586 11 0.25087 tfidf
24 Q0 CSIRO144-14210292 12 0.244303 tfidf
24 Q0 CSIRO066-03293205 13 0.244303 tfidf
24 Q0 CSIRO069-15437241 14 0.244303 tfidf
24 Q0 CSIRO205-15585834 15 0.244303 tfidf
24 Q0 CSIRO181-15439404 16 0.244303 tfidf
24 Q0 CSIRO135-13787078 17 0.236859 tfidf
24 Q0 CSIRO139-08412608 18 0.236859 tfidf
24 Q0 CSIRO265-16625137 19 0.228265 tfidf
24 Q0 CSIRO144-06045005 20 0.228265 tfidf
24 Q0 CSIRO132-07263415 21 0.228265 tfidf
24 Q0 CSIRO145-14573066 22 0.228265 tfidf
24 Q0 CSIRO130-00195625 23 0.228265 tfidf
24 Q0 CSIRO138-13950052 24 0.228265 tfidf
24 Q0 CSIRO135-01211798 25 0.228265 tfidf
24 Q0 CSIRO145-05108814 26 0.2181 tfidf
24 Q0 CSIRO145-10228675 27 0.2181 tfidf
24 Q0 CSIRO140-11762402 28 0.2181 tfidf
24 Q0 CSIRO140-05307643 29 0.2181 tfidf
24 Q0 CSIRO197-02129838 30 0.2181 tfidf
24 Q0 CSIRO145-05069540 31 0.20566 tfidf
24 Q0 CSIRO145-05225156 32 0.20566 tfidf
24 Q0 CSIRO144-13309868 33 0.20566 tfidf
24 Q0 CSIRO145-06493866 34 0.20566 tfidf
24 Q0 CSIRO143-08288718 35 0.20566 tfidf
24 Q0 CSIRO143-06361582 36 0.20566 tfidf
24 Q0 CSIRO143-06256522 37 0.20566 tfidf
24 Q0 CSIRO143-05000504 38 0.20566 tfidf
24 Q0 CSIRO143-04964410 39 0.20566 tfidf
24 Q0 CSIRO139-11490655 40 0.20566 tfidf
24 Q0 CSIRO265-14667001 41 0.20566 tfidf
24 Q0 CSIRO134-02469451 42 0.20566 tfidf
24 Q0 CSIRO133-11520197 43 0.20566 tfidf
24 Q0 CSIRO063-12268790 44 0.189621 tfidf
24 Q0 CSIRO085-04191349 45 0.189621 tfidf
24 Q0 CSIRO132-02700019 46 0.189621 tfidf
24 Q0 CSIRO143-04904874 47 0.189621 tfidf
24 Q0 CSIRO129-16466164 48 0.189621 tfidf
24 Q0 CSIRO133-09927606 49 0.189621 tfidf
24 Q0 CSIRO133-10151601 50 0.189621 tfidf
24 Q0 CSIRO143-08253479 51 0.189621 tfidf
24 Q0 CSIRO144-04759979 52 0.189621 tfidf
24 Q0 CSIRO130-04150369 53 0.189621 tfidf
24 Q0 CSIRO131-05668430 54 0.189621 tfidf
24 Q0 CSIRO146-00587153 55 0.189621 tfidf
24 Q0 CSIRO145-15096261 56 0.189621 tfidf
24 Q0 CSIRO134-08922119 57 0.189621 tfidf
24 Q0 CSIRO141-01749044 58 0.189621 tfidf
24 Q0 CSIRO134-11830768 59 0.189621 tfidf
24 Q0 CSIRO144-05140025 60 0.189621 tfidf
24 Q0 CSIRO145-12516153 61 0.189621 tfidf
24 Q0 CSIRO145-12322561 62 0.189621 tfidf
24 Q0 CSIRO140-11713267 63 0.189621 tfidf
24 Q0 CSIRO140-06484033 64 0.189621 tfidf
24 Q0 CSIRO144-09895603 65 0.189621 tfidf
24 Q0 CSIRO139-16225396 66 0.189621 tfidf
24 Q0 CSIRO139-15242770 67 0.189621 tfidf
24 Q0 CSIRO145-00429165 68 0.189621 tfidf
24 Q0 CSIRO139-08803101 69 0.189621 tfidf
24 Q0 CSIRO135-01262721 70 0.189621 tfidf
24 Q0 CSIRO135-01377416 71 0.189621 tfidf
24 Q0 CSIRO139-00898490 72 0.189621 tfidf
24 Q0 CSIRO135-04106002 73 0.189621 tfidf
24 Q0 CSIRO145-10750042 74 0.167016 tfidf
24 Q0 CSIRO145-06856110 75 0.167016 tfidf
24 Q0 CSIRO145-06454342 76 0.167016 tfidf
24 Q0 CSIRO138-00000000 77 0.167016 tfidf
24 Q0 CSIRO138-00023148 78 0.167016 tfidf
24 Q0 CSIRO138-00045920 79 0.167016 tfidf
24 Q0 CSIRO138-00324936 80 0.167016 tfidf
24 Q0 CSIRO145-05884559 81 0.167016 tfidf
24 Q0 CSIRO145-05534443 82 0.167016 tfidf
24 Q0 CSIRO145-05056085 83 0.167016 tfidf
24 Q0 CSIRO145-04767447 84 0.167016 tfidf
24 Q0 CSIRO145-04117894 85 0.167016 tfidf
24 Q0 CSIRO138-15933953 86 0.167016 tfidf
24 Q0 CSIRO145-04081935 87 0.167016 tfidf
24 Q0 CSIRO145-11361941 88 0.167016 tfidf
24 Q0 CSIRO145-02248445 89 0.167016 tfidf
24 Q0 CSIRO145-02213132 90 0.167016 tfidf
24 Q0 CSIRO145-02141752 91 0.167016 tfidf
24 Q0 CSIRO139-08576080 92 0.167016 tfidf
24 Q0 CSIRO133-00069480 93 0.167016 tfidf
24 Q0 CSIRO132-14596615 94 0.167016 tfidf
24 Q0 CSIRO145-02061840 95 0.167016 tfidf
24 Q0 CSIRO145-11557922 96 0.167016 tfidf
24 Q0 CSIRO144-15179677 97 0.167016 tfidf
24 Q0 CSIRO139-14077357 98 0.167016 tfidf
24 Q0 CSIRO131-16721510 99 0.167016 tfidf
24 Q0 CSIRO134-14241751 100 0.167016 tfidf
24 Q0 CSIRO144-12516997 101 0.167016 tfidf
24 Q0 CSIRO139-15735123 102 0.167016 tfidf
24 Q0 CSIRO145-11725455 103 0.167016 tfidf
24 Q0 CSIRO144-11175582 104 0.167016 tfidf
24 Q0 CSIRO134-12734961 105 0.167016 tfidf
24 Q0 CSIRO140-02275138 106 0.167016 tfidf
24 Q0 CSIRO144-09433010 107 0.167016 tfidf
24 Q0 CSIRO140-05758130 108 0.167016 tfidf
24 Q0 CSIRO145-12250314 109 0.167016 tfidf
24 Q0 CSIRO134-12577583 110 0.167016 tfidf
24 Q0 CSIRO132-11952760 111 0.167016 tfidf
24 Q0 CSIRO145-14070427 112 0.167016 tfidf
24 Q0 CSIRO140-14710325 113 0.167016 tfidf
24 Q0 CSIRO141-01306006 114 0.167016 tfidf
24 Q0 CSIRO134-11500075 115 0.167016 tfidf
24 Q0 CSIRO141-05017988 116 0.167016 tfidf
24 Q0 CSIRO144-04925349 117 0.167016 tfidf
24 Q0 CSIRO144-04905894 118 0.167016 tfidf
24 Q0 CSIRO133-02295937 119 0.167016 tfidf
24 Q0 CSIRO143-13233335 120 0.167016 tfidf
24 Q0 CSIRO173-13285955 121 0.167016 tfidf
24 Q0 CSIRO133-04941278 122 0.167016 tfidf
24 Q0 CSIRO143-04938426 123 0.167016 tfidf
24 Q0 CSIRO132-09085818 124 0.167016 tfidf
24 Q0 CSIRO127-06797573 125 0.167016 tfidf
24 Q0 CSIRO143-06222087 126 0.167016 tfidf
24 Q0 CSIRO143-06326150 127 0.167016 tfidf
24 Q0 CSIRO132-03191095 128 0.128372 tfidf
24 Q0 CSIRO132-07175653 129 0.128372 tfidf
24 Q0 CSIRO132-11895269 130 0.128372 tfidf
24 Q0 CSIRO132-01702653 131 0.128372 tfidf
24 Q0 CSIRO132-11919193 132 0.128372 tfidf
24 Q0 CSIRO141-16595363 133 0.128372 tfidf
24 Q0 CSIRO141-12380701 134 0.128372 tfidf
24 Q0 CSIRO141-05514136 135 0.128372 tfidf
24 Q0 CSIRO140-14699594 136 0.128372 tfidf
24 Q0 CSIRO132-01615773 137 0.128372 tfidf
24 Q0 CSIRO132-14560042 138 0.128372 tfidf
24 Q0 CSIRO139-16434753 139 0.128372 tfidf
24 Q0 CSIRO144-10755708 140 0.128372 tfidf
24 Q0 CSIRO139-16264896 141 0.128372 tfidf
24 Q0 CSIRO132-01480712 142 0.128372 tfidf
24 Q0 CSIRO139-15723114 143 0.128372 tfidf
24 Q0 CSIRO132-01455556 144 0.128372 tfidf
24 Q0 CSIRO139-14631656 145 0.128372 tfidf
24 Q0 CSIRO139-13945406 146 0.128372 tfidf
24 Q0 CSIRO139-12625432 147 0.128372 tfidf
24 Q0 CSIRO133-03375296 148 0.128372 tfidf
24 Q0 CSIRO132-14854295 149 0.128372 tfidf
24 Q0 CSIRO139-05999685 150 0.128372 tfidf
24 Q0 CSIRO139-04960548 151 0.128372 tfidf
24 Q0 CSIRO139-00126054 152 0.128372 tfidf
24 Q0 CSIRO138-14589171 153 0.128372 tfidf
24 Q0 CSIRO132-15255187 154 0.128372 tfidf
24 Q0 CSIRO138-01340380 155 0.128372 tfidf
24 Q0 CSIRO131-12777641 156 0.128372 tfidf
24 Q0 CSIRO131-12453311 157 0.128372 tfidf
24 Q0 CSIRO131-12251338 158 0.128372 tfidf
24 Q0 CSIRO138-00864658 159 0.128372 tfidf
24 Q0 CSIRO138-00368059 160 0.128372 tfidf
24 Q0 CSIRO132-15320355 161 0.128372 tfidf
24 Q0 CSIRO131-12185537 162 0.128372 tfidf
24 Q0 CSIRO132-15390036 163 0.128372 tfidf
24 Q0 CSIRO131-10743776 164 0.128372 tfidf
24 Q0 CSIRO135-05149065 165 0.128372 tfidf
24 Q0 CSIRO135-01427234 166 0.128372 tfidf
24 Q0 CSIRO135-01163093 167 0.128372 tfidf
24 Q0 CSIRO134-13904277 168 0.128372 tfidf
24 Q0 CSIRO134-12681469 169 0.128372 tfidf
24 Q0 CSIRO134-12034852 170 0.128372 tfidf
24 Q0 CSIRO134-11984748 171 0.128372 tfidf
24 Q0 CSIRO134-11903180 172 0.128372 tfidf
24 Q0 CSIRO131-06342164 173 0.128372 tfidf
24 Q0 CSIRO134-07751458 174 0.128372 tfidf
24 Q0 CSIRO146-00551386 175 0.128372 tfidf
24 Q0 CSIRO134-05033426 176 0.128372 tfidf
24 Q0 CSIRO133-01822561 177 0.128372 tfidf
24 Q0 CSIRO133-11574847 178 0.128372 tfidf
24 Q0 CSIRO133-10515246 179 0.128372 tfidf
24 Q0 CSIRO130-03853062 180 0.128372 tfidf
24 Q0 CSIRO129-16628562 181 0.128372 tfidf
24 Q0 CSIRO133-09856790 182 0.128372 tfidf
24 Q0 CSIRO133-04907302 183 0.128372 tfidf
24 Q0 CSIRO125-11548842 184 0.128372 tfidf
24 Q0 CSIRO133-04881416 185 0.128372 tfidf
24 Q0 CSIRO265-12782890 186 0.128372 tfidf
24 Q0 CSIRO065-01561612 187 0.128372 tfidf
24 Q0 CSIRO265-14779177 188 0.128372 tfidf
24 Q0 CSIRO139-12012919 189 0.128372 tfidf
