13 Q0 CSIRO136-06425377 1 4.30109 tfidf
13 Q0 CSIRO180-15517031 2 3.78402 tfidf
13 Q0 CSIRO112-14413479 3 3.60898 tfidf
13 Q0 CSIRO102-04321013 4 2.62792 tfidf
13 Q0 CSIRO145-05534443 5 2.15839 tfidf
13 Q0 CSIRO135-13787078 6 2.04924 tfidf
13 Q0 CSIRO069-15437241 7 1.26552 tfidf
13 Q0 CSIRO081-09159321 8 1.10457 tfidf
13 Q0 CSIRO197-02129838 9 1.10457 tfidf
13 Q0 CSIRO144-15179677 10 1.01709 tfidf
13 Q0 CSIRO068-04810988 11 0.884284 tfidf
13 Q0 CSIRO071-13529236 12 0.884284 tfidf
13 Q0 CSIRO112-05149969 13 0.884284 tfidf
13 Q0 CSIRO127-06797573 14 0.884284 tfidf
13 Q0 CSIRO145-14573066 15 0.884284 tfidf
13 Q0 CSIRO143-04904874 16 0.884284 tfidf
13 Q0 CSIRO145-06493866 17 0.884284 tfidf
13 Q0 CSIRO144-14210292 18 0.884284 tfidf
13 Q0 CSIRO145-04767447 19 0.884284 tfidf
13 Q0 CSIRO145-04755872 20 0.884284 tfidf
13 Q0 CSIRO133-01822561 21 0.778866 tfidf
13 Q0 CSIRO205-15585834 22 0.778866 tfidf
13 Q0 CSIRO134-12577583 23 0.778866 tfidf
13 Q0 CSIRO135-01211798 24 0.778866 tfidf
13 Q0 CSIRO145-10228675 25 0.778866 tfidf
13 Q0 CSIRO145-11725455 26 0.778866 tfidf
13 Q0 CSIRO130-00195625 27 0.778866 tfidf
13 Q0 CSIRO140-06484033 28 0.778866 tfidf
13 Q0 CSIRO139-05999685 29 0.778866 tfidf
13 Q0 CSIRO139-08412608 30 0.778866 tfidf
13 Q0 CSIRO139-11043968 31 0.778866 tfidf
13 Q0 CSIRO139-12625432 32 0.778866 tfidf
13 Q0 CSIRO140-05758130 33 0.778866 tfidf
13 Q0 CSIRO139-16264896 34 0.598654 tfidf
13 Q0 CSIRO139-14077357 35 0.598654 tfidf
13 Q0 CSIRO138-00864658 36 0.598654 tfidf
13 Q0 CSIRO140-14699594 37 0.598654 tfidf
13 Q0 CSIRO140-14710325 38 0.598654 tfidf
13 Q0 CSIRO135-05149065 39 0.598654 tfidf
13 Q0 CSIRO143-05000504 40 0.598654 tfidf
13 Q0 CSIRO144-09433010 41 0.598654 tfidf
13 Q0 CSIRO144-09895603 42 0.598654 tfidf
13 Q0 CSIRO144-10755708 43 0.598654 tfidf
13 Q0 CSIRO144-12516997 44 0.598654 tfidf
13 Q0 CSIRO144-13309868 45 0.598654 tfidf
13 Q0 CSIRO134-11903180 46 0.598654 tfidf
13 Q0 CSIRO134-11830768 47 0.598654 tfidf
13 Q0 CSIRO145-02141752 48 0.598654 tfidf
13 Q0 CSIRO134-08922119 49 0.598654 tfidf
13 Q0 CSIRO133-04941278 50 0.598654 tfidf
13 Q0 CSIRO145-05173880 51 0.598654 tfidf
13 Q0 CSIRO145-05225156 52 0.598654 tfidf
13 Q0 CSIRO131-12777641 53 0.598654 tfidf
13 Q0 CSIRO131-12565294 54 0.598654 tfidf
13 Q0 CSIRO131-12453311 55 0.598654 tfidf
13 Q0 CSIRO131-12251338 56 0.598654 tfidf
13 Q0 CSIRO145-12322561 57 0.598654 tfidf
13 Q0 CSIRO131-06291763 58 0.598654 tfidf
13 Q0 CSIRO146-16756368 59 0.598654 tfidf
13 Q0 CSIRO173-13285955 60 0.598654 tfidf
13 Q0 CSIRO131-05240034 61 0.598654 tfidf
13 Q0 CSIRO130-00773576 62 0.598654 tfidf
13 Q0 CSIRO063-12268790 63 0.598654 tfidf
13 Q0 CSIRO265-15922112 64 0.598654 tfidf
