3 Q0 CSIRO197-02129838 1 2.27348 tfidf
3 Q0 CSIRO127-06797573 2 1.98838 tfidf
3 Q0 CSIRO130-00195625 3 1.74219 tfidf
3 Q0 CSIRO063-12268790 4 1.59609 tfidf
3 Q0 CSIRO205-15585834 5 1.47734 tfidf
3 Q0 CSIRO131-12565294 6 1.46686 tfidf
3 Q0 CSIRO180-15517031 7 1.45819 tfidf
3 Q0 CSIRO131-12596833 8 1.36051 tfidf
3 Q0 CSIRO133-09856790 9 1.33051 tfidf
3 Q0 CSIRO140-05758130 10 1.33051 tfidf
3 Q0 CSIRO135-12644434 11 1.32423 tfidf
3 Q0 CSIRO115-10957636 12 1.29794 tfidf
3 Q0 CSIRO112-14413479 13 1.29794 tfidf
3 Q0 CSIRO135-01163093 14 1.29794 tfidf
3 Q0 CSIRO131-06342164 15 1.26538 tfidf
3 Q0 CSIRO131-05668430 16 1.26156 tfidf
3 Q0 CSIRO069-15437241 17 1.21924 tfidf
3 Q0 CSIRO063-16421918 18 1.16387 tfidf
3 Q0 CSIRO156-13474993 19 1.09875 tfidf
3 Q0 CSIRO144-11175582 20 1.01476 tfidf
3 Q0 CSIRO146-00551386 21 0.999797 tfidf
3 Q0 CSIRO139-08803101 22 0.990043 tfidf
3 Q0 CSIRO131-05551059 23 0.986283 tfidf
3 Q0 CSIRO139-13945406 24 0.982195 tfidf
3 Q0 CSIRO131-12850648 25 0.972769 tfidf
3 Q0 CSIRO133-10151601 26 0.972769 tfidf
3 Q0 CSIRO145-12322561 27 0.960963 tfidf
3 Q0 CSIRO131-12251338 28 0.945156 tfidf
3 Q0 CSIRO131-12453311 29 0.945156 tfidf
3 Q0 CSIRO139-11490655 30 0.945156 tfidf
3 Q0 CSIRO145-05225156 31 0.934674 tfidf
3 Q0 CSIRO131-12699482 32 0.921159 tfidf
3 Q0 CSIRO131-12777641 33 0.921159 tfidf
3 Q0 CSIRO131-16721510 34 0.921159 tfidf
3 Q0 CSIRO131-00286503 35 0.921159 tfidf
3 Q0 CSIRO131-12753880 36 0.921159 tfidf
3 Q0 CSIRO134-08922119 37 0.902112 tfidf
3 Q0 CSIRO132-01480712 38 0.902112 tfidf
3 Q0 CSIRO134-11903180 39 0.86955 tfidf
3 Q0 CSIRO135-13787078 40 0.86955 tfidf
3 Q0 CSIRO130-04150369 41 0.86955 tfidf
3 Q0 CSIRO130-00773576 42 0.86955 tfidf
3 Q0 CSIRO265-14779177 43 0.761381 tfidf
3 Q0 CSIRO139-14631656 44 0.761381 tfidf
3 Q0 CSIRO145-05069540 45 0.24395 tfidf
3 Q0 CSIRO129-16545538 46 0.241264 tfidf
3 Q0 CSIRO135-01211798 47 0.235385 tfidf
3 Q0 CSIRO145-05056085 48 0.235385 tfidf
3 Q0 CSIRO139-15735123 49 0.235385 tfidf
3 Q0 CSIRO144-06045005 50 0.228662 tfidf
3 Q0 CSIRO132-02700019 51 0.220814 tfidf
3 Q0 CSIRO139-15723114 52 0.220814 tfidf
3 Q0 CSIRO145-05108814 53 0.216337 tfidf
3 Q0 CSIRO145-14573066 54 0.216337 tfidf
3 Q0 CSIRO145-12250314 55 0.211388 tfidf
3 Q0 CSIRO068-04810988 56 0.211388 tfidf
3 Q0 CSIRO071-13529236 57 0.211388 tfidf
3 Q0 CSIRO144-09895603 58 0.205854 tfidf
3 Q0 CSIRO112-05149969 59 0.205854 tfidf
3 Q0 CSIRO145-11725455 60 0.205854 tfidf
3 Q0 CSIRO141-01306006 61 0.199582 tfidf
3 Q0 CSIRO138-14589171 62 0.19234 tfidf
3 Q0 CSIRO129-16466164 63 0.19234 tfidf
3 Q0 CSIRO130-00063457 64 0.19234 tfidf
3 Q0 CSIRO134-14241751 65 0.19234 tfidf
3 Q0 CSIRO140-05307643 66 0.183775 tfidf
3 Q0 CSIRO112-13202732 67 0.183775 tfidf
3 Q0 CSIRO140-02275138 68 0.183775 tfidf
3 Q0 CSIRO139-14077357 69 0.183775 tfidf
3 Q0 CSIRO144-12516997 70 0.183775 tfidf
3 Q0 CSIRO144-14210292 71 0.183775 tfidf
3 Q0 CSIRO145-02248445 72 0.183775 tfidf
3 Q0 CSIRO145-06493866 73 0.183775 tfidf
3 Q0 CSIRO145-11557922 74 0.183775 tfidf
3 Q0 CSIRO131-12185537 75 0.183775 tfidf
3 Q0 CSIRO131-10796117 76 0.183775 tfidf
3 Q0 CSIRO135-01262721 77 0.183775 tfidf
3 Q0 CSIRO134-12034852 78 0.183775 tfidf
3 Q0 CSIRO134-12577583 79 0.183775 tfidf
3 Q0 CSIRO265-16107985 80 0.173293 tfidf
3 Q0 CSIRO131-10743776 81 0.173293 tfidf
3 Q0 CSIRO133-09927606 82 0.173293 tfidf
3 Q0 CSIRO140-11713267 83 0.173293 tfidf
3 Q0 CSIRO139-12625432 84 0.173293 tfidf
3 Q0 CSIRO145-02213132 85 0.173293 tfidf
3 Q0 CSIRO145-02141752 86 0.173293 tfidf
3 Q0 CSIRO134-11984748 87 0.159778 tfidf
3 Q0 CSIRO133-00069480 88 0.159778 tfidf
3 Q0 CSIRO139-15242770 89 0.159778 tfidf
3 Q0 CSIRO133-03375296 90 0.159778 tfidf
3 Q0 CSIRO144-11565923 91 0.159778 tfidf
3 Q0 CSIRO131-12229037 92 0.159778 tfidf
3 Q0 CSIRO146-00587153 93 0.159778 tfidf
3 Q0 CSIRO145-11361941 94 0.159778 tfidf
3 Q0 CSIRO145-15096261 95 0.159778 tfidf
3 Q0 CSIRO134-07751458 96 0.159778 tfidf
3 Q0 CSIRO131-12872798 97 0.159778 tfidf
3 Q0 CSIRO131-12897049 98 0.159778 tfidf
3 Q0 CSIRO133-11574847 99 0.159778 tfidf
3 Q0 CSIRO138-13950052 100 0.140731 tfidf
3 Q0 CSIRO144-15179677 101 0.140731 tfidf
3 Q0 CSIRO138-15933953 102 0.140731 tfidf
3 Q0 CSIRO134-02469451 103 0.140731 tfidf
3 Q0 CSIRO133-11520197 104 0.140731 tfidf
3 Q0 CSIRO135-04106002 105 0.140731 tfidf
3 Q0 CSIRO132-03191095 106 0.140731 tfidf
3 Q0 CSIRO139-08412608 107 0.140731 tfidf
3 Q0 CSIRO139-08576080 108 0.140731 tfidf
3 Q0 CSIRO144-04759979 109 0.140731 tfidf
3 Q0 CSIRO143-05000504 110 0.140731 tfidf
3 Q0 CSIRO139-12012919 111 0.140731 tfidf
3 Q0 CSIRO134-11500075 112 0.140731 tfidf
3 Q0 CSIRO143-04964410 113 0.140731 tfidf
3 Q0 CSIRO134-11830768 114 0.140731 tfidf
3 Q0 CSIRO132-07263415 115 0.140731 tfidf
3 Q0 CSIRO131-06291763 116 0.140731 tfidf
3 Q0 CSIRO140-11762402 117 0.140731 tfidf
3 Q0 CSIRO145-14070427 118 0.140731 tfidf
3 Q0 CSIRO139-16225396 119 0.140731 tfidf
3 Q0 CSIRO139-16264896 120 0.140731 tfidf
3 Q0 CSIRO140-06484033 121 0.140731 tfidf
3 Q0 CSIRO145-14351098 122 0.140731 tfidf
3 Q0 CSIRO145-10228675 123 0.140731 tfidf
3 Q0 CSIRO132-09085818 124 0.108169 tfidf
3 Q0 CSIRO139-16434753 125 0.108169 tfidf
3 Q0 CSIRO132-11895269 126 0.108169 tfidf
3 Q0 CSIRO132-11919193 127 0.108169 tfidf
3 Q0 CSIRO140-14710325 128 0.108169 tfidf
3 Q0 CSIRO132-11952760 129 0.108169 tfidf
3 Q0 CSIRO141-01749044 130 0.108169 tfidf
3 Q0 CSIRO141-05017988 131 0.108169 tfidf
3 Q0 CSIRO141-12380701 132 0.108169 tfidf
3 Q0 CSIRO141-16595363 133 0.108169 tfidf
3 Q0 CSIRO143-04694722 134 0.108169 tfidf
3 Q0 CSIRO143-04904874 135 0.108169 tfidf
3 Q0 CSIRO143-04938426 136 0.108169 tfidf
3 Q0 CSIRO132-14560042 137 0.108169 tfidf
3 Q0 CSIRO132-14596615 138 0.108169 tfidf
3 Q0 CSIRO143-06222087 139 0.108169 tfidf
3 Q0 CSIRO143-06256522 140 0.108169 tfidf
3 Q0 CSIRO143-06326150 141 0.108169 tfidf
3 Q0 CSIRO143-06361582 142 0.108169 tfidf
3 Q0 CSIRO143-08253479 143 0.108169 tfidf
3 Q0 CSIRO143-08288718 144 0.108169 tfidf
3 Q0 CSIRO143-13233335 145 0.108169 tfidf
3 Q0 CSIRO132-14854295 146 0.108169 tfidf
3 Q0 CSIRO144-04905894 147 0.108169 tfidf
3 Q0 CSIRO144-04925349 148 0.108169 tfidf
3 Q0 CSIRO144-05140025 149 0.108169 tfidf
3 Q0 CSIRO132-07175653 150 0.108169 tfidf
3 Q0 CSIRO144-09433010 151 0.108169 tfidf
3 Q0 CSIRO139-05999685 152 0.108169 tfidf
3 Q0 CSIRO132-01702653 153 0.108169 tfidf
3 Q0 CSIRO139-04960548 154 0.108169 tfidf
3 Q0 CSIRO139-00898490 155 0.108169 tfidf
3 Q0 CSIRO144-13309868 156 0.108169 tfidf
3 Q0 CSIRO139-00126054 157 0.108169 tfidf
3 Q0 CSIRO133-04907302 158 0.108169 tfidf
3 Q0 CSIRO145-00429165 159 0.108169 tfidf
3 Q0 CSIRO145-02061840 160 0.108169 tfidf
3 Q0 CSIRO138-01340380 161 0.108169 tfidf
3 Q0 CSIRO138-00864658 162 0.108169 tfidf
3 Q0 CSIRO138-00368059 163 0.108169 tfidf
3 Q0 CSIRO145-04081935 164 0.108169 tfidf
3 Q0 CSIRO145-04117894 165 0.108169 tfidf
3 Q0 CSIRO145-04767447 166 0.108169 tfidf
3 Q0 CSIRO132-01615773 167 0.108169 tfidf
3 Q0 CSIRO132-01455556 168 0.108169 tfidf
3 Q0 CSIRO138-00324936 169 0.108169 tfidf
3 Q0 CSIRO138-00045920 170 0.108169 tfidf
3 Q0 CSIRO145-05534443 171 0.108169 tfidf
3 Q0 CSIRO145-05884559 172 0.108169 tfidf
3 Q0 CSIRO145-06454342 173 0.108169 tfidf
3 Q0 CSIRO138-00023148 174 0.108169 tfidf
3 Q0 CSIRO145-06856110 175 0.108169 tfidf
3 Q0 CSIRO138-00000000 176 0.108169 tfidf
3 Q0 CSIRO145-10750042 177 0.108169 tfidf
3 Q0 CSIRO132-15255187 178 0.108169 tfidf
3 Q0 CSIRO132-15320355 179 0.108169 tfidf
3 Q0 CSIRO135-05149065 180 0.108169 tfidf
3 Q0 CSIRO135-01427234 181 0.108169 tfidf
3 Q0 CSIRO135-01377416 182 0.108169 tfidf
3 Q0 CSIRO145-12516153 183 0.108169 tfidf
3 Q0 CSIRO132-15390036 184 0.108169 tfidf
3 Q0 CSIRO134-13904277 185 0.108169 tfidf
3 Q0 CSIRO134-12734961 186 0.108169 tfidf
3 Q0 CSIRO134-12681469 187 0.108169 tfidf
3 Q0 CSIRO133-01822561 188 0.108169 tfidf
3 Q0 CSIRO133-02295937 189 0.108169 tfidf
3 Q0 CSIRO146-14218036 190 0.108169 tfidf
3 Q0 CSIRO146-16756368 191 0.108169 tfidf
3 Q0 CSIRO131-05240034 192 0.108169 tfidf
3 Q0 CSIRO134-05033426 193 0.108169 tfidf
3 Q0 CSIRO183-07728081 194 0.108169 tfidf
3 Q0 CSIRO129-16628562 195 0.108169 tfidf
3 Q0 CSIRO133-10515246 196 0.108169 tfidf
3 Q0 CSIRO133-04881416 197 0.108169 tfidf
3 Q0 CSIRO133-04941278 198 0.108169 tfidf
3 Q0 CSIRO265-16625137 199 0.108169 tfidf
