24 Q0 CSIRO144-11565923 1 8.68139 tfidf
24 Q0 CSIRO146-14218036 2 6.6415 tfidf
24 Q0 CSIRO146-16756368 3 6.34077 tfidf
24 Q0 CSIRO142-05442261 4 6.28998 tfidf
24 Q0 CSIRO180-15517031 5 5.74437 tfidf
24 Q0 CSIRO102-04321013 6 2.12655 tfidf
24 Q0 CSIRO112-14413479 7 1.65514 tfidf
24 Q0 CSIRO141-05017988 8 1.50991 tfidf
24 Q0 CSIRO130-00195625 9 0.287783 tfidf
24 Q0 CSIRO092-02894761 10 0.251099 tfidf
24 Q0 CSIRO135-13787078 11 0.234069 tfidf
24 Q0 CSIRO143-04694722 12 0.229815 tfidf
24 Q0 CSIRO181-10236586 13 0.225155 tfidf
24 Q0 CSIRO205-15585834 14 0.220004 tfidf
24 Q0 CSIRO183-07728081 15 0.220004 tfidf
24 Q0 CSIRO136-06425377 16 0.220004 tfidf
24 Q0 CSIRO144-14210292 17 0.220004 tfidf
24 Q0 CSIRO066-03293205 18 0.214245 tfidf
24 Q0 CSIRO069-15437241 19 0.214245 tfidf
24 Q0 CSIRO181-15439404 20 0.214245 tfidf
24 Q0 CSIRO144-06045005 21 0.214245 tfidf
24 Q0 CSIRO129-16545538 22 0.207717 tfidf
24 Q0 CSIRO139-08412608 23 0.207717 tfidf
24 Q0 CSIRO265-16625137 24 0.20018 tfidf
24 Q0 CSIRO132-07263415 25 0.20018 tfidf
24 Q0 CSIRO145-14573066 26 0.20018 tfidf
24 Q0 CSIRO131-05668430 27 0.20018 tfidf
24 Q0 CSIRO135-01211798 28 0.20018 tfidf
24 Q0 CSIRO138-13950052 29 0.20018 tfidf
24 Q0 CSIRO140-05307643 30 0.191266 tfidf
24 Q0 CSIRO140-11762402 31 0.191266 tfidf
24 Q0 CSIRO145-05108814 32 0.191266 tfidf
24 Q0 CSIRO145-10228675 33 0.191266 tfidf
24 Q0 CSIRO145-12516153 34 0.191266 tfidf
24 Q0 CSIRO197-02129838 35 0.191266 tfidf
24 Q0 CSIRO133-10151601 36 0.191266 tfidf
24 Q0 CSIRO063-12268790 37 0.180356 tfidf
24 Q0 CSIRO133-11520197 38 0.180356 tfidf
24 Q0 CSIRO143-06256522 39 0.180356 tfidf
24 Q0 CSIRO265-14667001 40 0.180356 tfidf
24 Q0 CSIRO143-05000504 41 0.180356 tfidf
24 Q0 CSIRO145-06493866 42 0.180356 tfidf
24 Q0 CSIRO143-04964410 43 0.180356 tfidf
24 Q0 CSIRO145-05225156 44 0.180356 tfidf
24 Q0 CSIRO145-05069540 45 0.180356 tfidf
24 Q0 CSIRO139-11490655 46 0.180356 tfidf
24 Q0 CSIRO143-06361582 47 0.180356 tfidf
24 Q0 CSIRO143-08288718 48 0.180356 tfidf
24 Q0 CSIRO144-13309868 49 0.180356 tfidf
24 Q0 CSIRO134-02469451 50 0.180356 tfidf
24 Q0 CSIRO146-00587153 51 0.180356 tfidf
24 Q0 CSIRO140-11713267 52 0.166291 tfidf
24 Q0 CSIRO145-15096261 53 0.166291 tfidf
24 Q0 CSIRO133-09927606 54 0.166291 tfidf
24 Q0 CSIRO130-04150369 55 0.166291 tfidf
24 Q0 CSIRO140-06484033 56 0.166291 tfidf
24 Q0 CSIRO139-08803101 57 0.166291 tfidf
24 Q0 CSIRO145-12322561 58 0.166291 tfidf
24 Q0 CSIRO141-01749044 59 0.166291 tfidf
24 Q0 CSIRO144-05140025 60 0.166291 tfidf
24 Q0 CSIRO140-02275138 61 0.166291 tfidf
24 Q0 CSIRO134-08922119 62 0.166291 tfidf
24 Q0 CSIRO139-16225396 63 0.166291 tfidf
24 Q0 CSIRO139-15242770 64 0.166291 tfidf
24 Q0 CSIRO144-09895603 65 0.166291 tfidf
24 Q0 CSIRO144-04759979 66 0.166291 tfidf
24 Q0 CSIRO143-04904874 67 0.166291 tfidf
24 Q0 CSIRO145-00429165 68 0.166291 tfidf
24 Q0 CSIRO139-00898490 69 0.166291 tfidf
24 Q0 CSIRO132-02700019 70 0.166291 tfidf
24 Q0 CSIRO129-16466164 71 0.166291 tfidf
24 Q0 CSIRO127-06797573 72 0.166291 tfidf
24 Q0 CSIRO085-04191349 73 0.166291 tfidf
24 Q0 CSIRO135-04106002 74 0.166291 tfidf
24 Q0 CSIRO135-01377416 75 0.166291 tfidf
24 Q0 CSIRO145-05884559 76 0.146467 tfidf
24 Q0 CSIRO145-05534443 77 0.146467 tfidf
24 Q0 CSIRO145-06454342 78 0.146467 tfidf
24 Q0 CSIRO135-05149065 79 0.146467 tfidf
24 Q0 CSIRO134-14241751 80 0.146467 tfidf
24 Q0 CSIRO145-06856110 81 0.146467 tfidf
24 Q0 CSIRO134-12734961 82 0.146467 tfidf
24 Q0 CSIRO138-00000000 83 0.146467 tfidf
24 Q0 CSIRO138-00023148 84 0.146467 tfidf
24 Q0 CSIRO138-00045920 85 0.146467 tfidf
24 Q0 CSIRO138-00324936 86 0.146467 tfidf
24 Q0 CSIRO145-05056085 87 0.146467 tfidf
24 Q0 CSIRO145-04767447 88 0.146467 tfidf
24 Q0 CSIRO145-04117894 89 0.146467 tfidf
24 Q0 CSIRO145-04081935 90 0.146467 tfidf
24 Q0 CSIRO145-02248445 91 0.146467 tfidf
24 Q0 CSIRO138-15933953 92 0.146467 tfidf
24 Q0 CSIRO145-02213132 93 0.146467 tfidf
24 Q0 CSIRO145-10750042 94 0.146467 tfidf
24 Q0 CSIRO145-02141752 95 0.146467 tfidf
24 Q0 CSIRO145-02061840 96 0.146467 tfidf
24 Q0 CSIRO134-12577583 97 0.146467 tfidf
24 Q0 CSIRO139-08576080 98 0.146467 tfidf
24 Q0 CSIRO144-15179677 99 0.146467 tfidf
24 Q0 CSIRO145-11361941 100 0.146467 tfidf
24 Q0 CSIRO145-11557922 101 0.146467 tfidf
24 Q0 CSIRO144-12516997 102 0.146467 tfidf
24 Q0 CSIRO144-11175582 103 0.146467 tfidf
24 Q0 CSIRO139-14077357 104 0.146467 tfidf
24 Q0 CSIRO145-11725455 105 0.146467 tfidf
24 Q0 CSIRO134-11830768 106 0.146467 tfidf
24 Q0 CSIRO144-09433010 107 0.146467 tfidf
24 Q0 CSIRO139-15735123 108 0.146467 tfidf
24 Q0 CSIRO134-11500075 109 0.146467 tfidf
24 Q0 CSIRO139-16264896 110 0.146467 tfidf
24 Q0 CSIRO139-16434753 111 0.146467 tfidf
24 Q0 CSIRO145-12250314 112 0.146467 tfidf
24 Q0 CSIRO134-05033426 113 0.146467 tfidf
24 Q0 CSIRO140-05758130 114 0.146467 tfidf
24 Q0 CSIRO145-14070427 115 0.146467 tfidf
24 Q0 CSIRO133-04941278 116 0.146467 tfidf
24 Q0 CSIRO144-04925349 117 0.146467 tfidf
24 Q0 CSIRO144-04905894 118 0.146467 tfidf
24 Q0 CSIRO140-14710325 119 0.146467 tfidf
24 Q0 CSIRO141-01306006 120 0.146467 tfidf
24 Q0 CSIRO130-03853062 121 0.146467 tfidf
24 Q0 CSIRO131-16721510 122 0.146467 tfidf
24 Q0 CSIRO156-13474993 123 0.146467 tfidf
24 Q0 CSIRO143-13233335 124 0.146467 tfidf
24 Q0 CSIRO133-02295937 125 0.146467 tfidf
24 Q0 CSIRO143-08253479 126 0.146467 tfidf
24 Q0 CSIRO173-13285955 127 0.146467 tfidf
24 Q0 CSIRO133-00069480 128 0.146467 tfidf
24 Q0 CSIRO143-04938426 129 0.146467 tfidf
24 Q0 CSIRO125-11548842 130 0.146467 tfidf
24 Q0 CSIRO132-14596615 131 0.146467 tfidf
24 Q0 CSIRO143-06222087 132 0.146467 tfidf
24 Q0 CSIRO132-11952760 133 0.146467 tfidf
24 Q0 CSIRO143-06326150 134 0.146467 tfidf
24 Q0 CSIRO131-12753880 135 0.112578 tfidf
24 Q0 CSIRO131-12777641 136 0.112578 tfidf
24 Q0 CSIRO141-16595363 137 0.112578 tfidf
24 Q0 CSIRO141-12380701 138 0.112578 tfidf
24 Q0 CSIRO141-05514136 139 0.112578 tfidf
24 Q0 CSIRO140-14699594 140 0.112578 tfidf
24 Q0 CSIRO132-11919193 141 0.112578 tfidf
24 Q0 CSIRO132-01480712 142 0.112578 tfidf
24 Q0 CSIRO131-12453311 143 0.112578 tfidf
24 Q0 CSIRO139-15723114 144 0.112578 tfidf
24 Q0 CSIRO139-14631656 145 0.112578 tfidf
24 Q0 CSIRO144-10755708 146 0.112578 tfidf
24 Q0 CSIRO139-13945406 147 0.112578 tfidf
24 Q0 CSIRO131-12251338 148 0.112578 tfidf
24 Q0 CSIRO139-12625432 149 0.112578 tfidf
24 Q0 CSIRO139-12012919 150 0.112578 tfidf
24 Q0 CSIRO131-12185537 151 0.112578 tfidf
24 Q0 CSIRO132-11895269 152 0.112578 tfidf
24 Q0 CSIRO132-01615773 153 0.112578 tfidf
24 Q0 CSIRO139-05999685 154 0.112578 tfidf
24 Q0 CSIRO139-04960548 155 0.112578 tfidf
24 Q0 CSIRO139-00126054 156 0.112578 tfidf
24 Q0 CSIRO138-14589171 157 0.112578 tfidf
24 Q0 CSIRO132-01702653 158 0.112578 tfidf
24 Q0 CSIRO138-01340380 159 0.112578 tfidf
24 Q0 CSIRO138-00864658 160 0.112578 tfidf
24 Q0 CSIRO138-00368059 161 0.112578 tfidf
24 Q0 CSIRO132-03191095 162 0.112578 tfidf
24 Q0 CSIRO131-10796117 163 0.112578 tfidf
24 Q0 CSIRO135-12644434 164 0.112578 tfidf
24 Q0 CSIRO135-01427234 165 0.112578 tfidf
24 Q0 CSIRO135-01262721 166 0.112578 tfidf
24 Q0 CSIRO132-07175653 167 0.112578 tfidf
24 Q0 CSIRO135-01163093 168 0.112578 tfidf
24 Q0 CSIRO134-13904277 169 0.112578 tfidf
24 Q0 CSIRO131-10743776 170 0.112578 tfidf
24 Q0 CSIRO134-12681469 171 0.112578 tfidf
24 Q0 CSIRO134-12034852 172 0.112578 tfidf
24 Q0 CSIRO134-11984748 173 0.112578 tfidf
24 Q0 CSIRO134-11903180 174 0.112578 tfidf
24 Q0 CSIRO134-07751458 175 0.112578 tfidf
24 Q0 CSIRO133-11574847 176 0.112578 tfidf
24 Q0 CSIRO131-06342164 177 0.112578 tfidf
24 Q0 CSIRO133-10515246 178 0.112578 tfidf
24 Q0 CSIRO132-09085818 179 0.112578 tfidf
24 Q0 CSIRO133-09856790 180 0.112578 tfidf
24 Q0 CSIRO146-00551386 181 0.112578 tfidf
24 Q0 CSIRO133-04907302 182 0.112578 tfidf
24 Q0 CSIRO133-04881416 183 0.112578 tfidf
24 Q0 CSIRO129-16628562 184 0.112578 tfidf
24 Q0 CSIRO133-03375296 185 0.112578 tfidf
24 Q0 CSIRO133-01822561 186 0.112578 tfidf
24 Q0 CSIRO132-15390036 187 0.112578 tfidf
24 Q0 CSIRO132-15320355 188 0.112578 tfidf
24 Q0 CSIRO132-15255187 189 0.112578 tfidf
24 Q0 CSIRO124-12359962 190 0.112578 tfidf
24 Q0 CSIRO132-14854295 191 0.112578 tfidf
24 Q0 CSIRO065-01561612 192 0.112578 tfidf
24 Q0 CSIRO265-12782890 193 0.112578 tfidf
24 Q0 CSIRO132-14560042 194 0.112578 tfidf
24 Q0 CSIRO265-14779177 195 0.112578 tfidf
24 Q0 CSIRO132-01455556 196 0.112578 tfidf
