1,0.04
1,0.08
1,0.12
0.75,0.12
0.6,0.12
0.666667,0.16
0.714286,0.2
0.75,0.24
0.777778,0.28
0.7,0.28
0.727273,0.32
0.75,0.36
0.769231,0.4
0.785714,0.44
0.8,0.48
0.75,0.48
0.764706,0.52
0.777778,0.56
0.789474,0.6
0.8,0.64
0.809524,0.68
0.818182,0.72
0.826087,0.76
0.833333,0.8
0.84,0.84
