3 Q0 CSIRO197-02129838 1 1.93696 tfidf
3 Q0 CSIRO127-06797573 2 1.72332 tfidf
3 Q0 CSIRO130-00195625 3 1.42087 tfidf
3 Q0 CSIRO129-16545538 4 1.37968 tfidf
3 Q0 CSIRO180-15517031 5 1.33919 tfidf
3 Q0 CSIRO063-12268790 6 1.27034 tfidf
3 Q0 CSIRO139-15735123 7 1.23548 tfidf
3 Q0 CSIRO139-15723114 8 1.22733 tfidf
3 Q0 CSIRO112-14413479 9 1.21884 tfidf
3 Q0 CSIRO205-15585834 10 1.21697 tfidf
3 Q0 CSIRO131-12850648 11 1.20685 tfidf
3 Q0 CSIRO131-12565294 12 1.19824 tfidf
3 Q0 CSIRO115-10957636 13 1.18713 tfidf
3 Q0 CSIRO129-16466164 14 1.16102 tfidf
3 Q0 CSIRO131-12753880 15 1.16038 tfidf
3 Q0 CSIRO069-15437241 16 1.14181 tfidf
3 Q0 CSIRO144-06045005 17 1.12307 tfidf
3 Q0 CSIRO131-12596833 18 1.11456 tfidf
3 Q0 CSIRO133-10151601 19 1.10493 tfidf
3 Q0 CSIRO133-09856790 20 1.10087 tfidf
3 Q0 CSIRO156-13474993 21 1.09891 tfidf
3 Q0 CSIRO140-05758130 22 1.09632 tfidf
3 Q0 CSIRO135-12644434 23 1.09632 tfidf
3 Q0 CSIRO131-05668430 24 1.08206 tfidf
3 Q0 CSIRO135-01163093 25 1.06957 tfidf
3 Q0 CSIRO063-16421918 26 1.06957 tfidf
3 Q0 CSIRO131-12251338 27 1.02856 tfidf
3 Q0 CSIRO133-11574847 28 1.01886 tfidf
3 Q0 CSIRO131-06342164 29 1.01886 tfidf
3 Q0 CSIRO131-12229037 30 1.01886 tfidf
3 Q0 CSIRO131-12699482 31 1.01291 tfidf
3 Q0 CSIRO131-00286503 32 0.986159 tfidf
3 Q0 CSIRO131-05551059 33 0.946358 tfidf
3 Q0 CSIRO139-13945406 34 0.940835 tfidf
3 Q0 CSIRO131-12872798 35 0.903959 tfidf
3 Q0 CSIRO135-13787078 36 0.895347 tfidf
3 Q0 CSIRO132-07263415 37 0.868597 tfidf
3 Q0 CSIRO133-11520197 38 0.868597 tfidf
3 Q0 CSIRO130-04150369 39 0.868597 tfidf
3 Q0 CSIRO140-11762402 40 0.841846 tfidf
3 Q0 CSIRO144-11175582 41 0.80015 tfidf
3 Q0 CSIRO139-08803101 42 0.791848 tfidf
3 Q0 CSIRO146-00551386 43 0.785119 tfidf
3 Q0 CSIRO145-12322561 44 0.776964 tfidf
3 Q0 CSIRO139-14077357 45 0.752419 tfidf
3 Q0 CSIRO139-12625432 46 0.747874 tfidf
3 Q0 CSIRO131-12453311 47 0.742721 tfidf
3 Q0 CSIRO139-11490655 48 0.729735 tfidf
3 Q0 CSIRO132-01480712 49 0.721123 tfidf
3 Q0 CSIRO145-05225156 50 0.721123 tfidf
3 Q0 CSIRO131-12777641 51 0.721123 tfidf
3 Q0 CSIRO131-10743776 52 0.721123 tfidf
3 Q0 CSIRO133-00069480 53 0.710021 tfidf
3 Q0 CSIRO131-16721510 54 0.710021 tfidf
3 Q0 CSIRO145-14070427 55 0.694373 tfidf
3 Q0 CSIRO139-14631656 56 0.694373 tfidf
3 Q0 CSIRO146-00587153 57 0.694373 tfidf
3 Q0 CSIRO134-08922119 58 0.694373 tfidf
3 Q0 CSIRO139-16434753 59 0.667622 tfidf
3 Q0 CSIRO145-06454342 60 0.667622 tfidf
3 Q0 CSIRO133-01822561 61 0.667622 tfidf
3 Q0 CSIRO133-02295937 62 0.667622 tfidf
3 Q0 CSIRO134-12734961 63 0.667622 tfidf
3 Q0 CSIRO133-04941278 64 0.667622 tfidf
3 Q0 CSIRO134-11903180 65 0.667622 tfidf
3 Q0 CSIRO265-14779177 66 0.578759 tfidf
3 Q0 CSIRO129-10309081 67 0.578759 tfidf
3 Q0 CSIRO145-05069540 68 0.211514 tfidf
3 Q0 CSIRO068-04810988 69 0.208156 tfidf
3 Q0 CSIRO071-13529236 70 0.208156 tfidf
3 Q0 CSIRO145-05108814 71 0.202498 tfidf
3 Q0 CSIRO145-05056085 72 0.200411 tfidf
3 Q0 CSIRO132-02700019 73 0.195866 tfidf
3 Q0 CSIRO135-01211798 74 0.193375 tfidf
3 Q0 CSIRO134-14241751 75 0.184763 tfidf
3 Q0 CSIRO112-05149969 76 0.184763 tfidf
3 Q0 CSIRO145-11557922 77 0.181405 tfidf
3 Q0 CSIRO144-09895603 78 0.177727 tfidf
3 Q0 CSIRO145-12250314 79 0.177727 tfidf
3 Q0 CSIRO145-14573066 80 0.177727 tfidf
3 Q0 CSIRO141-01306006 81 0.173661 tfidf
3 Q0 CSIRO140-11713267 82 0.173661 tfidf
3 Q0 CSIRO134-11984748 83 0.173661 tfidf
3 Q0 CSIRO134-12034852 84 0.173661 tfidf
3 Q0 CSIRO145-11725455 85 0.173661 tfidf
3 Q0 CSIRO145-02248445 86 0.169115 tfidf
3 Q0 CSIRO145-02141752 87 0.163962 tfidf
3 Q0 CSIRO145-02213132 88 0.163962 tfidf
3 Q0 CSIRO134-12577583 89 0.158013 tfidf
3 Q0 CSIRO144-12516997 90 0.158013 tfidf
3 Q0 CSIRO130-00063457 91 0.158013 tfidf
3 Q0 CSIRO138-14589171 92 0.158013 tfidf
3 Q0 CSIRO144-14210292 93 0.150976 tfidf
3 Q0 CSIRO140-05307643 94 0.150976 tfidf
3 Q0 CSIRO140-02275138 95 0.150976 tfidf
3 Q0 CSIRO145-06493866 96 0.150976 tfidf
3 Q0 CSIRO134-07751458 97 0.150976 tfidf
3 Q0 CSIRO131-12897049 98 0.150976 tfidf
3 Q0 CSIRO131-12185537 99 0.150976 tfidf
3 Q0 CSIRO131-10796117 100 0.150976 tfidf
3 Q0 CSIRO112-13202732 101 0.150976 tfidf
3 Q0 CSIRO265-16107985 102 0.150976 tfidf
3 Q0 CSIRO138-13950052 103 0.142364 tfidf
3 Q0 CSIRO145-15096261 104 0.142364 tfidf
3 Q0 CSIRO133-09927606 105 0.142364 tfidf
3 Q0 CSIRO135-01262721 106 0.142364 tfidf
3 Q0 CSIRO131-05240034 107 0.131262 tfidf
3 Q0 CSIRO131-05276360 108 0.131262 tfidf
3 Q0 CSIRO145-11361941 109 0.131262 tfidf
3 Q0 CSIRO133-03375296 110 0.131262 tfidf
3 Q0 CSIRO144-11565923 111 0.131262 tfidf
3 Q0 CSIRO133-10515246 112 0.131262 tfidf
3 Q0 CSIRO139-15242770 113 0.131262 tfidf
3 Q0 CSIRO139-16225396 114 0.131262 tfidf
3 Q0 CSIRO139-16264896 115 0.131262 tfidf
3 Q0 CSIRO143-05000504 116 0.131262 tfidf
3 Q0 CSIRO265-01515181 117 0.115614 tfidf
3 Q0 CSIRO138-15933953 118 0.115614 tfidf
3 Q0 CSIRO131-06291763 119 0.115614 tfidf
3 Q0 CSIRO145-14351098 120 0.115614 tfidf
3 Q0 CSIRO132-03191095 121 0.115614 tfidf
3 Q0 CSIRO145-10228675 122 0.115614 tfidf
3 Q0 CSIRO139-11043968 123 0.115614 tfidf
3 Q0 CSIRO144-15179677 124 0.115614 tfidf
3 Q0 CSIRO134-02469451 125 0.115614 tfidf
3 Q0 CSIRO144-04759979 126 0.115614 tfidf
3 Q0 CSIRO135-04106002 127 0.115614 tfidf
3 Q0 CSIRO135-01427234 128 0.115614 tfidf
3 Q0 CSIRO143-04964410 129 0.115614 tfidf
3 Q0 CSIRO143-04694722 130 0.115614 tfidf
3 Q0 CSIRO140-06484033 131 0.115614 tfidf
3 Q0 CSIRO134-11500075 132 0.115614 tfidf
3 Q0 CSIRO134-11830768 133 0.0888634 tfidf
3 Q0 CSIRO140-14710325 134 0.0888634 tfidf
3 Q0 CSIRO134-05033426 135 0.0888634 tfidf
3 Q0 CSIRO141-01749044 136 0.0888634 tfidf
3 Q0 CSIRO141-05017988 137 0.0888634 tfidf
3 Q0 CSIRO141-12380701 138 0.0888634 tfidf
3 Q0 CSIRO141-16595363 139 0.0888634 tfidf
3 Q0 CSIRO134-12681469 140 0.0888634 tfidf
3 Q0 CSIRO143-04904874 141 0.0888634 tfidf
3 Q0 CSIRO143-04938426 142 0.0888634 tfidf
3 Q0 CSIRO134-13904277 143 0.0888634 tfidf
3 Q0 CSIRO135-01377416 144 0.0888634 tfidf
3 Q0 CSIRO143-06222087 145 0.0888634 tfidf
3 Q0 CSIRO143-06256522 146 0.0888634 tfidf
3 Q0 CSIRO143-06326150 147 0.0888634 tfidf
3 Q0 CSIRO143-06361582 148 0.0888634 tfidf
3 Q0 CSIRO143-08253479 149 0.0888634 tfidf
3 Q0 CSIRO143-08288718 150 0.0888634 tfidf
3 Q0 CSIRO143-13233335 151 0.0888634 tfidf
3 Q0 CSIRO135-05149065 152 0.0888634 tfidf
3 Q0 CSIRO144-04905894 153 0.0888634 tfidf
3 Q0 CSIRO144-04925349 154 0.0888634 tfidf
3 Q0 CSIRO144-05140025 155 0.0888634 tfidf
3 Q0 CSIRO137-02500415 156 0.0888634 tfidf
3 Q0 CSIRO144-09433010 157 0.0888634 tfidf
3 Q0 CSIRO138-00000000 158 0.0888634 tfidf
3 Q0 CSIRO138-00023148 159 0.0888634 tfidf
3 Q0 CSIRO139-12012919 160 0.0888634 tfidf
3 Q0 CSIRO133-04907302 161 0.0888634 tfidf
3 Q0 CSIRO144-13309868 162 0.0888634 tfidf
3 Q0 CSIRO133-04881416 163 0.0888634 tfidf
3 Q0 CSIRO138-00045920 164 0.0888634 tfidf
3 Q0 CSIRO145-00429165 165 0.0888634 tfidf
3 Q0 CSIRO145-02061840 166 0.0888634 tfidf
3 Q0 CSIRO138-00324936 167 0.0888634 tfidf
3 Q0 CSIRO132-15390036 168 0.0888634 tfidf
3 Q0 CSIRO132-15320355 169 0.0888634 tfidf
3 Q0 CSIRO145-04081935 170 0.0888634 tfidf
3 Q0 CSIRO145-04117894 171 0.0888634 tfidf
3 Q0 CSIRO145-04767447 172 0.0888634 tfidf
3 Q0 CSIRO132-15255187 173 0.0888634 tfidf
3 Q0 CSIRO132-14854295 174 0.0888634 tfidf
3 Q0 CSIRO132-14596615 175 0.0888634 tfidf
3 Q0 CSIRO145-05173880 176 0.0888634 tfidf
3 Q0 CSIRO132-14560042 177 0.0888634 tfidf
3 Q0 CSIRO145-05534443 178 0.0888634 tfidf
3 Q0 CSIRO145-05884559 179 0.0888634 tfidf
3 Q0 CSIRO132-11952760 180 0.0888634 tfidf
3 Q0 CSIRO132-11919193 181 0.0888634 tfidf
3 Q0 CSIRO145-06856110 182 0.0888634 tfidf
3 Q0 CSIRO139-08576080 183 0.0888634 tfidf
3 Q0 CSIRO145-10750042 184 0.0888634 tfidf
3 Q0 CSIRO139-08412608 185 0.0888634 tfidf
3 Q0 CSIRO132-11895269 186 0.0888634 tfidf
3 Q0 CSIRO132-09085818 187 0.0888634 tfidf
3 Q0 CSIRO132-07175653 188 0.0888634 tfidf
3 Q0 CSIRO139-05999685 189 0.0888634 tfidf
3 Q0 CSIRO145-12516153 190 0.0888634 tfidf
3 Q0 CSIRO132-01702653 191 0.0888634 tfidf
3 Q0 CSIRO139-04960548 192 0.0888634 tfidf
3 Q0 CSIRO132-01615773 193 0.0888634 tfidf
3 Q0 CSIRO139-00898490 194 0.0888634 tfidf
3 Q0 CSIRO132-01455556 195 0.0888634 tfidf
3 Q0 CSIRO139-00126054 196 0.0888634 tfidf
3 Q0 CSIRO146-14218036 197 0.0888634 tfidf
3 Q0 CSIRO146-16756368 198 0.0888634 tfidf
3 Q0 CSIRO138-00368059 199 0.0888634 tfidf
