48 Q0 CSIRO266-04184084 1 12.045 tfidf
48 Q0 CSIRO131-16185860 2 11.994 tfidf
48 Q0 CSIRO135-09430735 3 11.9637 tfidf
48 Q0 CSIRO135-09089936 4 11.4756 tfidf
48 Q0 CSIRO139-16754699 5 10.8187 tfidf
48 Q0 CSIRO135-14406953 6 10.6478 tfidf
48 Q0 CSIRO140-00039089 7 10.1877 tfidf
48 Q0 CSIRO136-05616841 8 10.1024 tfidf
48 Q0 CSIRO135-15050009 9 9.90015 tfidf
48 Q0 CSIRO146-06407327 10 9.88666 tfidf
48 Q0 CSIRO135-15464231 11 9.52966 tfidf
48 Q0 CSIRO145-09420609 12 9.48756 tfidf
48 Q0 CSIRO135-12129360 13 9.39977 tfidf
48 Q0 CSIRO095-04924761 14 9.34821 tfidf
48 Q0 CSIRO145-10634137 15 9.34675 tfidf
48 Q0 CSIRO135-08674632 16 9.3096 tfidf
48 Q0 CSIRO112-02825901 17 8.80604 tfidf
48 Q0 CSIRO145-10624084 18 8.66202 tfidf
48 Q0 CSIRO266-03513849 19 8.54829 tfidf
48 Q0 CSIRO136-00770129 20 8.46087 tfidf
48 Q0 CSIRO135-14552323 21 8.45506 tfidf
48 Q0 CSIRO062-16755924 22 8.35945 tfidf
48 Q0 CSIRO136-05449318 23 8.31583 tfidf
48 Q0 CSIRO136-05736129 24 8.29685 tfidf
48 Q0 CSIRO138-03611465 25 8.27197 tfidf
48 Q0 CSIRO135-16682657 26 8.24746 tfidf
48 Q0 CSIRO137-12808308 27 8.19992 tfidf
48 Q0 CSIRO145-09412278 28 8.1568 tfidf
48 Q0 CSIRO136-05968116 29 8.04342 tfidf
48 Q0 CSIRO137-12542253 30 7.93764 tfidf
48 Q0 CSIRO116-08919390 31 7.89422 tfidf
48 Q0 CSIRO135-11962203 32 7.83989 tfidf
48 Q0 CSIRO142-04336830 33 7.76032 tfidf
48 Q0 CSIRO142-04398170 34 7.76032 tfidf
48 Q0 CSIRO134-13387811 35 7.5624 tfidf
48 Q0 CSIRO135-15373537 36 7.51378 tfidf
48 Q0 CSIRO197-05707790 37 7.42113 tfidf
48 Q0 CSIRO116-01305473 38 7.37463 tfidf
48 Q0 CSIRO136-00580198 39 7.23709 tfidf
48 Q0 CSIRO125-12117939 40 7.22061 tfidf
48 Q0 CSIRO130-07181385 41 7.19065 tfidf
48 Q0 CSIRO146-05373251 42 7.16558 tfidf
48 Q0 CSIRO137-11336893 43 7.11519 tfidf
48 Q0 CSIRO113-00316712 44 7.11519 tfidf
48 Q0 CSIRO132-11611944 45 7.08462 tfidf
48 Q0 CSIRO116-01532413 46 7.07709 tfidf
48 Q0 CSIRO146-04501896 47 6.95399 tfidf
48 Q0 CSIRO170-12439016 48 6.92573 tfidf
48 Q0 CSIRO132-11870469 49 6.80152 tfidf
48 Q0 CSIRO133-04650496 50 6.80152 tfidf
48 Q0 CSIRO190-04473040 51 6.73309 tfidf
48 Q0 CSIRO171-02939625 52 6.72161 tfidf
48 Q0 CSIRO131-06889541 53 6.70389 tfidf
48 Q0 CSIRO131-10268966 54 6.63303 tfidf
48 Q0 CSIRO132-11541957 55 6.62211 tfidf
48 Q0 CSIRO135-14603262 56 6.55498 tfidf
48 Q0 CSIRO173-04157429 57 6.50492 tfidf
48 Q0 CSIRO254-09424513 58 6.44861 tfidf
48 Q0 CSIRO116-00834659 59 6.43675 tfidf
48 Q0 CSIRO265-10358641 60 6.40169 tfidf
48 Q0 CSIRO179-11087714 61 6.34262 tfidf
48 Q0 CSIRO112-14413479 62 6.34262 tfidf
48 Q0 CSIRO189-10823696 63 6.26935 tfidf
48 Q0 CSIRO117-01283696 64 6.25008 tfidf
48 Q0 CSIRO265-05458751 65 6.23685 tfidf
48 Q0 CSIRO173-06437291 66 6.23063 tfidf
48 Q0 CSIRO117-01387491 67 6.22852 tfidf
48 Q0 CSIRO174-06142317 68 6.2108 tfidf
48 Q0 CSIRO135-10799026 69 6.20946 tfidf
48 Q0 CSIRO116-16010269 70 6.14868 tfidf
48 Q0 CSIRO133-08659856 71 6.11942 tfidf
48 Q0 CSIRO133-06580402 72 6.11942 tfidf
48 Q0 CSIRO134-16553617 73 6.11942 tfidf
48 Q0 CSIRO135-00647052 74 6.11942 tfidf
48 Q0 CSIRO146-04487563 75 6.11942 tfidf
48 Q0 CSIRO189-14982127 76 6.03772 tfidf
48 Q0 CSIRO173-03270094 77 6.00939 tfidf
48 Q0 CSIRO173-05971705 78 6.00939 tfidf
48 Q0 CSIRO130-15343113 79 5.9987 tfidf
48 Q0 CSIRO112-02075006 80 5.9971 tfidf
48 Q0 CSIRO117-01467160 81 5.96389 tfidf
48 Q0 CSIRO112-01799902 82 5.95463 tfidf
48 Q0 CSIRO102-14915061 83 5.94991 tfidf
48 Q0 CSIRO171-13175707 84 5.94287 tfidf
48 Q0 CSIRO265-07795570 85 5.93007 tfidf
48 Q0 CSIRO174-09389612 86 5.92383 tfidf
48 Q0 CSIRO174-09455319 87 5.92383 tfidf
48 Q0 CSIRO116-05324676 88 5.91107 tfidf
48 Q0 CSIRO173-07800514 89 5.90268 tfidf
48 Q0 CSIRO116-02570610 90 5.89832 tfidf
48 Q0 CSIRO173-05342509 91 5.88137 tfidf
48 Q0 CSIRO116-03895338 92 5.86068 tfidf
48 Q0 CSIRO117-06336137 93 5.82698 tfidf
48 Q0 CSIRO117-07839500 94 5.8095 tfidf
48 Q0 CSIRO063-04106068 95 5.79948 tfidf
48 Q0 CSIRO125-12164019 96 5.79813 tfidf
48 Q0 CSIRO063-00377513 97 5.79509 tfidf
48 Q0 CSIRO253-14886926 98 5.78883 tfidf
48 Q0 CSIRO130-10332504 99 5.77209 tfidf
48 Q0 CSIRO170-13324469 100 5.73755 tfidf
48 Q0 CSIRO116-16514816 101 5.73755 tfidf
48 Q0 CSIRO146-04494730 102 5.72041 tfidf
48 Q0 CSIRO112-15164431 103 5.72041 tfidf
48 Q0 CSIRO133-00436021 104 5.72041 tfidf
48 Q0 CSIRO130-11999758 105 5.69526 tfidf
48 Q0 CSIRO116-15388385 106 5.6862 tfidf
48 Q0 CSIRO117-02366149 107 5.62521 tfidf
48 Q0 CSIRO066-02559832 108 5.62379 tfidf
48 Q0 CSIRO187-12359986 109 5.60247 tfidf
48 Q0 CSIRO187-11925186 110 5.60247 tfidf
48 Q0 CSIRO136-01008739 111 5.59954 tfidf
48 Q0 CSIRO130-16165309 112 5.59954 tfidf
48 Q0 CSIRO173-07114300 113 5.5661 tfidf
48 Q0 CSIRO084-16416054 114 5.53059 tfidf
48 Q0 CSIRO111-16237786 115 5.52802 tfidf
48 Q0 CSIRO063-00587531 116 5.49957 tfidf
48 Q0 CSIRO063-12284524 117 5.49957 tfidf
48 Q0 CSIRO266-02888208 118 5.47017 tfidf
48 Q0 CSIRO112-03753265 119 5.46302 tfidf
48 Q0 CSIRO135-11819135 120 5.46302 tfidf
48 Q0 CSIRO130-15813709 121 5.4502 tfidf
48 Q0 CSIRO118-12826374 122 5.42772 tfidf
48 Q0 CSIRO098-02203745 123 5.41798 tfidf
48 Q0 CSIRO187-02895661 124 5.41792 tfidf
48 Q0 CSIRO114-12357051 125 5.41669 tfidf
48 Q0 CSIRO266-00976985 126 5.41669 tfidf
48 Q0 CSIRO116-03727811 127 5.41143 tfidf
48 Q0 CSIRO063-04219403 128 5.41143 tfidf
48 Q0 CSIRO190-07102649 129 5.37489 tfidf
48 Q0 CSIRO142-06579585 130 5.35426 tfidf
48 Q0 CSIRO083-00452180 131 5.34961 tfidf
48 Q0 CSIRO062-06715916 132 5.34961 tfidf
48 Q0 CSIRO095-12070078 133 5.34961 tfidf
48 Q0 CSIRO135-16652794 134 5.34595 tfidf
48 Q0 CSIRO096-01908976 135 5.33242 tfidf
48 Q0 CSIRO098-02018927 136 5.33242 tfidf
48 Q0 CSIRO136-07020684 137 5.33106 tfidf
48 Q0 CSIRO190-08328938 138 5.32779 tfidf
48 Q0 CSIRO173-06610015 139 5.2937 tfidf
48 Q0 CSIRO092-08487855 140 5.27611 tfidf
48 Q0 CSIRO063-05676838 141 5.26406 tfidf
48 Q0 CSIRO265-06066090 142 5.26148 tfidf
48 Q0 CSIRO116-00653788 143 5.26148 tfidf
48 Q0 CSIRO063-10023381 144 5.26124 tfidf
48 Q0 CSIRO116-09116865 145 5.25066 tfidf
48 Q0 CSIRO266-03568563 146 5.25066 tfidf
48 Q0 CSIRO081-05197566 147 5.23004 tfidf
48 Q0 CSIRO266-03377438 148 5.23004 tfidf
48 Q0 CSIRO266-02939380 149 5.23004 tfidf
48 Q0 CSIRO142-06634554 150 5.22286 tfidf
48 Q0 CSIRO116-12344918 151 5.21536 tfidf
48 Q0 CSIRO172-09764890 152 5.21531 tfidf
48 Q0 CSIRO131-06769442 153 5.20331 tfidf
48 Q0 CSIRO082-05949372 154 5.20331 tfidf
48 Q0 CSIRO116-02207616 155 5.18797 tfidf
48 Q0 CSIRO187-02746259 156 5.17592 tfidf
48 Q0 CSIRO115-07079715 157 5.15624 tfidf
48 Q0 CSIRO254-15898117 158 5.15133 tfidf
48 Q0 CSIRO115-06444060 159 5.13725 tfidf
48 Q0 CSIRO116-11794536 160 5.13725 tfidf
48 Q0 CSIRO116-12970791 161 5.13725 tfidf
48 Q0 CSIRO115-09038959 162 5.13725 tfidf
48 Q0 CSIRO146-11749100 163 5.13359 tfidf
48 Q0 CSIRO146-11655024 164 5.13359 tfidf
48 Q0 CSIRO079-11885077 165 5.11968 tfidf
48 Q0 CSIRO117-08224690 166 5.07485 tfidf
48 Q0 CSIRO189-07740486 167 5.06375 tfidf
48 Q0 CSIRO063-04288011 168 5.0517 tfidf
48 Q0 CSIRO113-07061202 169 5.0383 tfidf
48 Q0 CSIRO134-11049916 170 5.0383 tfidf
48 Q0 CSIRO146-07154719 171 5.0383 tfidf
48 Q0 CSIRO137-12532427 172 5.0383 tfidf
48 Q0 CSIRO134-10762571 173 5.0383 tfidf
48 Q0 CSIRO113-04884092 174 5.01787 tfidf
48 Q0 CSIRO190-02018011 175 5.01768 tfidf
48 Q0 CSIRO112-10742242 176 5.01225 tfidf
48 Q0 CSIRO092-02894761 177 5.01225 tfidf
48 Q0 CSIRO082-05961346 178 5.003 tfidf
48 Q0 CSIRO171-04372013 179 5.00295 tfidf
48 Q0 CSIRO180-15517031 180 4.98631 tfidf
48 Q0 CSIRO112-08388668 181 4.97561 tfidf
48 Q0 CSIRO112-08466172 182 4.97561 tfidf
48 Q0 CSIRO098-02588672 183 4.97561 tfidf
48 Q0 CSIRO265-07872213 184 4.95712 tfidf
48 Q0 CSIRO130-07646708 185 4.95177 tfidf
48 Q0 CSIRO135-11900342 186 4.94388 tfidf
48 Q0 CSIRO173-07760461 187 4.92973 tfidf
48 Q0 CSIRO190-08809817 188 4.92973 tfidf
48 Q0 CSIRO130-03533634 189 4.92973 tfidf
48 Q0 CSIRO173-07842215 190 4.92973 tfidf
48 Q0 CSIRO173-07079809 191 4.92973 tfidf
48 Q0 CSIRO171-05065127 192 4.92257 tfidf
48 Q0 CSIRO257-05503922 193 4.89175 tfidf
48 Q0 CSIRO118-12694558 194 4.88627 tfidf
48 Q0 CSIRO133-08771061 195 4.88627 tfidf
48 Q0 CSIRO266-02838836 196 4.88627 tfidf
48 Q0 CSIRO265-05516097 197 4.87387 tfidf
48 Q0 CSIRO111-02172185 198 4.87387 tfidf
48 Q0 CSIRO171-06303632 199 4.86626 tfidf
