0,0
0,0
0,0
0.25,0.04
0.2,0.04
0.333333,0.08
0.285714,0.08
0.25,0.08
0.333333,0.12
0.3,0.12
0.363636,0.16
0.333333,0.16
0.307692,0.16
0.357143,0.2
0.333333,0.2
0.3125,0.2
0.352941,0.24
0.388889,0.28
0.368421,0.28
0.35,0.28
0.333333,0.28
0.318182,0.28
0.304348,0.28
0.333333,0.32
0.32,0.32
