5 Q0 CSIRO257-03932692 1 7.31732 tfidf
5 Q0 CSIRO257-04292639 2 6.45325 tfidf
5 Q0 CSIRO257-04398159 3 6.40196 tfidf
5 Q0 CSIRO257-03179665 4 6.34226 tfidf
5 Q0 CSIRO119-16070692 5 6.23245 tfidf
5 Q0 CSIRO257-03348730 6 6.16544 tfidf
5 Q0 CSIRO116-03668055 7 6.08581 tfidf
5 Q0 CSIRO147-04594634 8 6.05753 tfidf
5 Q0 CSIRO192-05245392 9 5.98245 tfidf
5 Q0 CSIRO257-03480936 10 5.90014 tfidf
5 Q0 CSIRO257-03057308 11 5.82807 tfidf
5 Q0 CSIRO129-13467742 12 5.71787 tfidf
5 Q0 CSIRO127-01931802 13 5.71787 tfidf
5 Q0 CSIRO187-13369786 14 5.70711 tfidf
5 Q0 CSIRO257-04521418 15 5.61578 tfidf
5 Q0 CSIRO187-13254051 16 5.61578 tfidf
5 Q0 CSIRO258-09588294 17 5.59134 tfidf
5 Q0 CSIRO130-07040949 18 5.49984 tfidf
5 Q0 CSIRO257-04154033 19 5.48593 tfidf
5 Q0 CSIRO257-03695984 20 5.47179 tfidf
5 Q0 CSIRO257-02869941 21 5.45741 tfidf
5 Q0 CSIRO172-04701315 22 5.41278 tfidf
5 Q0 CSIRO130-08278681 23 5.41278 tfidf
5 Q0 CSIRO258-09578742 24 5.39736 tfidf
5 Q0 CSIRO258-09598386 25 5.34939 tfidf
5 Q0 CSIRO145-11435393 26 5.33278 tfidf
5 Q0 CSIRO172-04758839 27 5.31584 tfidf
5 Q0 CSIRO257-02962820 28 5.28092 tfidf
5 Q0 CSIRO201-01489774 29 5.26291 tfidf
5 Q0 CSIRO066-10349872 30 5.26291 tfidf
5 Q0 CSIRO066-10413555 31 5.26291 tfidf
5 Q0 CSIRO172-11297644 32 5.24451 tfidf
5 Q0 CSIRO145-11423992 33 5.24451 tfidf
5 Q0 CSIRO258-09538339 34 5.20649 tfidf
5 Q0 CSIRO258-09611444 35 5.20649 tfidf
5 Q0 CSIRO257-03856977 36 5.20649 tfidf
5 Q0 CSIRO066-10382051 37 5.18683 tfidf
5 Q0 CSIRO112-12309715 38 5.1667 tfidf
5 Q0 CSIRO130-02259381 39 5.1667 tfidf
5 Q0 CSIRO172-06824877 40 5.1667 tfidf
5 Q0 CSIRO130-03533634 41 5.1667 tfidf
5 Q0 CSIRO130-02485072 42 5.1667 tfidf
5 Q0 CSIRO172-04106155 43 5.14609 tfidf
5 Q0 CSIRO172-04053687 44 5.10331 tfidf
5 Q0 CSIRO136-16380054 45 5.05828 tfidf
5 Q0 CSIRO172-04524058 46 5.03484 tfidf
5 Q0 CSIRO135-14851550 47 5.01075 tfidf
5 Q0 CSIRO257-03581743 48 5.01075 tfidf
5 Q0 CSIRO147-03119963 49 4.98595 tfidf
5 Q0 CSIRO172-04147836 50 4.98595 tfidf
5 Q0 CSIRO126-07016734 51 4.98595 tfidf
5 Q0 CSIRO201-00341640 52 4.98595 tfidf
5 Q0 CSIRO130-02015565 53 4.93409 tfidf
5 Q0 CSIRO130-01793508 54 4.93409 tfidf
5 Q0 CSIRO201-01055268 55 4.93409 tfidf
5 Q0 CSIRO126-04369225 56 4.93409 tfidf
5 Q0 CSIRO172-04909208 57 4.93409 tfidf
5 Q0 CSIRO135-08674632 58 4.93409 tfidf
5 Q0 CSIRO145-08514470 59 4.90694 tfidf
5 Q0 CSIRO258-09569746 60 4.90694 tfidf
5 Q0 CSIRO144-08979569 61 4.87889 tfidf
5 Q0 CSIRO140-02175170 62 4.87889 tfidf
5 Q0 CSIRO192-06319336 63 4.84989 tfidf
5 Q0 CSIRO172-05099630 64 4.84989 tfidf
5 Q0 CSIRO200-10109829 65 4.81987 tfidf
5 Q0 CSIRO126-04289983 66 4.81987 tfidf
5 Q0 CSIRO130-14381058 67 4.81987 tfidf
5 Q0 CSIRO136-00770129 68 4.81987 tfidf
5 Q0 CSIRO258-09510416 69 4.81987 tfidf
5 Q0 CSIRO200-06535435 70 4.81987 tfidf
5 Q0 CSIRO172-07371835 71 4.78876 tfidf
5 Q0 CSIRO172-04488082 72 4.78876 tfidf
5 Q0 CSIRO200-11794555 73 4.78876 tfidf
5 Q0 CSIRO119-04781884 74 4.78876 tfidf
5 Q0 CSIRO172-04004541 75 4.78876 tfidf
5 Q0 CSIRO130-03165138 76 4.78876 tfidf
5 Q0 CSIRO130-03084429 77 4.78876 tfidf
5 Q0 CSIRO200-11188221 78 4.75648 tfidf
5 Q0 CSIRO127-05122665 79 4.75648 tfidf
5 Q0 CSIRO265-15334962 80 4.75648 tfidf
5 Q0 CSIRO141-02767497 81 4.75648 tfidf
5 Q0 CSIRO145-08503971 82 4.75648 tfidf
5 Q0 CSIRO136-13976837 83 4.75648 tfidf
5 Q0 CSIRO258-09530960 84 4.72293 tfidf
5 Q0 CSIRO265-15370389 85 4.72293 tfidf
5 Q0 CSIRO144-10763586 86 4.72293 tfidf
5 Q0 CSIRO063-02599173 87 4.72293 tfidf
5 Q0 CSIRO172-04183536 88 4.72293 tfidf
5 Q0 CSIRO103-04393319 89 4.72293 tfidf
5 Q0 CSIRO129-10005518 90 4.72293 tfidf
5 Q0 CSIRO137-01061432 91 4.68802 tfidf
5 Q0 CSIRO131-14181763 92 4.68802 tfidf
5 Q0 CSIRO130-07482184 93 4.68802 tfidf
5 Q0 CSIRO190-06229998 94 4.68802 tfidf
5 Q0 CSIRO172-03993518 95 4.68802 tfidf
5 Q0 CSIRO200-06982027 96 4.68802 tfidf
5 Q0 CSIRO265-13848339 97 4.68802 tfidf
5 Q0 CSIRO116-10038514 98 4.68802 tfidf
5 Q0 CSIRO201-01391431 99 4.65161 tfidf
5 Q0 CSIRO265-14828234 100 4.65161 tfidf
5 Q0 CSIRO112-11876022 101 4.65161 tfidf
5 Q0 CSIRO258-09503032 102 4.61359 tfidf
5 Q0 CSIRO258-09557736 103 4.61359 tfidf
5 Q0 CSIRO265-14937377 104 4.61359 tfidf
5 Q0 CSIRO112-12874162 105 4.61359 tfidf
5 Q0 CSIRO172-04314475 106 4.61359 tfidf
5 Q0 CSIRO201-01818767 107 4.5738 tfidf
5 Q0 CSIRO069-00311329 108 4.5738 tfidf
5 Q0 CSIRO147-03750875 109 4.5738 tfidf
5 Q0 CSIRO145-13241899 110 4.5738 tfidf
5 Q0 CSIRO200-09845767 111 4.5738 tfidf
5 Q0 CSIRO200-08471692 112 4.5738 tfidf
5 Q0 CSIRO145-13233068 113 4.5738 tfidf
5 Q0 CSIRO137-06773887 114 4.5738 tfidf
5 Q0 CSIRO201-01360817 115 4.5738 tfidf
5 Q0 CSIRO131-14647279 116 4.5738 tfidf
5 Q0 CSIRO131-14188199 117 4.5738 tfidf
5 Q0 CSIRO207-03159714 118 4.5738 tfidf
5 Q0 CSIRO068-03915327 119 4.5738 tfidf
5 Q0 CSIRO126-14389499 120 4.5738 tfidf
5 Q0 CSIRO073-02067648 121 4.5738 tfidf
5 Q0 CSIRO258-09519659 122 4.5738 tfidf
5 Q0 CSIRO265-14966045 123 4.5738 tfidf
5 Q0 CSIRO265-16239018 124 4.5738 tfidf
5 Q0 CSIRO172-03957466 125 4.53206 tfidf
5 Q0 CSIRO172-04643233 126 4.53206 tfidf
5 Q0 CSIRO172-04679185 127 4.53206 tfidf
5 Q0 CSIRO200-08140180 128 4.53206 tfidf
5 Q0 CSIRO172-05064431 129 4.53206 tfidf
5 Q0 CSIRO172-04372048 130 4.53206 tfidf
5 Q0 CSIRO200-07404758 131 4.53206 tfidf
5 Q0 CSIRO201-03496121 132 4.53206 tfidf
5 Q0 CSIRO200-07181078 133 4.53206 tfidf
5 Q0 CSIRO200-05823692 134 4.53206 tfidf
5 Q0 CSIRO200-05855069 135 4.48819 tfidf
5 Q0 CSIRO200-08706107 136 4.48819 tfidf
5 Q0 CSIRO080-08974605 137 4.48819 tfidf
5 Q0 CSIRO200-10175271 138 4.48819 tfidf
5 Q0 CSIRO172-04300956 139 4.48819 tfidf
5 Q0 CSIRO172-03688883 140 4.48819 tfidf
5 Q0 CSIRO200-11542307 141 4.48819 tfidf
5 Q0 CSIRO126-04787366 142 4.48819 tfidf
5 Q0 CSIRO138-03206581 143 4.48819 tfidf
5 Q0 CSIRO187-13233963 144 4.48819 tfidf
5 Q0 CSIRO136-11399251 145 4.48819 tfidf
5 Q0 CSIRO254-03611601 146 4.48819 tfidf
5 Q0 CSIRO200-04326007 147 4.44194 tfidf
5 Q0 CSIRO130-01258707 148 4.44194 tfidf
5 Q0 CSIRO197-06119668 149 4.44194 tfidf
5 Q0 CSIRO130-01365692 150 4.44194 tfidf
5 Q0 CSIRO144-14341634 151 4.44194 tfidf
5 Q0 CSIRO201-01869403 152 4.44194 tfidf
5 Q0 CSIRO254-03707926 153 4.44194 tfidf
5 Q0 CSIRO201-01562588 154 4.44194 tfidf
5 Q0 CSIRO126-14695029 155 4.44194 tfidf
5 Q0 CSIRO254-04007454 156 4.44194 tfidf
5 Q0 CSIRO144-14353132 157 4.44194 tfidf
5 Q0 CSIRO200-11954690 158 4.44194 tfidf
5 Q0 CSIRO117-07839500 159 4.44194 tfidf
5 Q0 CSIRO172-08122606 160 4.44194 tfidf
5 Q0 CSIRO265-15006664 161 4.44194 tfidf
5 Q0 CSIRO200-05267272 162 4.44194 tfidf
5 Q0 CSIRO265-15347234 163 4.44194 tfidf
5 Q0 CSIRO172-04614692 164 4.44194 tfidf
5 Q0 CSIRO172-05078187 165 4.44194 tfidf
5 Q0 CSIRO201-03746014 166 4.44194 tfidf
5 Q0 CSIRO200-05729436 167 4.39305 tfidf
5 Q0 CSIRO200-05330109 168 4.39305 tfidf
5 Q0 CSIRO112-10342838 169 4.39305 tfidf
5 Q0 CSIRO265-15447119 170 4.39305 tfidf
5 Q0 CSIRO200-05143463 171 4.39305 tfidf
5 Q0 CSIRO254-16557053 172 4.39305 tfidf
5 Q0 CSIRO254-03841274 173 4.39305 tfidf
5 Q0 CSIRO200-07626621 174 4.39305 tfidf
5 Q0 CSIRO200-04636818 175 4.39305 tfidf
5 Q0 CSIRO200-04604603 176 4.39305 tfidf
5 Q0 CSIRO200-06256582 177 4.39305 tfidf
5 Q0 CSIRO200-06288293 178 4.39305 tfidf
5 Q0 CSIRO172-04404809 179 4.39305 tfidf
5 Q0 CSIRO201-03554341 180 4.39305 tfidf
5 Q0 CSIRO200-10703914 181 4.39305 tfidf
5 Q0 CSIRO130-02746432 182 4.39305 tfidf
5 Q0 CSIRO130-02839540 183 4.39305 tfidf
5 Q0 CSIRO201-03365340 184 4.39305 tfidf
5 Q0 CSIRO201-03239002 185 4.39305 tfidf
5 Q0 CSIRO201-01770774 186 4.39305 tfidf
5 Q0 CSIRO137-09643821 187 4.39305 tfidf
5 Q0 CSIRO138-09723574 188 4.39305 tfidf
5 Q0 CSIRO172-04133007 189 4.39305 tfidf
5 Q0 CSIRO200-15545313 190 4.39305 tfidf
5 Q0 CSIRO146-06494473 191 4.39305 tfidf
5 Q0 CSIRO172-04067760 192 4.39305 tfidf
5 Q0 CSIRO147-04742714 193 4.39305 tfidf
5 Q0 CSIRO172-03727349 194 4.39305 tfidf
5 Q0 CSIRO200-11349696 195 4.34119 tfidf
5 Q0 CSIRO130-01483545 196 4.34119 tfidf
5 Q0 CSIRO200-11479206 197 4.34119 tfidf
5 Q0 CSIRO172-04861847 198 4.34119 tfidf
5 Q0 CSIRO130-01631389 199 4.34119 tfidf
