1,0.04
0.5,0.04
0.333333,0.04
0.25,0.04
0.2,0.04
0.166667,0.04
0.142857,0.04
0.125,0.04
0.111111,0.04
0.1,0.04
0.0909091,0.04
0.0833333,0.04
0.0769231,0.04
0.0714286,0.04
0.0666667,0.04
0.0625,0.04
0.0588235,0.04
0.0555556,0.04
0.0526316,0.04
0.05,0.04
0.0952381,0.08
0.0909091,0.08
0.0869565,0.08
0.0833333,0.08
0.08,0.08
