12 Q0 CSIRO148-02004016 1 11.5032 tfidf
12 Q0 CSIRO190-04473040 2 11.3163 tfidf
12 Q0 CSIRO135-08674632 3 10.6232 tfidf
12 Q0 CSIRO135-09089936 4 10.49 tfidf
12 Q0 CSIRO266-04184084 5 9.74964 tfidf
12 Q0 CSIRO265-05556710 6 9.72295 tfidf
12 Q0 CSIRO101-09172830 7 9.67797 tfidf
12 Q0 CSIRO135-09430735 8 9.57281 tfidf
12 Q0 CSIRO080-00859298 9 9.39749 tfidf
12 Q0 CSIRO136-05736129 10 8.84202 tfidf
12 Q0 CSIRO113-06899717 11 8.60056 tfidf
12 Q0 CSIRO136-00770129 12 8.49823 tfidf
12 Q0 CSIRO137-00172029 13 8.4766 tfidf
12 Q0 CSIRO136-05449318 14 8.36875 tfidf
12 Q0 CSIRO140-00383584 15 8.36048 tfidf
12 Q0 CSIRO131-16185860 16 8.35642 tfidf
12 Q0 CSIRO136-05968116 17 8.31756 tfidf
12 Q0 CSIRO140-00487925 18 8.24865 tfidf
12 Q0 CSIRO136-16721497 19 8.2403 tfidf
12 Q0 CSIRO145-14681280 20 8.12365 tfidf
12 Q0 CSIRO135-15785146 21 8.09177 tfidf
12 Q0 CSIRO136-05065446 22 8.05515 tfidf
12 Q0 CSIRO145-14671195 23 7.98193 tfidf
12 Q0 CSIRO140-01243844 24 7.79171 tfidf
12 Q0 CSIRO140-01343549 25 7.73433 tfidf
12 Q0 CSIRO111-02446599 26 7.67857 tfidf
12 Q0 CSIRO131-14870792 27 7.54713 tfidf
12 Q0 CSIRO113-06408253 28 7.4995 tfidf
12 Q0 CSIRO265-13544310 29 7.41135 tfidf
12 Q0 CSIRO136-14528850 30 7.40349 tfidf
12 Q0 CSIRO111-16682620 31 7.40296 tfidf
12 Q0 CSIRO081-16723059 32 7.27658 tfidf
12 Q0 CSIRO172-16536821 33 7.24627 tfidf
12 Q0 CSIRO064-16331916 34 7.22 tfidf
12 Q0 CSIRO136-04753982 35 7.19002 tfidf
12 Q0 CSIRO138-08116172 36 7.16219 tfidf
12 Q0 CSIRO135-14645500 37 7.16219 tfidf
12 Q0 CSIRO138-07228944 38 7.15934 tfidf
12 Q0 CSIRO190-05231838 39 7.09763 tfidf
12 Q0 CSIRO081-16626818 40 7.08266 tfidf
12 Q0 CSIRO146-03036265 41 7.08266 tfidf
12 Q0 CSIRO146-02482554 42 7.08266 tfidf
12 Q0 CSIRO138-03830834 43 7.05474 tfidf
12 Q0 CSIRO265-13142726 44 7.05474 tfidf
12 Q0 CSIRO139-07378461 45 7.05474 tfidf
12 Q0 CSIRO139-07441665 46 7.05474 tfidf
12 Q0 CSIRO135-15464231 47 7.02691 tfidf
12 Q0 CSIRO173-13117329 48 6.95327 tfidf
12 Q0 CSIRO135-12986417 49 6.94873 tfidf
12 Q0 CSIRO190-02018011 50 6.94873 tfidf
12 Q0 CSIRO148-05355948 51 6.89744 tfidf
12 Q0 CSIRO138-06728058 52 6.87462 tfidf
12 Q0 CSIRO135-15050009 53 6.86133 tfidf
12 Q0 CSIRO136-00167287 54 6.86133 tfidf
12 Q0 CSIRO136-10500499 55 6.81791 tfidf
12 Q0 CSIRO137-05924270 56 6.81791 tfidf
12 Q0 CSIRO064-16279006 57 6.78967 tfidf
12 Q0 CSIRO172-10642573 58 6.76225 tfidf
12 Q0 CSIRO147-00625948 59 6.73194 tfidf
12 Q0 CSIRO138-06815384 60 6.73194 tfidf
12 Q0 CSIRO147-00615473 61 6.73194 tfidf
12 Q0 CSIRO105-08289099 62 6.73194 tfidf
12 Q0 CSIRO105-08594437 63 6.73194 tfidf
12 Q0 CSIRO105-08577429 64 6.73194 tfidf
12 Q0 CSIRO135-14406953 65 6.73186 tfidf
12 Q0 CSIRO064-16300205 66 6.69732 tfidf
12 Q0 CSIRO112-00985704 67 6.6673 tfidf
12 Q0 CSIRO137-01138054 68 6.65233 tfidf
12 Q0 CSIRO136-16757594 69 6.65233 tfidf
12 Q0 CSIRO258-08689974 70 6.65233 tfidf
12 Q0 CSIRO190-05543411 71 6.64787 tfidf
12 Q0 CSIRO111-16597410 72 6.64787 tfidf
12 Q0 CSIRO265-13616629 73 6.59793 tfidf
12 Q0 CSIRO101-11308237 74 6.56992 tfidf
12 Q0 CSIRO130-11999758 75 6.56992 tfidf
12 Q0 CSIRO142-13602356 76 6.56834 tfidf
12 Q0 CSIRO142-13704241 77 6.56834 tfidf
12 Q0 CSIRO135-15676880 78 6.56834 tfidf
12 Q0 CSIRO112-02374753 79 6.5184 tfidf
12 Q0 CSIRO136-09809555 80 6.51258 tfidf
12 Q0 CSIRO265-12712192 81 6.48434 tfidf
12 Q0 CSIRO265-13469151 82 6.47895 tfidf
12 Q0 CSIRO111-05110656 83 6.43887 tfidf
12 Q0 CSIRO135-11078279 84 6.37483 tfidf
12 Q0 CSIRO101-13590437 85 6.37483 tfidf
12 Q0 CSIRO141-05757270 86 6.37483 tfidf
12 Q0 CSIRO141-05890369 87 6.37483 tfidf
12 Q0 CSIRO136-10465841 88 6.37483 tfidf
12 Q0 CSIRO064-16192652 89 6.35934 tfidf
12 Q0 CSIRO138-06142028 90 6.35934 tfidf
12 Q0 CSIRO145-02728226 91 6.34701 tfidf
12 Q0 CSIRO145-02738691 92 6.34701 tfidf
12 Q0 CSIRO105-09494009 93 6.34701 tfidf
12 Q0 CSIRO105-08240514 94 6.34701 tfidf
12 Q0 CSIRO105-08256277 95 6.34701 tfidf
12 Q0 CSIRO105-08272733 96 6.34701 tfidf
12 Q0 CSIRO137-10348354 97 6.33192 tfidf
12 Q0 CSIRO080-00371316 98 6.33192 tfidf
12 Q0 CSIRO135-12129360 99 6.21754 tfidf
12 Q0 CSIRO135-14552323 100 6.21754 tfidf
12 Q0 CSIRO119-14420895 101 6.21754 tfidf
12 Q0 CSIRO175-10535629 102 6.21754 tfidf
12 Q0 CSIRO136-05616841 103 6.20967 tfidf
12 Q0 CSIRO143-01774966 104 6.138 tfidf
12 Q0 CSIRO137-08054367 105 6.138 tfidf
12 Q0 CSIRO103-04935096 106 6.13354 tfidf
12 Q0 CSIRO141-07432025 107 6.13354 tfidf
12 Q0 CSIRO105-09373972 108 6.13354 tfidf
12 Q0 CSIRO102-05349962 109 6.13354 tfidf
12 Q0 CSIRO139-08943021 110 6.13354 tfidf
12 Q0 CSIRO139-08933515 111 6.13354 tfidf
12 Q0 CSIRO135-11900342 112 6.13354 tfidf
12 Q0 CSIRO135-14697704 113 6.13354 tfidf
12 Q0 CSIRO134-10913088 114 6.13354 tfidf
12 Q0 CSIRO145-10349105 115 6.13354 tfidf
12 Q0 CSIRO105-09478850 116 6.13354 tfidf
12 Q0 CSIRO145-10337936 117 6.13354 tfidf
12 Q0 CSIRO138-05061946 118 6.08225 tfidf
12 Q0 CSIRO135-14603262 119 6.08225 tfidf
12 Q0 CSIRO136-05107556 120 6.0556 tfidf
12 Q0 CSIRO136-05198751 121 6.05401 tfidf
12 Q0 CSIRO101-05955917 122 6.05401 tfidf
12 Q0 CSIRO137-05186963 123 6.05401 tfidf
12 Q0 CSIRO125-08030838 124 6.05401 tfidf
12 Q0 CSIRO112-02488961 125 5.93164 tfidf
12 Q0 CSIRO064-16408277 126 5.91667 tfidf
12 Q0 CSIRO139-07037024 127 5.91667 tfidf
12 Q0 CSIRO139-07100648 128 5.91667 tfidf
12 Q0 CSIRO142-13754093 129 5.91667 tfidf
12 Q0 CSIRO142-13848832 130 5.91667 tfidf
12 Q0 CSIRO137-06763795 131 5.91667 tfidf
12 Q0 CSIRO138-06746175 132 5.86051 tfidf
12 Q0 CSIRO265-13585553 133 5.86051 tfidf
12 Q0 CSIRO136-06144916 134 5.86051 tfidf
12 Q0 CSIRO145-00896515 135 5.86051 tfidf
12 Q0 CSIRO137-03152831 136 5.86051 tfidf
12 Q0 CSIRO133-11694303 137 5.86051 tfidf
12 Q0 CSIRO105-08545120 138 5.83268 tfidf
12 Q0 CSIRO105-08526577 139 5.83268 tfidf
12 Q0 CSIRO135-10260468 140 5.83268 tfidf
12 Q0 CSIRO105-10370458 141 5.83268 tfidf
12 Q0 CSIRO105-10342107 142 5.83268 tfidf
12 Q0 CSIRO105-10327881 143 5.83268 tfidf
12 Q0 CSIRO104-12168540 144 5.83268 tfidf
12 Q0 CSIRO105-08766319 145 5.83268 tfidf
12 Q0 CSIRO105-08509623 146 5.83268 tfidf
12 Q0 CSIRO105-10313697 147 5.83268 tfidf
12 Q0 CSIRO105-09359096 148 5.83268 tfidf
12 Q0 CSIRO105-08730932 149 5.83268 tfidf
12 Q0 CSIRO105-10299513 150 5.83268 tfidf
12 Q0 CSIRO105-08561415 151 5.83268 tfidf
12 Q0 CSIRO105-05502025 152 5.83268 tfidf
12 Q0 CSIRO105-10285502 153 5.83268 tfidf
12 Q0 CSIRO105-06111227 154 5.83268 tfidf
12 Q0 CSIRO105-08493076 155 5.83268 tfidf
12 Q0 CSIRO105-08476911 156 5.83268 tfidf
12 Q0 CSIRO105-08165232 157 5.83268 tfidf
12 Q0 CSIRO105-08451198 158 5.83268 tfidf
12 Q0 CSIRO105-10271478 159 5.83268 tfidf
12 Q0 CSIRO105-08704949 160 5.83268 tfidf
12 Q0 CSIRO105-08434973 161 5.83268 tfidf
12 Q0 CSIRO105-10257502 162 5.83268 tfidf
12 Q0 CSIRO105-10243561 163 5.83268 tfidf
12 Q0 CSIRO105-08224946 164 5.83268 tfidf
12 Q0 CSIRO105-08418833 165 5.83268 tfidf
12 Q0 CSIRO105-10229655 166 5.83268 tfidf
12 Q0 CSIRO105-08401894 167 5.83268 tfidf
12 Q0 CSIRO105-10215757 168 5.83268 tfidf
12 Q0 CSIRO105-10201859 169 5.83268 tfidf
12 Q0 CSIRO105-08687922 170 5.83268 tfidf
12 Q0 CSIRO105-08385796 171 5.83268 tfidf
12 Q0 CSIRO105-10187994 172 5.83268 tfidf
12 Q0 CSIRO105-08369682 173 5.83268 tfidf
12 Q0 CSIRO105-08353127 174 5.83268 tfidf
12 Q0 CSIRO105-10174044 175 5.83268 tfidf
12 Q0 CSIRO174-10568157 176 5.83268 tfidf
12 Q0 CSIRO100-13119110 177 5.83268 tfidf
12 Q0 CSIRO174-10634424 178 5.83268 tfidf
12 Q0 CSIRO105-10160109 179 5.83268 tfidf
12 Q0 CSIRO105-08336913 180 5.83268 tfidf
12 Q0 CSIRO105-10146333 181 5.83268 tfidf
12 Q0 CSIRO138-11291792 182 5.83268 tfidf
12 Q0 CSIRO105-10132625 183 5.83268 tfidf
12 Q0 CSIRO100-12490686 184 5.83268 tfidf
12 Q0 CSIRO105-08321301 185 5.83268 tfidf
12 Q0 CSIRO138-11197704 186 5.83268 tfidf
12 Q0 CSIRO105-10013406 187 5.83268 tfidf
12 Q0 CSIRO100-12235201 188 5.83268 tfidf
12 Q0 CSIRO105-08305418 189 5.83268 tfidf
12 Q0 CSIRO137-05561974 190 5.83268 tfidf
12 Q0 CSIRO105-10118988 191 5.83268 tfidf
12 Q0 CSIRO105-10105407 192 5.83268 tfidf
12 Q0 CSIRO105-08611564 193 5.83268 tfidf
12 Q0 CSIRO105-10356407 194 5.83268 tfidf
12 Q0 CSIRO105-09509739 195 5.83268 tfidf
12 Q0 CSIRO105-10091815 196 5.83268 tfidf
12 Q0 CSIRO105-09524906 197 5.83268 tfidf
12 Q0 CSIRO105-08661952 198 5.83268 tfidf
12 Q0 CSIRO105-09541888 199 5.83268 tfidf
