9 Q0 CSIRO112-14413479 1 17.6846 tfidf
9 Q0 CSIRO135-09430735 2 16.314 tfidf
9 Q0 CSIRO135-09089936 3 15.5062 tfidf
9 Q0 CSIRO112-02825901 4 15.309 tfidf
9 Q0 CSIRO190-04473040 5 15.0874 tfidf
9 Q0 CSIRO139-12218544 6 14.9774 tfidf
9 Q0 CSIRO266-04184084 7 14.9143 tfidf
9 Q0 CSIRO190-08809817 8 14.7502 tfidf
9 Q0 CSIRO145-12663639 9 14.2939 tfidf
9 Q0 CSIRO139-14644628 10 14.1526 tfidf
9 Q0 CSIRO131-16185860 11 13.8891 tfidf
9 Q0 CSIRO139-14631656 12 13.7337 tfidf
9 Q0 CSIRO135-08674632 13 13.5014 tfidf
9 Q0 CSIRO140-14852036 14 13.4757 tfidf
9 Q0 CSIRO145-12654089 15 13.3007 tfidf
9 Q0 CSIRO134-13929113 16 13.135 tfidf
9 Q0 CSIRO145-05186172 17 13.1022 tfidf
9 Q0 CSIRO134-13986217 18 12.8034 tfidf
9 Q0 CSIRO139-10500291 19 12.6 tfidf
9 Q0 CSIRO140-14840963 20 12.5853 tfidf
9 Q0 CSIRO190-09072845 21 12.5667 tfidf
9 Q0 CSIRO145-04767447 22 12.458 tfidf
9 Q0 CSIRO141-01749044 23 12.425 tfidf
9 Q0 CSIRO136-00770129 24 12.4049 tfidf
9 Q0 CSIRO145-12555733 25 12.1583 tfidf
9 Q0 CSIRO141-01738543 26 12.1583 tfidf
9 Q0 CSIRO139-10491807 27 12.1259 tfidf
9 Q0 CSIRO133-10408719 28 11.8114 tfidf
9 Q0 CSIRO145-04519788 29 11.8114 tfidf
9 Q0 CSIRO189-13779527 30 11.7778 tfidf
9 Q0 CSIRO132-15927339 31 11.6888 tfidf
9 Q0 CSIRO140-12544014 32 11.6888 tfidf
9 Q0 CSIRO132-15748207 33 11.6888 tfidf
9 Q0 CSIRO146-12490117 34 11.6723 tfidf
9 Q0 CSIRO136-05449318 35 11.6301 tfidf
9 Q0 CSIRO265-13712391 36 11.6148 tfidf
9 Q0 CSIRO265-12782890 37 11.5394 tfidf
9 Q0 CSIRO136-05968116 38 11.523 tfidf
9 Q0 CSIRO141-09933942 39 11.4813 tfidf
9 Q0 CSIRO265-14667001 40 11.3987 tfidf
9 Q0 CSIRO140-14964739 41 11.3904 tfidf
9 Q0 CSIRO139-08978229 42 11.3204 tfidf
9 Q0 CSIRO265-13483765 43 11.2975 tfidf
9 Q0 CSIRO145-04755872 44 11.2943 tfidf
9 Q0 CSIRO137-00172029 45 11.268 tfidf
9 Q0 CSIRO139-12206051 46 11.2633 tfidf
9 Q0 CSIRO143-06633188 47 11.2616 tfidf
9 Q0 CSIRO136-06425377 48 11.1554 tfidf
9 Q0 CSIRO135-12129360 49 11.149 tfidf
9 Q0 CSIRO135-15050009 50 11.102 tfidf
9 Q0 CSIRO144-13309868 51 11.0607 tfidf
9 Q0 CSIRO132-13535914 52 11.0434 tfidf
9 Q0 CSIRO145-03977645 53 11.0434 tfidf
9 Q0 CSIRO138-11929259 54 10.9951 tfidf
9 Q0 CSIRO140-15001822 55 10.9533 tfidf
9 Q0 CSIRO135-14204594 56 10.8346 tfidf
9 Q0 CSIRO140-07859780 57 10.819 tfidf
9 Q0 CSIRO138-12015798 58 10.7779 tfidf
9 Q0 CSIRO137-03152831 59 10.7508 tfidf
9 Q0 CSIRO146-16612877 60 10.6921 tfidf
9 Q0 CSIRO145-07664557 61 10.6705 tfidf
9 Q0 CSIRO133-10342198 62 10.6263 tfidf
9 Q0 CSIRO135-11551676 63 10.4712 tfidf
9 Q0 CSIRO145-06856110 64 10.446 tfidf
9 Q0 CSIRO144-09632763 65 10.4039 tfidf
9 Q0 CSIRO132-14596615 66 10.3285 tfidf
9 Q0 CSIRO144-09668492 67 10.3236 tfidf
9 Q0 CSIRO132-14671381 68 10.2632 tfidf
9 Q0 CSIRO135-01402421 69 10.2632 tfidf
9 Q0 CSIRO133-02008790 70 10.2598 tfidf
9 Q0 CSIRO134-04970568 71 10.2598 tfidf
9 Q0 CSIRO141-04638164 72 10.2431 tfidf
9 Q0 CSIRO132-14854295 73 10.2119 tfidf
9 Q0 CSIRO130-11999758 74 10.2023 tfidf
9 Q0 CSIRO133-04907302 75 10.1521 tfidf
9 Q0 CSIRO140-07848332 76 10.1521 tfidf
9 Q0 CSIRO139-15064754 77 10.1191 tfidf
9 Q0 CSIRO144-13299077 78 10.1085 tfidf
9 Q0 CSIRO133-04941278 79 10.0333 tfidf
9 Q0 CSIRO132-01480712 80 9.99147 tfidf
9 Q0 CSIRO134-08922119 81 9.99147 tfidf
9 Q0 CSIRO265-13585553 82 9.99147 tfidf
9 Q0 CSIRO132-14749768 83 9.97649 tfidf
9 Q0 CSIRO062-13043554 84 9.92771 tfidf
9 Q0 CSIRO132-11919193 85 9.8746 tfidf
9 Q0 CSIRO132-15654244 86 9.8746 tfidf
9 Q0 CSIRO133-01846968 87 9.84737 tfidf
9 Q0 CSIRO132-11952760 88 9.81608 tfidf
9 Q0 CSIRO134-13421514 89 9.81608 tfidf
9 Q0 CSIRO135-14090949 90 9.774 tfidf
9 Q0 CSIRO145-05534443 91 9.73654 tfidf
9 Q0 CSIRO141-04744200 92 9.71504 tfidf
9 Q0 CSIRO140-14990504 93 9.68642 tfidf
9 Q0 CSIRO140-14710325 94 9.66035 tfidf
9 Q0 CSIRO141-04608075 95 9.63328 tfidf
9 Q0 CSIRO132-15390036 96 9.58199 tfidf
9 Q0 CSIRO135-01377416 97 9.58199 tfidf
9 Q0 CSIRO137-11556056 98 9.54232 tfidf
9 Q0 CSIRO062-14831056 99 9.5223 tfidf
9 Q0 CSIRO134-14020554 100 9.49436 tfidf
9 Q0 CSIRO135-12577833 101 9.49436 tfidf
9 Q0 CSIRO265-12712192 102 9.44807 tfidf
9 Q0 CSIRO132-15363293 103 9.40341 tfidf
9 Q0 CSIRO145-04989294 104 9.40341 tfidf
9 Q0 CSIRO147-00118678 105 9.38861 tfidf
9 Q0 CSIRO135-11962203 106 9.3836 tfidf
9 Q0 CSIRO190-11274269 107 9.3836 tfidf
9 Q0 CSIRO135-05861813 108 9.38314 tfidf
9 Q0 CSIRO265-13544310 109 9.36156 tfidf
9 Q0 CSIRO132-15784484 110 9.34657 tfidf
9 Q0 CSIRO145-08183709 111 9.34657 tfidf
9 Q0 CSIRO132-16002378 112 9.33953 tfidf
9 Q0 CSIRO137-08054367 113 9.31681 tfidf
9 Q0 CSIRO137-10348354 114 9.31681 tfidf
9 Q0 CSIRO265-13653391 115 9.31681 tfidf
9 Q0 CSIRO143-06748256 116 9.30798 tfidf
9 Q0 CSIRO143-06511997 117 9.30798 tfidf
9 Q0 CSIRO265-14779177 118 9.28639 tfidf
9 Q0 CSIRO145-03967897 119 9.28397 tfidf
9 Q0 CSIRO137-04245454 120 9.26627 tfidf
9 Q0 CSIRO137-07355103 121 9.20175 tfidf
9 Q0 CSIRO265-14576636 122 9.14229 tfidf
9 Q0 CSIRO265-12649304 123 9.14229 tfidf
9 Q0 CSIRO140-14699594 124 9.08895 tfidf
9 Q0 CSIRO141-11803035 125 9.08895 tfidf
9 Q0 CSIRO143-06912359 126 9.07809 tfidf
9 Q0 CSIRO143-07040732 127 9.07809 tfidf
9 Q0 CSIRO132-14935419 128 9.06815 tfidf
9 Q0 CSIRO143-08288718 129 9.06377 tfidf
9 Q0 CSIRO143-06361582 130 9.06377 tfidf
9 Q0 CSIRO143-06256522 131 9.06377 tfidf
9 Q0 CSIRO141-16420356 132 9.05946 tfidf
9 Q0 CSIRO145-06844226 133 9.0565 tfidf
9 Q0 CSIRO144-09605469 134 9.01466 tfidf
9 Q0 CSIRO144-04674197 135 9.01466 tfidf
9 Q0 CSIRO190-06229998 136 8.97922 tfidf
9 Q0 CSIRO135-05990875 137 8.96633 tfidf
9 Q0 CSIRO140-03095481 138 8.96633 tfidf
9 Q0 CSIRO146-16650150 139 8.96633 tfidf
9 Q0 CSIRO265-13634846 140 8.9395 tfidf
9 Q0 CSIRO265-13616629 141 8.9395 tfidf
9 Q0 CSIRO134-14717222 142 8.89779 tfidf
9 Q0 CSIRO132-14650423 143 8.89779 tfidf
9 Q0 CSIRO132-07970997 144 8.83927 tfidf
9 Q0 CSIRO145-01763671 145 8.83927 tfidf
9 Q0 CSIRO135-10700629 146 8.83201 tfidf
9 Q0 CSIRO134-05033426 147 8.83201 tfidf
9 Q0 CSIRO189-16729547 148 8.71665 tfidf
9 Q0 CSIRO145-07651589 149 8.71665 tfidf
9 Q0 CSIRO190-10938286 150 8.71665 tfidf
9 Q0 CSIRO139-09423809 151 8.70961 tfidf
9 Q0 CSIRO143-05763265 152 8.70961 tfidf
9 Q0 CSIRO145-05173880 153 8.68353 tfidf
9 Q0 CSIRO265-13776867 154 8.67806 tfidf
9 Q0 CSIRO143-01583840 155 8.67806 tfidf
9 Q0 CSIRO145-14608584 156 8.67806 tfidf
9 Q0 CSIRO143-01849256 157 8.67806 tfidf
9 Q0 CSIRO143-06606031 158 8.67806 tfidf
9 Q0 CSIRO265-13832808 159 8.67806 tfidf
9 Q0 CSIRO134-13387811 160 8.65647 tfidf
9 Q0 CSIRO265-13765361 161 8.65647 tfidf
9 Q0 CSIRO141-04676088 162 8.65647 tfidf
9 Q0 CSIRO135-14044072 163 8.65647 tfidf
9 Q0 CSIRO143-13349713 164 8.58233 tfidf
9 Q0 CSIRO132-14304982 165 8.58233 tfidf
9 Q0 CSIRO140-12195269 166 8.58233 tfidf
9 Q0 CSIRO139-11243737 167 8.58233 tfidf
9 Q0 CSIRO142-00709463 168 8.56028 tfidf
9 Q0 CSIRO132-14833787 169 8.5509 tfidf
9 Q0 CSIRO062-15064283 170 8.54549 tfidf
9 Q0 CSIRO138-16128375 171 8.51755 tfidf
9 Q0 CSIRO146-16756368 172 8.51755 tfidf
9 Q0 CSIRO133-10194864 173 8.51396 tfidf
9 Q0 CSIRO135-15464231 174 8.51396 tfidf
9 Q0 CSIRO145-08173987 175 8.49238 tfidf
9 Q0 CSIRO135-11900342 176 8.43385 tfidf
9 Q0 CSIRO144-16177407 177 8.43385 tfidf
9 Q0 CSIRO124-13981079 178 8.43385 tfidf
9 Q0 CSIRO265-14712161 179 8.38474 tfidf
9 Q0 CSIRO139-08908757 180 8.38474 tfidf
9 Q0 CSIRO134-11139666 181 8.38474 tfidf
9 Q0 CSIRO134-11109590 182 8.38474 tfidf
9 Q0 CSIRO265-13806623 183 8.38474 tfidf
9 Q0 CSIRO112-00432459 184 8.32937 tfidf
9 Q0 CSIRO141-12695094 185 8.32937 tfidf
9 Q0 CSIRO146-16602244 186 8.31104 tfidf
9 Q0 CSIRO146-07198309 187 8.30958 tfidf
9 Q0 CSIRO265-13788665 188 8.30958 tfidf
9 Q0 CSIRO141-01203922 189 8.30958 tfidf
9 Q0 CSIRO113-06408253 190 8.30958 tfidf
9 Q0 CSIRO145-12359775 191 8.30958 tfidf
9 Q0 CSIRO265-14744853 192 8.30958 tfidf
9 Q0 CSIRO143-06454734 193 8.28946 tfidf
9 Q0 CSIRO142-08429565 194 8.24582 tfidf
9 Q0 CSIRO132-14793385 195 8.23544 tfidf
9 Q0 CSIRO139-09415522 196 8.23544 tfidf
9 Q0 CSIRO140-12534143 197 8.23544 tfidf
9 Q0 CSIRO112-03753265 198 8.23544 tfidf
9 Q0 CSIRO265-13529784 199 8.20108 tfidf
