0,0
0,0
0,0
0,0
0,0
0,0
0.142857,0.04
0.125,0.04
0.111111,0.04
0.1,0.04
0.0909091,0.04
0.0833333,0.04
0.0769231,0.04
0.0714286,0.04
0.0666667,0.04
0.0625,0.04
0.0588235,0.04
0.0555556,0.04
0.0526316,0.04
0.1,0.08
0.142857,0.12
0.136364,0.12
0.130435,0.12
0.125,0.12
0.16,0.16
