0,0
0,0
0,0
0.25,0.04
0.4,0.08
0.5,0.12
0.428571,0.12
0.375,0.12
0.444444,0.16
0.4,0.16
0.363636,0.16
0.333333,0.16
0.307692,0.16
0.285714,0.16
0.266667,0.16
0.25,0.16
0.294118,0.2
0.333333,0.24
0.315789,0.24
0.35,0.28
0.380952,0.32
0.363636,0.32
0.347826,0.32
0.333333,0.32
0.32,0.32
