0,0
0,0
0.333333,0.04
0.25,0.04
0.2,0.04
0.166667,0.04
0.142857,0.04
0.125,0.04
0.111111,0.04
0.1,0.04
0.181818,0.08
0.166667,0.08
0.153846,0.08
0.214286,0.12
0.2,0.12
0.1875,0.12
0.176471,0.12
0.166667,0.12
0.157895,0.12
0.15,0.12
0.142857,0.12
0.136364,0.12
0.173913,0.16
0.166667,0.16
0.16,0.16
