0,0
0,0
0,0
0.25,0.04
0.4,0.08
0.5,0.12
0.428571,0.12
0.375,0.12
0.333333,0.12
0.3,0.12
0.272727,0.12
0.333333,0.16
0.384615,0.2
0.357143,0.2
0.333333,0.2
0.3125,0.2
0.294118,0.2
0.277778,0.2
0.315789,0.24
0.3,0.24
0.285714,0.24
0.272727,0.24
0.26087,0.24
0.25,0.24
0.24,0.24
