0,0
0.5,0.04
0.333333,0.04
0.5,0.08
0.6,0.12
0.666667,0.16
0.714286,0.2
0.75,0.24
0.777778,0.28
0.8,0.32
0.727273,0.32
0.666667,0.32
0.615385,0.32
0.642857,0.36
0.666667,0.4
0.6875,0.44
0.705882,0.48
0.722222,0.52
0.736842,0.56
0.75,0.6
0.761905,0.64
0.727273,0.64
0.73913,0.68
0.75,0.72
0.76,0.76
