44 Q0 CSIRO131-15699882 1 8.13862 bm25
44 Q0 CSIRO131-15724359 2 7.8724 bm25
44 Q0 CSIRO131-16152761 3 7.71377 bm25
44 Q0 CSIRO131-15634186 4 7.67031 bm25
44 Q0 CSIRO131-15686987 5 7.60139 bm25
44 Q0 CSIRO135-12463098 6 7.46136 bm25
44 Q0 CSIRO131-15733583 7 7.44162 bm25
44 Q0 CSIRO131-16070992 8 7.42376 bm25
44 Q0 CSIRO131-05591514 9 7.39561 bm25
44 Q0 CSIRO131-15946583 10 7.34325 bm25
44 Q0 CSIRO131-16112167 11 7.32874 bm25
44 Q0 CSIRO131-15799945 12 7.29285 bm25
44 Q0 CSIRO068-05143003 13 7.2505 bm25
44 Q0 CSIRO073-10674573 14 7.24806 bm25
44 Q0 CSIRO070-09700791 15 7.24563 bm25
44 Q0 CSIRO071-14507057 16 7.24563 bm25
44 Q0 CSIRO069-09140987 17 7.24563 bm25
44 Q0 CSIRO135-12671353 18 7.18554 bm25
44 Q0 CSIRO136-16359489 19 7.18086 bm25
44 Q0 CSIRO137-02206681 20 7.16523 bm25
44 Q0 CSIRO131-15880019 21 7.16401 bm25
44 Q0 CSIRO130-04030612 22 7.13023 bm25
44 Q0 CSIRO131-05598516 23 7.13023 bm25
44 Q0 CSIRO131-15182935 24 7.02595 bm25
44 Q0 CSIRO142-04314947 25 7.01636 bm25
44 Q0 CSIRO131-15712661 26 7.0008 bm25
44 Q0 CSIRO131-15777963 27 6.9551 bm25
44 Q0 CSIRO141-07272616 28 6.94208 bm25
44 Q0 CSIRO131-15930159 29 6.89642 bm25
44 Q0 CSIRO131-15982687 30 6.73081 bm25
44 Q0 CSIRO142-04216534 31 6.64971 bm25
44 Q0 CSIRO131-16003581 32 6.64311 bm25
44 Q0 CSIRO145-11241528 33 6.60917 bm25
44 Q0 CSIRO211-05882864 34 6.58419 bm25
44 Q0 CSIRO137-06308639 35 6.4931 bm25
44 Q0 CSIRO131-15830626 36 6.48497 bm25
44 Q0 CSIRO145-16299852 37 6.43598 bm25
44 Q0 CSIRO067-13763895 38 6.39811 bm25
44 Q0 CSIRO131-15897699 39 6.33841 bm25
44 Q0 CSIRO131-15966217 40 6.32623 bm25
44 Q0 CSIRO131-15549627 41 6.31713 bm25
44 Q0 CSIRO064-16056170 42 6.29675 bm25
44 Q0 CSIRO131-15846347 43 6.29123 bm25
44 Q0 CSIRO137-07052741 44 6.27749 bm25
44 Q0 CSIRO131-15756459 45 6.27151 bm25
44 Q0 CSIRO131-15565045 46 6.26958 bm25
44 Q0 CSIRO131-16038947 47 6.25105 bm25
44 Q0 CSIRO136-10182970 48 6.23962 bm25
44 Q0 CSIRO131-15578589 49 6.23661 bm25
44 Q0 CSIRO131-15630568 50 6.23312 bm25
44 Q0 CSIRO131-15272251 51 6.21772 bm25
44 Q0 CSIRO145-11251520 52 6.18457 bm25
44 Q0 CSIRO130-04027437 53 6.16572 bm25
44 Q0 CSIRO131-15958734 54 6.14083 bm25
44 Q0 CSIRO145-16310991 55 6.09934 bm25
44 Q0 CSIRO064-16018181 56 6.06089 bm25
44 Q0 CSIRO073-05094880 57 5.99781 bm25
44 Q0 CSIRO207-07093663 58 5.99405 bm25
44 Q0 CSIRO263-09200562 59 5.87638 bm25
44 Q0 CSIRO131-15854334 60 5.87168 bm25
44 Q0 CSIRO213-14960219 61 5.86918 bm25
44 Q0 CSIRO095-01051956 62 5.81572 bm25
44 Q0 CSIRO115-10237480 63 5.71726 bm25
44 Q0 CSIRO131-15907180 64 5.70723 bm25
44 Q0 CSIRO131-15364004 65 5.6477 bm25
44 Q0 CSIRO131-15603302 66 5.64105 bm25
44 Q0 CSIRO131-15583686 67 5.60802 bm25
44 Q0 CSIRO131-15542995 68 5.60307 bm25
44 Q0 CSIRO131-12728090 69 5.58839 bm25
44 Q0 CSIRO131-15646901 70 5.58513 bm25
44 Q0 CSIRO131-15127691 71 5.5592 bm25
44 Q0 CSIRO131-15916850 72 5.55187 bm25
44 Q0 CSIRO131-16021519 73 5.53315 bm25
44 Q0 CSIRO131-15618514 74 5.49856 bm25
44 Q0 CSIRO130-00910168 75 5.46122 bm25
44 Q0 CSIRO130-03746486 76 5.45733 bm25
44 Q0 CSIRO131-15768692 77 5.42289 bm25
44 Q0 CSIRO263-07330173 78 5.2896 bm25
44 Q0 CSIRO131-15656389 79 5.27794 bm25
44 Q0 CSIRO263-07232610 80 5.27019 bm25
44 Q0 CSIRO131-15866514 81 5.25855 bm25
44 Q0 CSIRO131-15534180 82 5.25425 bm25
44 Q0 CSIRO263-07252885 83 5.23944 bm25
44 Q0 CSIRO262-08339800 84 5.21283 bm25
44 Q0 CSIRO131-15592799 85 5.20288 bm25
44 Q0 CSIRO131-15972572 86 4.99882 bm25
44 Q0 CSIRO131-15599062 87 4.95401 bm25
44 Q0 CSIRO130-01018266 88 4.93425 bm25
44 Q0 CSIRO254-16406744 89 4.93021 bm25
44 Q0 CSIRO131-15642242 90 4.92683 bm25
44 Q0 CSIRO131-15382997 91 4.91335 bm25
44 Q0 CSIRO131-15588036 92 4.86016 bm25
44 Q0 CSIRO130-04150369 93 4.84378 bm25
44 Q0 CSIRO137-04565592 94 4.82102 bm25
44 Q0 CSIRO137-11280300 95 4.78888 bm25
44 Q0 CSIRO131-15824311 96 4.78816 bm25
44 Q0 CSIRO127-10234523 97 4.78338 bm25
44 Q0 CSIRO131-15677743 98 4.72673 bm25
44 Q0 CSIRO131-15666753 99 4.6943 bm25
44 Q0 CSIRO137-04555855 100 4.64941 bm25
44 Q0 CSIRO131-15977151 101 4.6404 bm25
44 Q0 CSIRO130-00982145 102 4.60919 bm25
44 Q0 CSIRO130-00950309 103 4.60565 bm25
44 Q0 CSIRO068-03807804 104 4.52145 bm25
44 Q0 CSIRO073-01631552 105 4.51719 bm25
44 Q0 CSIRO070-06545334 106 4.51293 bm25
44 Q0 CSIRO068-16716083 107 4.51293 bm25
44 Q0 CSIRO071-09495361 108 4.51293 bm25
44 Q0 CSIRO136-15277932 109 4.50933 bm25
44 Q0 CSIRO263-04280124 110 4.50869 bm25
44 Q0 CSIRO211-03886355 111 4.47561 bm25
44 Q0 CSIRO127-10267277 112 4.4708 bm25
44 Q0 CSIRO263-07273462 113 4.36486 bm25
44 Q0 CSIRO205-01472732 114 4.36486 bm25
44 Q0 CSIRO072-11043567 115 4.36089 bm25
44 Q0 CSIRO206-13147647 116 4.35692 bm25
44 Q0 CSIRO068-12558294 117 4.35692 bm25
44 Q0 CSIRO213-13843440 118 4.34901 bm25
44 Q0 CSIRO067-08825492 119 4.28603 bm25
44 Q0 CSIRO131-15626698 120 4.2487 bm25
44 Q0 CSIRO136-15006277 121 4.24801 bm25
44 Q0 CSIRO067-12691673 122 4.23742 bm25
44 Q0 CSIRO130-01096276 123 4.22386 bm25
44 Q0 CSIRO130-01053814 124 4.22047 bm25
44 Q0 CSIRO131-15809605 125 4.20109 bm25
44 Q0 CSIRO077-02425815 126 4.19658 bm25
44 Q0 CSIRO067-12628897 127 4.1929 bm25
44 Q0 CSIRO171-11033234 128 4.18557 bm25
44 Q0 CSIRO131-15886178 129 4.16374 bm25
44 Q0 CSIRO077-03321258 130 4.13141 bm25
44 Q0 CSIRO077-02360055 131 4.11014 bm25
44 Q0 CSIRO205-02387072 132 4.07864 bm25
44 Q0 CSIRO072-14318621 133 4.07517 bm25
44 Q0 CSIRO067-12973241 134 4.07517 bm25
44 Q0 CSIRO206-15651265 135 4.0717 bm25
44 Q0 CSIRO068-14352728 136 4.0717 bm25
44 Q0 CSIRO136-10232034 137 4.01706 bm25
44 Q0 CSIRO136-09929112 138 4.01369 bm25
44 Q0 CSIRO254-16464358 139 3.98857 bm25
44 Q0 CSIRO131-15607529 140 3.98696 bm25
44 Q0 CSIRO131-15875133 141 3.96058 bm25
44 Q0 CSIRO115-08866499 142 3.92537 bm25
44 Q0 CSIRO141-12519053 143 3.92488 bm25
44 Q0 CSIRO131-14448893 144 3.90886 bm25
44 Q0 CSIRO145-16195421 145 3.89298 bm25
44 Q0 CSIRO067-13045095 146 3.8003 bm25
44 Q0 CSIRO067-07139566 147 3.75855 bm25
44 Q0 CSIRO131-16028859 148 3.75855 bm25
44 Q0 CSIRO115-10219346 149 3.71387 bm25
44 Q0 CSIRO254-16569020 150 3.71237 bm25
44 Q0 CSIRO078-11185547 151 3.70907 bm25
44 Q0 CSIRO073-01395416 152 3.70619 bm25
44 Q0 CSIRO068-16534043 153 3.70333 bm25
44 Q0 CSIRO070-06446534 154 3.70333 bm25
44 Q0 CSIRO071-09416333 155 3.70333 bm25
44 Q0 CSIRO139-09004713 156 3.68907 bm25
44 Q0 CSIRO074-16598573 157 3.66647 bm25
44 Q0 CSIRO067-07628940 158 3.66647 bm25
44 Q0 CSIRO131-01566024 159 3.58415 bm25
44 Q0 CSIRO067-13720392 160 3.55225 bm25
44 Q0 CSIRO076-13963550 161 3.53913 bm25
44 Q0 CSIRO067-08299988 162 3.53652 bm25
44 Q0 CSIRO067-08670064 163 3.48251 bm25
44 Q0 CSIRO067-13377706 164 3.47241 bm25
44 Q0 CSIRO067-11569975 165 3.45987 bm25
44 Q0 CSIRO067-08241867 166 3.4499 bm25
44 Q0 CSIRO074-13559795 167 3.43013 bm25
44 Q0 CSIRO261-00302256 168 3.40464 bm25
44 Q0 CSIRO112-10656380 169 3.38887 bm25
44 Q0 CSIRO261-08318317 170 3.38539 bm25
44 Q0 CSIRO131-15664464 171 3.35222 bm25
44 Q0 CSIRO145-16204830 172 3.33925 bm25
44 Q0 CSIRO131-03929462 173 3.33925 bm25
44 Q0 CSIRO077-16291830 174 3.32765 bm25
44 Q0 CSIRO131-15675643 175 3.31051 bm25
44 Q0 CSIRO131-15890169 176 3.30697 bm25
44 Q0 CSIRO127-10327349 177 3.30594 bm25
44 Q0 CSIRO127-10394936 178 3.30138 bm25
44 Q0 CSIRO127-10320320 179 3.28327 bm25
44 Q0 CSIRO127-10299806 180 3.28327 bm25
44 Q0 CSIRO131-15673462 181 3.28327 bm25
44 Q0 CSIRO127-10405338 182 3.28327 bm25
44 Q0 CSIRO130-01198112 183 3.28059 bm25
44 Q0 CSIRO127-10387831 184 3.27878 bm25
44 Q0 CSIRO127-10384303 185 3.27878 bm25
44 Q0 CSIRO127-10323809 186 3.27878 bm25
44 Q0 CSIRO127-10310435 187 3.27878 bm25
44 Q0 CSIRO127-10306870 188 3.27878 bm25
44 Q0 CSIRO127-10303356 189 3.27878 bm25
44 Q0 CSIRO130-01143845 190 3.27709 bm25
44 Q0 CSIRO127-10380725 191 3.27429 bm25
44 Q0 CSIRO127-10332259 192 3.27429 bm25
44 Q0 CSIRO127-10398211 193 3.27429 bm25
44 Q0 CSIRO127-10401775 194 3.26982 bm25
44 Q0 CSIRO127-10391387 195 3.26536 bm25
44 Q0 CSIRO130-11917426 196 3.22712 bm25
44 Q0 CSIRO139-09015831 197 3.21377 bm25
44 Q0 CSIRO171-11340334 198 3.2003 bm25
44 Q0 CSIRO072-08566048 199 3.12068 bm25
