1,0.04
0.5,0.04
0.333333,0.04
0.25,0.04
0.2,0.04
0.333333,0.08
0.428571,0.12
0.5,0.16
0.555556,0.2
0.6,0.24
0.545455,0.24
0.5,0.24
0.538462,0.28
0.571429,0.32
0.6,0.36
0.625,0.4
0.647059,0.44
0.666667,0.48
0.684211,0.52
0.65,0.52
0.619048,0.52
0.590909,0.52
0.565217,0.52
0.541667,0.52
0.52,0.52
