1,0.04
1,0.08
0.666667,0.08
0.5,0.08
0.6,0.12
0.5,0.12
0.428571,0.12
0.375,0.12
0.333333,0.12
0.3,0.12
0.272727,0.12
0.25,0.12
0.307692,0.16
0.357143,0.2
0.333333,0.2
0.3125,0.2
0.294118,0.2
0.277778,0.2
0.263158,0.2
0.25,0.2
0.285714,0.24
0.318182,0.28
0.304348,0.28
0.291667,0.28
0.28,0.28
