39 Q0 CSIRO130-03960328 1 17.6352 bm25
39 Q0 CSIRO171-01956375 2 17.3884 bm25
39 Q0 CSIRO136-00192735 3 17.3038 bm25
39 Q0 CSIRO171-00948078 4 17.3038 bm25
39 Q0 CSIRO138-02258065 5 16.7443 bm25
39 Q0 CSIRO136-12841490 6 16.6147 bm25
39 Q0 CSIRO130-03967125 7 15.4236 bm25
39 Q0 CSIRO171-01928329 8 14.8343 bm25
39 Q0 CSIRO171-00937851 9 14.7868 bm25
39 Q0 CSIRO135-15282980 10 14.7868 bm25
39 Q0 CSIRO064-16076358 11 13.2229 bm25
39 Q0 CSIRO263-04297019 12 12.5567 bm25
39 Q0 CSIRO141-06588641 13 12.3883 bm25
39 Q0 CSIRO141-07066140 14 12.3249 bm25
39 Q0 CSIRO263-07425741 15 12.2831 bm25
39 Q0 CSIRO263-05905870 16 10.8287 bm25
39 Q0 CSIRO263-05926114 17 10.8287 bm25
39 Q0 CSIRO263-05885614 18 10.82 bm25
39 Q0 CSIRO263-07446033 19 10.82 bm25
39 Q0 CSIRO263-06007540 20 10.7938 bm25
39 Q0 CSIRO263-06089116 21 10.7938 bm25
39 Q0 CSIRO263-06068721 22 10.7938 bm25
39 Q0 CSIRO263-06048326 23 10.7938 bm25
39 Q0 CSIRO171-02213808 24 9.8681 bm25
39 Q0 CSIRO263-06027935 25 9.68724 bm25
39 Q0 CSIRO263-05987149 26 9.68724 bm25
39 Q0 CSIRO263-05966758 27 9.68724 bm25
39 Q0 CSIRO263-05946358 28 9.67839 bm25
39 Q0 CSIRO263-06971705 29 9.4524 bm25
39 Q0 CSIRO141-16529302 30 9.27106 bm25
39 Q0 CSIRO141-14983789 31 8.90962 bm25
39 Q0 CSIRO146-05694339 32 8.42649 bm25
39 Q0 CSIRO136-16660929 33 7.9315 bm25
39 Q0 CSIRO171-11325681 34 7.89899 bm25
39 Q0 CSIRO145-05686053 35 7.53885 bm25
39 Q0 CSIRO137-11540341 36 7.5269 bm25
39 Q0 CSIRO144-12808526 37 7.52592 bm25
39 Q0 CSIRO261-14198813 38 7.47547 bm25
39 Q0 CSIRO136-00580198 39 7.42285 bm25
39 Q0 CSIRO145-05697378 40 7.38434 bm25
39 Q0 CSIRO131-12728090 41 7.20944 bm25
39 Q0 CSIRO136-12805136 42 7.0627 bm25
39 Q0 CSIRO136-13724364 43 7.00244 bm25
39 Q0 CSIRO144-12818735 44 6.99749 bm25
39 Q0 CSIRO117-02366149 45 6.99295 bm25
39 Q0 CSIRO138-02942849 46 6.96244 bm25
39 Q0 CSIRO138-04576027 47 6.95729 bm25
39 Q0 CSIRO131-13929623 48 6.90741 bm25
39 Q0 CSIRO170-16045325 49 6.68446 bm25
39 Q0 CSIRO131-14632414 50 6.61003 bm25
39 Q0 CSIRO136-16184331 51 6.58168 bm25
39 Q0 CSIRO139-09004713 52 6.47841 bm25
39 Q0 CSIRO137-10873772 53 6.44523 bm25
39 Q0 CSIRO171-00351986 54 6.39069 bm25
39 Q0 CSIRO211-04785593 55 6.31788 bm25
39 Q0 CSIRO141-05842176 56 6.2896 bm25
39 Q0 CSIRO211-10551065 57 6.24525 bm25
39 Q0 CSIRO139-03625153 58 6.20695 bm25
39 Q0 CSIRO078-00553524 59 6.19072 bm25
39 Q0 CSIRO130-15813709 60 6.08747 bm25
39 Q0 CSIRO092-10969355 61 6.0872 bm25
39 Q0 CSIRO218-03949540 62 6.05857 bm25
39 Q0 CSIRO141-07524180 63 5.95252 bm25
39 Q0 CSIRO145-05489162 64 5.90953 bm25
39 Q0 CSIRO148-02493889 65 5.78789 bm25
39 Q0 CSIRO141-16073337 66 5.72241 bm25
39 Q0 CSIRO146-16059251 67 5.60727 bm25
39 Q0 CSIRO068-02655630 68 5.58362 bm25
39 Q0 CSIRO072-13850425 69 5.57774 bm25
39 Q0 CSIRO206-15308010 70 5.57187 bm25
39 Q0 CSIRO070-03800903 71 5.57187 bm25
39 Q0 CSIRO131-14066332 72 5.56883 bm25
39 Q0 CSIRO139-09015831 73 5.56358 bm25
39 Q0 CSIRO067-08936550 74 5.53691 bm25
39 Q0 CSIRO067-11175704 75 5.53691 bm25
39 Q0 CSIRO210-12108828 76 5.52959 bm25
39 Q0 CSIRO170-15376016 77 5.5134 bm25
39 Q0 CSIRO140-15105620 78 5.47374 bm25
39 Q0 CSIRO212-16407948 79 5.47176 bm25
39 Q0 CSIRO117-01878997 80 5.45452 bm25
39 Q0 CSIRO171-00543340 81 5.44427 bm25
39 Q0 CSIRO115-11629860 82 5.43982 bm25
39 Q0 CSIRO171-13484919 83 5.41976 bm25
39 Q0 CSIRO002-12939545 84 5.38013 bm25
39 Q0 CSIRO212-05237233 85 5.37801 bm25
39 Q0 CSIRO145-05497640 86 5.37276 bm25
39 Q0 CSIRO115-11729483 87 5.32693 bm25
39 Q0 CSIRO263-09832887 88 5.32183 bm25
39 Q0 CSIRO139-03533107 89 5.31769 bm25
39 Q0 CSIRO199-00530574 90 5.22343 bm25
39 Q0 CSIRO136-10164551 91 5.1699 bm25
39 Q0 CSIRO115-03949442 92 5.16655 bm25
39 Q0 CSIRO116-00991145 93 5.13937 bm25
39 Q0 CSIRO212-15255088 94 5.13233 bm25
39 Q0 CSIRO137-01772523 95 5.10954 bm25
39 Q0 CSIRO136-12474884 96 5.10457 bm25
39 Q0 CSIRO067-11820496 97 5.09965 bm25
39 Q0 CSIRO092-10973864 98 5.09496 bm25
39 Q0 CSIRO213-02889275 99 5.0843 bm25
39 Q0 CSIRO170-15674192 100 5.06066 bm25
39 Q0 CSIRO138-01922229 101 5.05101 bm25
39 Q0 CSIRO217-12662418 102 5.04435 bm25
39 Q0 CSIRO067-07177897 103 5.03659 bm25
39 Q0 CSIRO210-03927758 104 5.0264 bm25
39 Q0 CSIRO211-08936279 105 4.98384 bm25
39 Q0 CSIRO065-00037632 106 4.94257 bm25
39 Q0 CSIRO211-05947427 107 4.92476 bm25
39 Q0 CSIRO136-08938642 108 4.90765 bm25
39 Q0 CSIRO067-06541503 109 4.85199 bm25
39 Q0 CSIRO115-14503424 110 4.80444 bm25
39 Q0 CSIRO137-02315699 111 4.77493 bm25
39 Q0 CSIRO136-11465087 112 4.75564 bm25
39 Q0 CSIRO131-14840317 113 4.75185 bm25
39 Q0 CSIRO171-13332996 114 4.74997 bm25
39 Q0 CSIRO138-03667309 115 4.68933 bm25
39 Q0 CSIRO139-04775612 116 4.68622 bm25
39 Q0 CSIRO146-16069120 117 4.67218 bm25
39 Q0 CSIRO149-07306536 118 4.61058 bm25
39 Q0 CSIRO252-09880884 119 4.58283 bm25
39 Q0 CSIRO093-03606779 120 4.55803 bm25
39 Q0 CSIRO067-06582281 121 4.52447 bm25
39 Q0 CSIRO114-16592347 122 4.49247 bm25
39 Q0 CSIRO142-08358135 123 4.47855 bm25
39 Q0 CSIRO115-11502702 124 4.47714 bm25
39 Q0 CSIRO140-08906977 125 4.47099 bm25
39 Q0 CSIRO130-04196699 126 4.46625 bm25
39 Q0 CSIRO114-07869256 127 4.46625 bm25
39 Q0 CSIRO114-07884372 128 4.46625 bm25
39 Q0 CSIRO114-02652711 129 4.46397 bm25
39 Q0 CSIRO141-05890369 130 4.42883 bm25
39 Q0 CSIRO262-15678112 131 4.40772 bm25
39 Q0 CSIRO263-11153448 132 4.4036 bm25
39 Q0 CSIRO135-10159986 133 4.38792 bm25
39 Q0 CSIRO143-15447960 134 4.37856 bm25
39 Q0 CSIRO200-01294850 135 4.36978 bm25
39 Q0 CSIRO171-06553039 136 4.33736 bm25
39 Q0 CSIRO141-05757270 137 4.28199 bm25
39 Q0 CSIRO092-10929115 138 4.27493 bm25
39 Q0 CSIRO016-07765027 139 4.26016 bm25
39 Q0 CSIRO116-03895338 140 4.25853 bm25
39 Q0 CSIRO063-02700965 141 4.24921 bm25
39 Q0 CSIRO143-15617124 142 4.23993 bm25
39 Q0 CSIRO066-09916473 143 4.22196 bm25
39 Q0 CSIRO130-15343113 144 4.2187 bm25
39 Q0 CSIRO140-05567778 145 4.21337 bm25
39 Q0 CSIRO261-00619399 146 4.19932 bm25
39 Q0 CSIRO262-02055843 147 4.15777 bm25
39 Q0 CSIRO078-00575612 148 4.14871 bm25
39 Q0 CSIRO260-16511959 149 4.14604 bm25
39 Q0 CSIRO139-04682314 150 4.12994 bm25
39 Q0 CSIRO136-12532768 151 4.10778 bm25
39 Q0 CSIRO217-13996598 152 4.06522 bm25
39 Q0 CSIRO148-04466294 153 4.06171 bm25
39 Q0 CSIRO130-11203172 154 4.05964 bm25
39 Q0 CSIRO077-06687197 155 4.0408 bm25
39 Q0 CSIRO115-11710186 156 4.03465 bm25
39 Q0 CSIRO256-01176660 157 4.02009 bm25
39 Q0 CSIRO115-11864956 158 4.0144 bm25
39 Q0 CSIRO140-15131132 159 4.00641 bm25
39 Q0 CSIRO138-02848775 160 3.9996 bm25
39 Q0 CSIRO148-04598664 161 3.9996 bm25
39 Q0 CSIRO145-16092416 162 3.9996 bm25
39 Q0 CSIRO211-10615949 163 3.96926 bm25
39 Q0 CSIRO137-02324442 164 3.87135 bm25
39 Q0 CSIRO130-04150369 165 3.87135 bm25
39 Q0 CSIRO211-09386699 166 3.85235 bm25
39 Q0 CSIRO211-06296705 167 3.83041 bm25
39 Q0 CSIRO146-01229303 168 3.82767 bm25
39 Q0 CSIRO114-00723542 169 3.77733 bm25
39 Q0 CSIRO139-04636527 170 3.74808 bm25
39 Q0 CSIRO140-08920298 171 3.73599 bm25
39 Q0 CSIRO211-15007315 172 3.72731 bm25
39 Q0 CSIRO264-00051222 173 3.69773 bm25
39 Q0 CSIRO264-00071030 174 3.69773 bm25
39 Q0 CSIRO115-11668056 175 3.69525 bm25
39 Q0 CSIRO264-00090838 176 3.69309 bm25
39 Q0 CSIRO136-13854164 177 3.67782 bm25
39 Q0 CSIRO138-04643637 178 3.67495 bm25
39 Q0 CSIRO263-09897826 179 3.65182 bm25
39 Q0 CSIRO263-09944588 180 3.63377 bm25
39 Q0 CSIRO211-15822300 181 3.63242 bm25
39 Q0 CSIRO263-09911726 182 3.60703 bm25
39 Q0 CSIRO093-03644217 183 3.59635 bm25
39 Q0 CSIRO263-09862948 184 3.58504 bm25
39 Q0 CSIRO263-09927307 185 3.57198 bm25
39 Q0 CSIRO263-09880378 186 3.56765 bm25
39 Q0 CSIRO262-06961772 187 3.56332 bm25
39 Q0 CSIRO262-06979350 188 3.55042 bm25
39 Q0 CSIRO076-13803876 189 3.53426 bm25
39 Q0 CSIRO018-02006502 190 3.52624 bm25
39 Q0 CSIRO115-11479522 191 3.5256 bm25
39 Q0 CSIRO116-15969518 192 3.51642 bm25
39 Q0 CSIRO066-08255737 193 3.51579 bm25
39 Q0 CSIRO130-03973626 194 3.49827 bm25
39 Q0 CSIRO145-12089192 195 3.48199 bm25
39 Q0 CSIRO064-15675656 196 3.46406 bm25
39 Q0 CSIRO135-16681025 197 3.46036 bm25
39 Q0 CSIRO140-15139840 198 3.45389 bm25
39 Q0 CSIRO074-11428497 199 3.45136 bm25
