1,0.0714286
1,0.142857
0.666667,0.142857
0.75,0.214286
0.8,0.285714
0.666667,0.285714
0.571429,0.285714
0.5,0.285714
0.444444,0.285714
0.4,0.285714
0.363636,0.285714
0.333333,0.285714
0.307692,0.285714
0.285714,0.285714
