22 Q0 CSIRO129-05967640 1 14.2571 bm25
22 Q0 CSIRO129-05872876 2 12.6342 bm25
22 Q0 CSIRO125-08136645 3 12.1114 bm25
22 Q0 CSIRO125-08219745 4 12.1114 bm25
22 Q0 CSIRO129-05824610 5 12.0918 bm25
22 Q0 CSIRO129-13385782 6 11.6904 bm25
22 Q0 CSIRO137-03521572 7 11.5788 bm25
22 Q0 CSIRO129-05942336 8 10.8549 bm25
22 Q0 CSIRO100-12513997 9 10.4316 bm25
22 Q0 CSIRO100-12245978 10 10.3932 bm25
22 Q0 CSIRO129-13377530 11 10.316 bm25
22 Q0 CSIRO127-10023942 12 10.2588 bm25
22 Q0 CSIRO128-16610181 13 10.1701 bm25
22 Q0 CSIRO137-12939550 14 10.0392 bm25
22 Q0 CSIRO114-02566640 15 9.9093 bm25
22 Q0 CSIRO113-14824711 16 9.87844 bm25
22 Q0 CSIRO129-15692205 17 9.72769 bm25
22 Q0 CSIRO129-13365209 18 9.70327 bm25
22 Q0 CSIRO128-16249727 19 9.60409 bm25
22 Q0 CSIRO119-00024659 20 9.49078 bm25
22 Q0 CSIRO137-10320008 21 9.33283 bm25
22 Q0 CSIRO129-05979146 22 9.30345 bm25
22 Q0 CSIRO129-13015045 23 8.96964 bm25
22 Q0 CSIRO129-15777022 24 8.94328 bm25
22 Q0 CSIRO139-04503570 25 8.9421 bm25
22 Q0 CSIRO136-09001367 26 8.82884 bm25
22 Q0 CSIRO138-08732833 27 8.78786 bm25
22 Q0 CSIRO127-10500266 28 8.77944 bm25
22 Q0 CSIRO129-06221488 29 8.77944 bm25
22 Q0 CSIRO128-02499297 30 8.77944 bm25
22 Q0 CSIRO129-14333361 31 8.5696 bm25
22 Q0 CSIRO129-02301085 32 8.56164 bm25
22 Q0 CSIRO136-14514978 33 8.49008 bm25
22 Q0 CSIRO129-06064522 34 8.4017 bm25
22 Q0 CSIRO139-04414448 35 8.30104 bm25
22 Q0 CSIRO255-01020616 36 8.18417 bm25
22 Q0 CSIRO127-08101839 37 7.9251 bm25
22 Q0 CSIRO126-00730344 38 7.73053 bm25
22 Q0 CSIRO129-10050168 39 7.72118 bm25
22 Q0 CSIRO129-06022353 40 7.66971 bm25
22 Q0 CSIRO144-15502408 41 7.66657 bm25
22 Q0 CSIRO144-15513828 42 7.62723 bm25
22 Q0 CSIRO129-02336230 43 7.6174 bm25
22 Q0 CSIRO148-10480844 44 7.61065 bm25
22 Q0 CSIRO129-14193731 45 7.59091 bm25
22 Q0 CSIRO125-08239975 46 7.57941 bm25
22 Q0 CSIRO172-11388506 47 7.48053 bm25
22 Q0 CSIRO135-12320088 48 7.47691 bm25
22 Q0 CSIRO129-02564229 49 7.41673 bm25
22 Q0 CSIRO125-14231639 50 7.37518 bm25
22 Q0 CSIRO135-12485394 51 7.37518 bm25
22 Q0 CSIRO129-12698020 52 7.32381 bm25
22 Q0 CSIRO196-11594618 53 7.29637 bm25
22 Q0 CSIRO113-16621116 54 7.27567 bm25
22 Q0 CSIRO114-00459847 55 7.18836 bm25
22 Q0 CSIRO140-06050491 56 7.18479 bm25
22 Q0 CSIRO128-02513634 57 7.17699 bm25
22 Q0 CSIRO129-02459220 58 6.96398 bm25
22 Q0 CSIRO129-11684728 59 6.93916 bm25
22 Q0 CSIRO112-10714612 60 6.8979 bm25
22 Q0 CSIRO129-15296242 61 6.67958 bm25
22 Q0 CSIRO115-15522249 62 6.67744 bm25
22 Q0 CSIRO129-10166586 63 6.61158 bm25
22 Q0 CSIRO129-05799612 64 6.61093 bm25
22 Q0 CSIRO147-05319814 65 6.58907 bm25
22 Q0 CSIRO129-13049368 66 6.5533 bm25
22 Q0 CSIRO129-14529471 67 6.4468 bm25
22 Q0 CSIRO129-13204282 68 6.44148 bm25
22 Q0 CSIRO148-11970910 69 6.42133 bm25
22 Q0 CSIRO127-09924535 70 6.40317 bm25
22 Q0 CSIRO129-05791935 71 6.35857 bm25
22 Q0 CSIRO129-05934280 72 6.35062 bm25
22 Q0 CSIRO129-03284972 73 6.34665 bm25
22 Q0 CSIRO129-05849449 74 6.34557 bm25
22 Q0 CSIRO129-15944708 75 6.3308 bm25
22 Q0 CSIRO112-13039336 76 6.29173 bm25
22 Q0 CSIRO141-12358802 77 6.29121 bm25
22 Q0 CSIRO129-06062409 78 6.26648 bm25
22 Q0 CSIRO134-11752892 79 6.25735 bm25
22 Q0 CSIRO141-12540617 80 6.25096 bm25
22 Q0 CSIRO140-06060900 81 6.24932 bm25
22 Q0 CSIRO172-14859495 82 6.12187 bm25
22 Q0 CSIRO128-02601482 83 6.10092 bm25
22 Q0 CSIRO172-07467650 84 6.0968 bm25
22 Q0 CSIRO128-02606609 85 6.08631 bm25
22 Q0 CSIRO128-16724480 86 6.0766 bm25
22 Q0 CSIRO129-05704857 87 6.04767 bm25
22 Q0 CSIRO129-01057931 88 6.04767 bm25
22 Q0 CSIRO128-16494104 89 6.04287 bm25
22 Q0 CSIRO129-02844952 90 6.02228 bm25
22 Q0 CSIRO127-11394965 91 6.00005 bm25
22 Q0 CSIRO119-00033559 92 5.97175 bm25
22 Q0 CSIRO129-05420657 93 5.96971 bm25
22 Q0 CSIRO132-01047888 94 5.95603 bm25
22 Q0 CSIRO129-03279405 95 5.94389 bm25
22 Q0 CSIRO128-16576200 96 5.93463 bm25
22 Q0 CSIRO128-16583877 97 5.90703 bm25
22 Q0 CSIRO137-01178894 98 5.87223 bm25
22 Q0 CSIRO143-06817556 99 5.86324 bm25
22 Q0 CSIRO129-09944960 100 5.86204 bm25
22 Q0 CSIRO126-09710873 101 5.83923 bm25
22 Q0 CSIRO129-11864558 102 5.82983 bm25
22 Q0 CSIRO112-12759112 103 5.82098 bm25
22 Q0 CSIRO128-02427724 104 5.80493 bm25
22 Q0 CSIRO137-09296729 105 5.74973 bm25
22 Q0 CSIRO172-13907833 106 5.73211 bm25
22 Q0 CSIRO131-14509581 107 5.72174 bm25
22 Q0 CSIRO172-07476450 108 5.71632 bm25
22 Q0 CSIRO129-05959615 109 5.70366 bm25
22 Q0 CSIRO129-15922247 110 5.66596 bm25
22 Q0 CSIRO129-01586859 111 5.65289 bm25
22 Q0 CSIRO129-11353509 112 5.65112 bm25
22 Q0 CSIRO129-09920582 113 5.64164 bm25
22 Q0 CSIRO128-16600266 114 5.61175 bm25
22 Q0 CSIRO128-16717614 115 5.58324 bm25
22 Q0 CSIRO172-07438795 116 5.57725 bm25
22 Q0 CSIRO148-10858710 117 5.5759 bm25
22 Q0 CSIRO129-02544130 118 5.54749 bm25
22 Q0 CSIRO129-06041664 119 5.52528 bm25
22 Q0 CSIRO129-02670231 120 5.51913 bm25
22 Q0 CSIRO125-07938344 121 5.49151 bm25
22 Q0 CSIRO129-13241919 122 5.48794 bm25
22 Q0 CSIRO129-13341039 123 5.47935 bm25
22 Q0 CSIRO126-00282051 124 5.44684 bm25
22 Q0 CSIRO148-10428737 125 5.42993 bm25
22 Q0 CSIRO129-11944287 126 5.42825 bm25
22 Q0 CSIRO137-10574406 127 5.41765 bm25
22 Q0 CSIRO090-14925781 128 5.40542 bm25
22 Q0 CSIRO129-09951985 129 5.39437 bm25
22 Q0 CSIRO136-10336114 130 5.38756 bm25
22 Q0 CSIRO131-14674453 131 5.27148 bm25
22 Q0 CSIRO129-05955482 132 5.2418 bm25
22 Q0 CSIRO127-01675057 133 5.22689 bm25
22 Q0 CSIRO135-06875258 134 5.22685 bm25
22 Q0 CSIRO129-05542866 135 5.2149 bm25
22 Q0 CSIRO129-02420385 136 5.20567 bm25
22 Q0 CSIRO129-09992285 137 5.20171 bm25
22 Q0 CSIRO129-08274176 138 5.18573 bm25
22 Q0 CSIRO147-02287779 139 5.18319 bm25
22 Q0 CSIRO143-06482426 140 5.1631 bm25
22 Q0 CSIRO129-05780250 141 5.10486 bm25
22 Q0 CSIRO129-05806026 142 5.09462 bm25
22 Q0 CSIRO126-00214231 143 5.0842 bm25
22 Q0 CSIRO129-05838228 144 5.07934 bm25
22 Q0 CSIRO129-01127798 145 5.04981 bm25
22 Q0 CSIRO129-05843894 146 5.04906 bm25
22 Q0 CSIRO127-09957482 147 5.04574 bm25
22 Q0 CSIRO129-05949495 148 5.04404 bm25
22 Q0 CSIRO129-05832469 149 5.02409 bm25
22 Q0 CSIRO127-10514597 150 5.02409 bm25
22 Q0 CSIRO128-02519003 151 5.02409 bm25
22 Q0 CSIRO129-06016325 152 5.00429 bm25
22 Q0 CSIRO129-06004136 153 4.99937 bm25
22 Q0 CSIRO129-06029447 154 4.98955 bm25
22 Q0 CSIRO148-00711336 155 4.98376 bm25
22 Q0 CSIRO136-04742751 156 4.98333 bm25
22 Q0 CSIRO253-15040338 157 4.96876 bm25
22 Q0 CSIRO127-01760463 158 4.96392 bm25
22 Q0 CSIRO129-05928181 159 4.96032 bm25
22 Q0 CSIRO129-05993085 160 4.95065 bm25
22 Q0 CSIRO129-05785916 161 4.95065 bm25
22 Q0 CSIRO125-10244182 162 4.94248 bm25
22 Q0 CSIRO145-16125750 163 4.93867 bm25
22 Q0 CSIRO129-06009795 164 4.91711 bm25
22 Q0 CSIRO126-11351943 165 4.89264 bm25
22 Q0 CSIRO129-05818397 166 4.87465 bm25
22 Q0 CSIRO126-15043595 167 4.85395 bm25
22 Q0 CSIRO172-05242723 168 4.85235 bm25
22 Q0 CSIRO129-09958316 169 4.83311 bm25
22 Q0 CSIRO129-11652190 170 4.8146 bm25
22 Q0 CSIRO129-06035168 171 4.8146 bm25
22 Q0 CSIRO129-02645946 172 4.80104 bm25
22 Q0 CSIRO172-06811270 173 4.79442 bm25
22 Q0 CSIRO129-15994933 174 4.78103 bm25
22 Q0 CSIRO119-15320069 175 4.78087 bm25
22 Q0 CSIRO129-10261916 176 4.76559 bm25
22 Q0 CSIRO138-03429321 177 4.75354 bm25
22 Q0 CSIRO129-09995998 178 4.75075 bm25
22 Q0 CSIRO129-05811278 179 4.73385 bm25
22 Q0 CSIRO172-07432180 180 4.73354 bm25
22 Q0 CSIRO181-07393172 181 4.70387 bm25
22 Q0 CSIRO064-03974381 182 4.66993 bm25
22 Q0 CSIRO135-13350206 183 4.66606 bm25
22 Q0 CSIRO129-11359788 184 4.66487 bm25
22 Q0 CSIRO254-13359299 185 4.6648 bm25
22 Q0 CSIRO147-08863809 186 4.6629 bm25
22 Q0 CSIRO144-11319873 187 4.66026 bm25
22 Q0 CSIRO144-11307208 188 4.65522 bm25
22 Q0 CSIRO118-12767242 189 4.64647 bm25
22 Q0 CSIRO137-00160073 190 4.63799 bm25
22 Q0 CSIRO133-08103526 191 4.63126 bm25
22 Q0 CSIRO140-12739444 192 4.60436 bm25
22 Q0 CSIRO117-07193355 193 4.58427 bm25
22 Q0 CSIRO135-13940867 194 4.54948 bm25
22 Q0 CSIRO114-02156162 195 4.50634 bm25
22 Q0 CSIRO137-01601807 196 4.48929 bm25
22 Q0 CSIRO129-11442138 197 4.4714 bm25
22 Q0 CSIRO127-09548495 198 4.46045 bm25
22 Q0 CSIRO134-09897789 199 4.43623 bm25
