1,0.04
1,0.08
1,0.12
0.75,0.12
0.6,0.12
0.666667,0.16
0.571429,0.16
0.625,0.2
0.666667,0.24
0.7,0.28
0.636364,0.28
0.666667,0.32
0.615385,0.32
0.642857,0.36
0.666667,0.4
0.6875,0.44
0.705882,0.48
0.722222,0.52
0.736842,0.56
0.75,0.6
0.761905,0.64
0.772727,0.68
0.782609,0.72
0.791667,0.76
0.8,0.8
