1,0.04
1,0.08
1,0.12
1,0.16
1,0.2
1,0.24
1,0.28
1,0.32
0.888889,0.32
0.8,0.32
0.727273,0.32
0.666667,0.32
0.615385,0.32
0.571429,0.32
0.533333,0.32
0.5,0.32
0.470588,0.32
0.5,0.36
0.473684,0.36
0.45,0.36
0.428571,0.36
0.409091,0.36
0.391304,0.36
0.375,0.36
0.4,0.4
