27 Q0 CSIRO146-12937416 1 16.3013 bm25
27 Q0 CSIRO145-01026488 2 15.7333 bm25
27 Q0 CSIRO146-12841671 3 15.5312 bm25
27 Q0 CSIRO190-00466860 4 15.42 bm25
27 Q0 CSIRO191-13384579 5 15.3321 bm25
27 Q0 CSIRO142-11750942 6 15.185 bm25
27 Q0 CSIRO142-11843936 7 15.1667 bm25
27 Q0 CSIRO136-04715097 8 15.1028 bm25
27 Q0 CSIRO145-01037563 9 14.8278 bm25
27 Q0 CSIRO137-10676742 10 13.8662 bm25
27 Q0 CSIRO138-11020929 11 13.6889 bm25
27 Q0 CSIRO139-06376713 12 12.7966 bm25
27 Q0 CSIRO137-10056879 13 12.7179 bm25
27 Q0 CSIRO191-10375816 14 12.7049 bm25
27 Q0 CSIRO138-10926622 15 12.6911 bm25
27 Q0 CSIRO138-13218335 16 12.4739 bm25
27 Q0 CSIRO135-12631446 17 12.1093 bm25
27 Q0 CSIRO138-16737740 18 12.0934 bm25
27 Q0 CSIRO138-16639785 19 11.8217 bm25
27 Q0 CSIRO138-15824202 20 11.6895 bm25
27 Q0 CSIRO139-06276694 21 11.6478 bm25
27 Q0 CSIRO138-15763507 22 11.4959 bm25
27 Q0 CSIRO138-13158097 23 11.3622 bm25
27 Q0 CSIRO137-11066321 24 10.5654 bm25
27 Q0 CSIRO190-11645631 25 10.5287 bm25
27 Q0 CSIRO062-07808039 26 10.3109 bm25
27 Q0 CSIRO141-15288752 27 10.2665 bm25
27 Q0 CSIRO140-05682263 28 10.0252 bm25
27 Q0 CSIRO146-14454798 29 9.84803 bm25
27 Q0 CSIRO144-07996365 30 9.62923 bm25
27 Q0 CSIRO137-11270019 31 9.45222 bm25
27 Q0 CSIRO263-07966064 32 9.12397 bm25
27 Q0 CSIRO263-07952573 33 9.12397 bm25
27 Q0 CSIRO263-07939048 34 9.09874 bm25
27 Q0 CSIRO190-11805784 35 8.83937 bm25
27 Q0 CSIRO140-05693396 36 8.74229 bm25
27 Q0 CSIRO064-15446166 37 8.73791 bm25
27 Q0 CSIRO146-14358516 38 8.68663 bm25
27 Q0 CSIRO143-01993934 39 8.32831 bm25
27 Q0 CSIRO145-16262779 40 8.28242 bm25
27 Q0 CSIRO263-13371980 41 8.11285 bm25
27 Q0 CSIRO263-13354968 42 8.11285 bm25
27 Q0 CSIRO263-13337954 43 8.11285 bm25
27 Q0 CSIRO263-13388992 44 8.05356 bm25
27 Q0 CSIRO263-13406376 45 8.05356 bm25
27 Q0 CSIRO143-12645264 46 7.93269 bm25
27 Q0 CSIRO145-16374288 47 7.88208 bm25
27 Q0 CSIRO137-10564285 48 7.79169 bm25
27 Q0 CSIRO135-00048011 49 7.78016 bm25
27 Q0 CSIRO062-10173470 50 7.639 bm25
27 Q0 CSIRO062-10142108 51 7.63063 bm25
27 Q0 CSIRO190-11666217 52 7.39488 bm25
27 Q0 CSIRO144-08655837 53 7.2896 bm25
27 Q0 CSIRO143-01774966 54 7.25441 bm25
27 Q0 CSIRO144-08403524 55 7.25441 bm25
27 Q0 CSIRO141-12779222 56 7.18943 bm25
27 Q0 CSIRO142-15268937 57 7.10432 bm25
27 Q0 CSIRO140-06545106 58 7.06264 bm25
27 Q0 CSIRO145-16390885 59 7.04151 bm25
27 Q0 CSIRO145-15907061 60 7.00232 bm25
27 Q0 CSIRO145-16273153 61 6.93863 bm25
27 Q0 CSIRO144-02027618 62 6.80841 bm25
27 Q0 CSIRO062-06973604 63 6.78224 bm25
27 Q0 CSIRO062-09568793 64 6.77783 bm25
27 Q0 CSIRO062-09492733 65 6.77342 bm25
27 Q0 CSIRO062-09428122 66 6.77342 bm25
27 Q0 CSIRO136-05065446 67 6.76832 bm25
27 Q0 CSIRO062-10218597 68 6.72532 bm25
27 Q0 CSIRO135-13102894 69 6.71696 bm25
27 Q0 CSIRO136-09882693 70 6.67828 bm25
27 Q0 CSIRO143-11021514 71 6.66605 bm25
27 Q0 CSIRO143-10377293 72 6.62825 bm25
27 Q0 CSIRO143-15907357 73 6.59501 bm25
27 Q0 CSIRO133-07254621 74 6.5621 bm25
27 Q0 CSIRO146-15660552 75 6.49802 bm25
27 Q0 CSIRO062-10165337 76 6.41473 bm25
27 Q0 CSIRO146-05829188 77 6.35805 bm25
27 Q0 CSIRO131-15117707 78 6.31399 bm25
27 Q0 CSIRO191-15712488 79 6.30471 bm25
27 Q0 CSIRO140-04809150 80 6.29111 bm25
27 Q0 CSIRO132-11155774 81 6.2391 bm25
27 Q0 CSIRO062-09355496 82 6.23001 bm25
27 Q0 CSIRO062-07742505 83 6.23001 bm25
27 Q0 CSIRO262-13136870 84 6.22267 bm25
27 Q0 CSIRO143-10837432 85 6.22216 bm25
27 Q0 CSIRO062-07432144 86 6.16123 bm25
27 Q0 CSIRO062-08855746 87 6.15637 bm25
27 Q0 CSIRO062-09281725 88 6.15637 bm25
27 Q0 CSIRO062-07042879 89 6.15153 bm25
27 Q0 CSIRO062-07112281 90 6.10824 bm25
27 Q0 CSIRO062-07905649 91 6.0892 bm25
27 Q0 CSIRO140-04819971 92 6.08317 bm25
27 Q0 CSIRO143-01583840 93 6.08203 bm25
27 Q0 CSIRO143-01849256 94 6.0726 bm25
27 Q0 CSIRO140-06557804 95 6.07069 bm25
27 Q0 CSIRO136-13297842 96 6.03736 bm25
27 Q0 CSIRO192-02620321 97 6.01202 bm25
27 Q0 CSIRO191-16327758 98 5.98447 bm25
27 Q0 CSIRO143-10475305 99 5.98361 bm25
27 Q0 CSIRO138-04518956 100 5.95454 bm25
27 Q0 CSIRO146-15671550 101 5.93754 bm25
27 Q0 CSIRO137-10751737 102 5.89226 bm25
27 Q0 CSIRO262-14719240 103 5.84329 bm25
27 Q0 CSIRO145-15918003 104 5.79427 bm25
27 Q0 CSIRO142-15170177 105 5.78572 bm25
27 Q0 CSIRO262-15917537 106 5.77419 bm25
27 Q0 CSIRO141-14071126 107 5.75308 bm25
27 Q0 CSIRO140-14484942 108 5.68469 bm25
27 Q0 CSIRO190-15998173 109 5.68282 bm25
27 Q0 CSIRO147-01646585 110 5.62993 bm25
27 Q0 CSIRO191-08934442 111 5.5828 bm25
27 Q0 CSIRO135-14715889 112 5.55624 bm25
27 Q0 CSIRO135-15279689 113 5.52902 bm25
27 Q0 CSIRO141-07399528 114 5.50177 bm25
27 Q0 CSIRO137-12895281 115 5.4979 bm25
27 Q0 CSIRO137-10625909 116 5.48322 bm25
27 Q0 CSIRO131-14835431 117 5.4216 bm25
27 Q0 CSIRO133-07475103 118 5.34807 bm25
27 Q0 CSIRO062-10224260 119 5.33014 bm25
27 Q0 CSIRO062-07368161 120 5.27615 bm25
27 Q0 CSIRO062-07392073 121 5.26548 bm25
27 Q0 CSIRO062-07398243 122 5.26548 bm25
27 Q0 CSIRO062-07306961 123 5.26548 bm25
27 Q0 CSIRO144-12738764 124 5.23233 bm25
27 Q0 CSIRO141-16744114 125 5.21159 bm25
27 Q0 CSIRO143-10187327 126 5.20973 bm25
27 Q0 CSIRO143-15730666 127 5.20973 bm25
27 Q0 CSIRO062-07657090 128 5.18683 bm25
27 Q0 CSIRO062-07241628 129 5.18167 bm25
27 Q0 CSIRO139-11444498 130 5.15541 bm25
27 Q0 CSIRO062-07184665 131 5.12559 bm25
27 Q0 CSIRO137-01643711 132 5.10042 bm25
27 Q0 CSIRO062-07490284 133 5.09052 bm25
27 Q0 CSIRO062-07555329 134 5.09052 bm25
27 Q0 CSIRO141-13316045 135 5.0466 bm25
27 Q0 CSIRO133-04591475 136 4.9505 bm25
27 Q0 CSIRO135-10710225 137 4.84936 bm25
27 Q0 CSIRO100-12136248 138 4.84936 bm25
27 Q0 CSIRO100-13015236 139 4.84936 bm25
27 Q0 CSIRO077-13205240 140 4.84666 bm25
27 Q0 CSIRO262-09001443 141 4.83983 bm25
27 Q0 CSIRO145-00637604 142 4.82886 bm25
27 Q0 CSIRO190-10683717 143 4.8056 bm25
27 Q0 CSIRO077-13175372 144 4.79365 bm25
27 Q0 CSIRO078-04548431 145 4.78929 bm25
27 Q0 CSIRO145-08874438 146 4.77542 bm25
27 Q0 CSIRO062-10256309 147 4.70433 bm25
27 Q0 CSIRO135-05775946 148 4.68688 bm25
27 Q0 CSIRO136-05305764 149 4.66982 bm25
27 Q0 CSIRO142-00195344 150 4.65783 bm25
27 Q0 CSIRO140-14494131 151 4.64139 bm25
27 Q0 CSIRO147-01655582 152 4.61694 bm25
27 Q0 CSIRO141-03230686 153 4.52559 bm25
27 Q0 CSIRO136-07295141 154 4.474 bm25
27 Q0 CSIRO136-10814572 155 4.4359 bm25
27 Q0 CSIRO137-10348354 156 4.43502 bm25
27 Q0 CSIRO146-07037985 157 4.36527 bm25
27 Q0 CSIRO138-02973722 158 4.35796 bm25
27 Q0 CSIRO139-11454025 159 4.26852 bm25
27 Q0 CSIRO062-10232770 160 4.26222 bm25
27 Q0 CSIRO136-05968116 161 4.2382 bm25
27 Q0 CSIRO144-12749453 162 4.23757 bm25
27 Q0 CSIRO145-08886596 163 4.2345 bm25
27 Q0 CSIRO135-11566995 164 4.23076 bm25
27 Q0 CSIRO062-10449184 165 4.21343 bm25
27 Q0 CSIRO136-10797073 166 4.18298 bm25
27 Q0 CSIRO138-03598128 167 4.12991 bm25
27 Q0 CSIRO145-00649073 168 4.03599 bm25
27 Q0 CSIRO100-13388130 169 3.87491 bm25
27 Q0 CSIRO138-06128978 170 3.85483 bm25
27 Q0 CSIRO100-12663825 171 3.80694 bm25
27 Q0 CSIRO100-12315199 172 3.79861 bm25
27 Q0 CSIRO146-01216373 173 3.75087 bm25
27 Q0 CSIRO191-16292683 174 3.6988 bm25
27 Q0 CSIRO141-03129340 175 3.68795 bm25
27 Q0 CSIRO062-10439382 176 3.67155 bm25
27 Q0 CSIRO062-07456087 177 3.64075 bm25
27 Q0 CSIRO062-07426594 178 3.63567 bm25
27 Q0 CSIRO062-07438547 179 3.62051 bm25
27 Q0 CSIRO137-13231622 180 3.60547 bm25
27 Q0 CSIRO137-13371766 181 3.59056 bm25
27 Q0 CSIRO062-07450095 182 3.58069 bm25
27 Q0 CSIRO062-07444112 183 3.58069 bm25
27 Q0 CSIRO062-07420473 184 3.57087 bm25
27 Q0 CSIRO062-07414172 185 3.57087 bm25
27 Q0 CSIRO062-07385435 186 3.5611 bm25
27 Q0 CSIRO062-08043272 187 3.55624 bm25
27 Q0 CSIRO062-07989249 188 3.55624 bm25
27 Q0 CSIRO062-07925169 189 3.55624 bm25
27 Q0 CSIRO062-07864303 190 3.55624 bm25
27 Q0 CSIRO062-07158056 191 3.54655 bm25
27 Q0 CSIRO062-07151616 192 3.53692 bm25
27 Q0 CSIRO116-07024182 193 3.51414 bm25
27 Q0 CSIRO134-04907548 194 3.48745 bm25
27 Q0 CSIRO062-08533687 195 3.45711 bm25
27 Q0 CSIRO062-06916577 196 3.45585 bm25
27 Q0 CSIRO062-08211852 197 3.45252 bm25
27 Q0 CSIRO062-09368035 198 3.45252 bm25
27 Q0 CSIRO143-15479237 199 3.45085 bm25
