1,0.04
0.5,0.04
0.333333,0.04
0.5,0.08
0.6,0.12
0.5,0.12
0.428571,0.12
0.375,0.12
0.444444,0.16
0.5,0.2
0.545455,0.24
0.583333,0.28
0.615385,0.32
0.642857,0.36
0.6,0.36
0.5625,0.36
0.588235,0.4
0.611111,0.44
0.631579,0.48
0.6,0.48
0.571429,0.48
0.545455,0.48
0.565217,0.52
0.541667,0.52
0.52,0.52
