35 Q0 CSIRO137-09269452 1 8.66319 bm25
35 Q0 CSIRO113-00255322 2 7.97311 bm25
35 Q0 CSIRO113-00108147 3 7.0292 bm25
35 Q0 CSIRO141-01433038 4 3.94666 bm25
35 Q0 CSIRO144-12335500 5 3.64288 bm25
35 Q0 CSIRO141-01443007 6 3.24942 bm25
35 Q0 CSIRO140-16234022 7 3.09892 bm25
35 Q0 CSIRO113-00340117 8 2.62696 bm25
35 Q0 CSIRO112-05025993 9 2.56786 bm25
35 Q0 CSIRO111-16597410 10 1.42277 bm25
35 Q0 CSIRO137-08054367 11 0.646027 bm25
