11 Q0 CSIRO189-10363826 1 13.2835 bm25
11 Q0 CSIRO144-10550734 2 11.5389 bm25
11 Q0 CSIRO144-10500305 3 10.7739 bm25
11 Q0 CSIRO139-09702840 4 10.6326 bm25
11 Q0 CSIRO189-10072187 5 10.4178 bm25
11 Q0 CSIRO191-00262093 6 9.75437 bm25
11 Q0 CSIRO192-00268909 7 9.31368 bm25
11 Q0 CSIRO189-10047842 8 9.031 bm25
11 Q0 CSIRO191-13828618 9 8.79567 bm25
11 Q0 CSIRO189-10063607 10 8.45041 bm25
11 Q0 CSIRO190-11437025 11 8.44753 bm25
11 Q0 CSIRO191-12896042 12 8.40517 bm25
11 Q0 CSIRO189-04290069 13 8.15371 bm25
11 Q0 CSIRO189-04305139 14 8.07125 bm25
11 Q0 CSIRO192-01075894 15 8.05543 bm25
11 Q0 CSIRO190-00536852 16 7.93205 bm25
11 Q0 CSIRO136-15647958 17 7.90376 bm25
11 Q0 CSIRO138-04709206 18 7.84119 bm25
11 Q0 CSIRO189-06084249 19 7.81745 bm25
11 Q0 CSIRO265-13737772 20 7.71449 bm25
11 Q0 CSIRO190-14099990 21 7.60031 bm25
11 Q0 CSIRO138-03830834 22 7.55798 bm25
11 Q0 CSIRO189-03639671 23 7.43154 bm25
11 Q0 CSIRO189-03651019 24 7.34891 bm25
11 Q0 CSIRO137-04712771 25 7.2976 bm25
11 Q0 CSIRO188-15506498 26 7.28148 bm25
11 Q0 CSIRO190-00475725 27 7.2473 bm25
11 Q0 CSIRO136-10500499 28 7.23468 bm25
11 Q0 CSIRO188-15521603 29 7.22565 bm25
11 Q0 CSIRO265-12933070 30 7.21492 bm25
11 Q0 CSIRO131-14134806 31 7.19783 bm25
11 Q0 CSIRO265-12853508 32 7.14006 bm25
11 Q0 CSIRO190-01476362 33 7.10947 bm25
11 Q0 CSIRO136-07905366 34 7.00186 bm25
11 Q0 CSIRO191-00317439 35 6.99092 bm25
11 Q0 CSIRO135-11900342 36 6.97984 bm25
11 Q0 CSIRO189-02712883 37 6.95796 bm25
11 Q0 CSIRO188-02606328 38 6.93796 bm25
11 Q0 CSIRO138-02640289 39 6.90609 bm25
11 Q0 CSIRO188-14254976 40 6.89699 bm25
11 Q0 CSIRO189-02730782 41 6.88549 bm25
11 Q0 CSIRO191-01788458 42 6.87617 bm25
11 Q0 CSIRO188-14273250 43 6.83966 bm25
11 Q0 CSIRO064-16691351 44 6.77046 bm25
11 Q0 CSIRO136-14487337 45 6.75213 bm25
11 Q0 CSIRO065-00037632 46 6.71742 bm25
11 Q0 CSIRO138-04409559 47 6.637 bm25
11 Q0 CSIRO131-14120311 48 6.59159 bm25
11 Q0 CSIRO191-03672422 49 6.56426 bm25
11 Q0 CSIRO137-05014858 50 6.56375 bm25
11 Q0 CSIRO188-14219292 51 6.55291 bm25
11 Q0 CSIRO174-11682154 52 6.54604 bm25
11 Q0 CSIRO188-04985971 53 6.50952 bm25
11 Q0 CSIRO188-14231268 54 6.50794 bm25
11 Q0 CSIRO064-15870817 55 6.49869 bm25
11 Q0 CSIRO192-00524025 56 6.47569 bm25
11 Q0 CSIRO173-08943435 57 6.46694 bm25
11 Q0 CSIRO188-04996445 58 6.46261 bm25
11 Q0 CSIRO140-08431958 59 6.45047 bm25
11 Q0 CSIRO188-07386560 60 6.3945 bm25
11 Q0 CSIRO131-14265778 61 6.38947 bm25
11 Q0 CSIRO188-02738718 62 6.38938 bm25
11 Q0 CSIRO137-13906499 63 6.33591 bm25
11 Q0 CSIRO188-07403459 64 6.32191 bm25
11 Q0 CSIRO136-12963656 65 6.32168 bm25
11 Q0 CSIRO174-00863032 66 6.32001 bm25
11 Q0 CSIRO188-06384510 67 6.3056 bm25
11 Q0 CSIRO136-11147246 68 6.30464 bm25
11 Q0 CSIRO188-06395807 69 6.255 bm25
11 Q0 CSIRO138-03801208 70 6.25377 bm25
11 Q0 CSIRO138-02016458 71 6.22027 bm25
11 Q0 CSIRO188-05120141 72 6.19144 bm25
11 Q0 CSIRO136-13126624 73 6.18881 bm25
11 Q0 CSIRO126-03544724 74 6.18545 bm25
11 Q0 CSIRO189-06099143 75 6.18411 bm25
11 Q0 CSIRO191-15375369 76 6.18158 bm25
11 Q0 CSIRO188-05129912 77 6.13963 bm25
11 Q0 CSIRO173-05868131 78 6.12135 bm25
11 Q0 CSIRO140-02765694 79 6.11813 bm25
11 Q0 CSIRO173-16002278 80 6.10535 bm25
11 Q0 CSIRO191-02289789 81 6.09829 bm25
11 Q0 CSIRO064-16300205 82 6.08596 bm25
11 Q0 CSIRO138-11714134 83 6.08577 bm25
11 Q0 CSIRO139-08249181 84 6.07372 bm25
11 Q0 CSIRO064-16748111 85 6.07328 bm25
11 Q0 CSIRO138-03611465 86 6.05082 bm25
11 Q0 CSIRO138-04923450 87 6.00792 bm25
11 Q0 CSIRO265-13832808 88 6.00434 bm25
11 Q0 CSIRO190-12301066 89 5.98222 bm25
11 Q0 CSIRO173-05745472 90 5.97677 bm25
11 Q0 CSIRO131-14458688 91 5.97665 bm25
11 Q0 CSIRO192-03345416 92 5.97381 bm25
11 Q0 CSIRO173-05785939 93 5.95425 bm25
11 Q0 CSIRO190-00788776 94 5.93726 bm25
11 Q0 CSIRO189-10823696 95 5.93548 bm25
11 Q0 CSIRO191-03140215 96 5.91711 bm25
11 Q0 CSIRO064-12838842 97 5.87884 bm25
11 Q0 CSIRO126-10363622 98 5.84236 bm25
11 Q0 CSIRO192-01555635 99 5.83802 bm25
11 Q0 CSIRO188-07022639 100 5.81054 bm25
11 Q0 CSIRO064-16177810 101 5.80584 bm25
11 Q0 CSIRO188-12304189 102 5.77366 bm25
11 Q0 CSIRO082-14830976 103 5.73359 bm25
11 Q0 CSIRO188-07032218 104 5.71837 bm25
11 Q0 CSIRO137-13410900 105 5.71147 bm25
11 Q0 CSIRO188-12315704 106 5.70302 bm25
11 Q0 CSIRO140-01915407 107 5.68305 bm25
11 Q0 CSIRO174-04156345 108 5.67874 bm25
11 Q0 CSIRO136-10929160 109 5.66228 bm25
11 Q0 CSIRO188-05387987 110 5.64696 bm25
11 Q0 CSIRO064-15526785 111 5.64608 bm25
11 Q0 CSIRO138-11087438 112 5.64203 bm25
11 Q0 CSIRO189-14724344 113 5.63167 bm25
11 Q0 CSIRO191-14701970 114 5.62226 bm25
11 Q0 CSIRO188-09609773 115 5.62226 bm25
11 Q0 CSIRO064-15310837 116 5.59633 bm25
11 Q0 CSIRO188-05398413 117 5.59123 bm25
11 Q0 CSIRO131-15168355 118 5.58679 bm25
11 Q0 CSIRO064-16076358 119 5.5855 bm25
11 Q0 CSIRO188-09622221 120 5.57796 bm25
11 Q0 CSIRO138-02128946 121 5.57686 bm25
11 Q0 CSIRO140-08443486 122 5.56922 bm25
11 Q0 CSIRO137-12532427 123 5.54939 bm25
11 Q0 CSIRO188-08246818 124 5.5479 bm25
11 Q0 CSIRO129-14789683 125 5.52967 bm25
11 Q0 CSIRO064-16349536 126 5.52282 bm25
11 Q0 CSIRO188-08261232 127 5.50677 bm25
11 Q0 CSIRO138-05061946 128 5.5042 bm25
11 Q0 CSIRO173-03652337 129 5.50217 bm25
11 Q0 CSIRO190-00597025 130 5.48535 bm25
11 Q0 CSIRO064-16331916 131 5.48268 bm25
11 Q0 CSIRO141-01542194 132 5.46898 bm25
11 Q0 CSIRO190-01029328 133 5.45726 bm25
11 Q0 CSIRO188-05087082 134 5.45676 bm25
11 Q0 CSIRO189-03744187 135 5.42442 bm25
11 Q0 CSIRO138-03605410 136 5.42049 bm25
11 Q0 CSIRO139-15100482 137 5.40962 bm25
11 Q0 CSIRO174-06553642 138 5.40642 bm25
11 Q0 CSIRO188-05097114 139 5.40483 bm25
11 Q0 CSIRO127-05487889 140 5.39415 bm25
11 Q0 CSIRO173-12834774 141 5.38524 bm25
11 Q0 CSIRO065-00000000 142 5.37601 bm25
11 Q0 CSIRO092-05219746 143 5.37566 bm25
11 Q0 CSIRO092-12927833 144 5.3728 bm25
11 Q0 CSIRO138-07663304 145 5.371 bm25
11 Q0 CSIRO139-15108461 146 5.36799 bm25
11 Q0 CSIRO064-15724922 147 5.35188 bm25
11 Q0 CSIRO139-08257279 148 5.34579 bm25
11 Q0 CSIRO190-11274269 149 5.3414 bm25
11 Q0 CSIRO112-14527436 150 5.3381 bm25
11 Q0 CSIRO189-03754173 151 5.3379 bm25
11 Q0 CSIRO189-12003805 152 5.32279 bm25
11 Q0 CSIRO173-05885227 153 5.32126 bm25
11 Q0 CSIRO138-11655457 154 5.31703 bm25
11 Q0 CSIRO065-00089144 155 5.31514 bm25
11 Q0 CSIRO170-15912563 156 5.31473 bm25
11 Q0 CSIRO173-05654318 157 5.30657 bm25
11 Q0 CSIRO138-03617402 158 5.26852 bm25
11 Q0 CSIRO190-03128299 159 5.25957 bm25
11 Q0 CSIRO138-10338906 160 5.21249 bm25
11 Q0 CSIRO063-15988524 161 5.20563 bm25
11 Q0 CSIRO065-00021714 162 5.20117 bm25
11 Q0 CSIRO136-13227625 163 5.19666 bm25
11 Q0 CSIRO148-00614923 164 5.19161 bm25
11 Q0 CSIRO191-04130475 165 5.18675 bm25
11 Q0 CSIRO136-12282051 166 5.1814 bm25
11 Q0 CSIRO138-05023631 167 5.17823 bm25
11 Q0 CSIRO137-00109251 168 5.1722 bm25
11 Q0 CSIRO138-03623817 169 5.17056 bm25
11 Q0 CSIRO136-12502345 170 5.16149 bm25
11 Q0 CSIRO265-13908182 171 5.13938 bm25
11 Q0 CSIRO188-14118380 172 5.13642 bm25
11 Q0 CSIRO138-02028637 173 5.12565 bm25
11 Q0 CSIRO190-01429890 174 5.1213 bm25
11 Q0 CSIRO126-03663955 175 5.12072 bm25
11 Q0 CSIRO189-00263610 176 5.11179 bm25
11 Q0 CSIRO137-05924270 177 5.10542 bm25
11 Q0 CSIRO136-13802263 178 5.09788 bm25
11 Q0 CSIRO136-10624305 179 5.09607 bm25
11 Q0 CSIRO188-14131431 180 5.09053 bm25
11 Q0 CSIRO137-13677406 181 5.08971 bm25
11 Q0 CSIRO138-10994861 182 5.08505 bm25
11 Q0 CSIRO265-13033253 183 5.08361 bm25
11 Q0 CSIRO138-02623256 184 5.06777 bm25
11 Q0 CSIRO078-14596720 185 5.06162 bm25
11 Q0 CSIRO206-01922406 186 5.05815 bm25
11 Q0 CSIRO140-00497662 187 5.05755 bm25
11 Q0 CSIRO189-00273885 188 5.05607 bm25
11 Q0 CSIRO069-03249312 189 5.05467 bm25
11 Q0 CSIRO207-06692394 190 5.05467 bm25
11 Q0 CSIRO137-11945049 191 5.05447 bm25
11 Q0 CSIRO138-11849752 192 5.05432 bm25
11 Q0 CSIRO137-09054186 193 5.03835 bm25
11 Q0 CSIRO265-13886523 194 5.02242 bm25
11 Q0 CSIRO170-15357192 195 5.01831 bm25
11 Q0 CSIRO265-14240289 196 5.01421 bm25
11 Q0 CSIRO141-07897607 197 5.01311 bm25
11 Q0 CSIRO144-16396968 198 5.01191 bm25
11 Q0 CSIRO197-12605177 199 5.00536 bm25
