7 Q0 CSIRO145-04767447 1 2.07693 adaRank_A
7 Q0 CSIRO145-04755872 2 1.9217 adaRank_A
7 Q0 CSIRO140-14710325 3 1.84407 adaRank_A
7 Q0 CSIRO112-14413479 4 1.84125 adaRank_A
7 Q0 CSIRO265-14667001 5 1.77819 adaRank_A
7 Q0 CSIRO140-14699594 6 1.72808 adaRank_A
7 Q0 CSIRO138-15933953 7 1.64641 adaRank_A
7 Q0 CSIRO136-06425377 8 1.50061 adaRank_A
7 Q0 CSIRO135-12129360 9 1.46642 adaRank_A
7 Q0 CSIRO138-00324936 10 1.44339 adaRank_A
7 Q0 CSIRO112-02825901 11 1.42378 adaRank_A
7 Q0 CSIRO136-07094003 12 1.41969 adaRank_A
7 Q0 CSIRO266-04184084 13 1.41005 adaRank_A
7 Q0 CSIRO138-16031141 14 1.38693 adaRank_A
7 Q0 CSIRO116-12006206 15 1.37523 adaRank_A
7 Q0 CSIRO135-09430735 16 1.37298 adaRank_A
7 Q0 CSIRO138-00000000 17 1.36074 adaRank_A
7 Q0 CSIRO132-11952760 18 1.34061 adaRank_A
7 Q0 CSIRO135-09089936 19 1.31287 adaRank_A
7 Q0 CSIRO143-06222087 20 1.2828 adaRank_A
7 Q0 CSIRO143-08253479 21 1.28236 adaRank_A
7 Q0 CSIRO143-06326150 22 1.28152 adaRank_A
7 Q0 CSIRO132-11895269 23 1.27758 adaRank_A
7 Q0 CSIRO133-04881416 24 1.26374 adaRank_A
7 Q0 CSIRO173-13285955 25 1.25291 adaRank_A
7 Q0 CSIRO139-12218544 26 1.24577 adaRank_A
7 Q0 CSIRO265-07995298 27 1.23919 adaRank_A
7 Q0 CSIRO131-16185860 28 1.2309 adaRank_A
7 Q0 CSIRO173-13419999 29 1.17124 adaRank_A
7 Q0 CSIRO136-00770129 30 1.17102 adaRank_A
7 Q0 CSIRO137-03152831 31 1.17059 adaRank_A
7 Q0 CSIRO173-09395701 32 1.16829 adaRank_A
7 Q0 CSIRO136-00274327 33 1.16674 adaRank_A
7 Q0 CSIRO138-00368059 34 1.15336 adaRank_A
7 Q0 CSIRO132-15320355 35 1.13484 adaRank_A
7 Q0 CSIRO135-08674632 36 1.13343 adaRank_A
7 Q0 CSIRO139-12206051 37 1.12526 adaRank_A
7 Q0 CSIRO135-12559229 38 1.11478 adaRank_A
7 Q0 CSIRO112-16590613 39 1.10495 adaRank_A
7 Q0 CSIRO133-04941278 40 1.09842 adaRank_A
7 Q0 CSIRO145-06856110 41 1.07643 adaRank_A
7 Q0 CSIRO132-14596615 42 1.07101 adaRank_A
7 Q0 CSIRO148-04110586 43 1.05999 adaRank_A
7 Q0 CSIRO148-03957246 44 1.05999 adaRank_A
7 Q0 CSIRO173-13301001 45 1.05658 adaRank_A
7 Q0 CSIRO133-10342198 46 1.04207 adaRank_A
7 Q0 CSIRO138-00023148 47 1.03383 adaRank_A
7 Q0 CSIRO063-09922950 48 1.0156 adaRank_A
7 Q0 CSIRO120-02139268 49 1.00579 adaRank_A
7 Q0 CSIRO144-16031155 50 1.0022 adaRank_A
7 Q0 CSIRO119-13074327 51 0.982342 adaRank_A
7 Q0 CSIRO190-06229998 52 0.980191 adaRank_A
7 Q0 CSIRO132-14854295 53 0.977891 adaRank_A
7 Q0 CSIRO145-16135941 54 0.976658 adaRank_A
7 Q0 CSIRO140-02861362 55 0.976145 adaRank_A
7 Q0 CSIRO132-15390036 56 0.972429 adaRank_A
7 Q0 CSIRO173-14608025 57 0.971967 adaRank_A
7 Q0 CSIRO174-04478898 58 0.971967 adaRank_A
7 Q0 CSIRO186-16593642 59 0.970983 adaRank_A
7 Q0 CSIRO129-15692205 60 0.967376 adaRank_A
7 Q0 CSIRO265-07001451 61 0.966698 adaRank_A
7 Q0 CSIRO119-06250149 62 0.961096 adaRank_A
7 Q0 CSIRO135-11962203 63 0.957784 adaRank_A
7 Q0 CSIRO135-01377416 64 0.95704 adaRank_A
7 Q0 CSIRO265-05942094 65 0.950684 adaRank_A
7 Q0 CSIRO265-06850347 66 0.945822 adaRank_A
7 Q0 CSIRO265-06591096 67 0.945822 adaRank_A
7 Q0 CSIRO189-10072187 68 0.944969 adaRank_A
7 Q0 CSIRO143-04938426 69 0.943499 adaRank_A
7 Q0 CSIRO141-05420421 70 0.943304 adaRank_A
7 Q0 CSIRO145-12663639 71 0.937134 adaRank_A
7 Q0 CSIRO145-05186172 72 0.934199 adaRank_A
7 Q0 CSIRO265-06720575 73 0.93208 adaRank_A
7 Q0 CSIRO129-15777022 74 0.924533 adaRank_A
7 Q0 CSIRO146-16539203 75 0.920426 adaRank_A
7 Q0 CSIRO140-15001822 76 0.919756 adaRank_A
7 Q0 CSIRO129-11692497 77 0.918272 adaRank_A
7 Q0 CSIRO173-13411289 78 0.913365 adaRank_A
7 Q0 CSIRO100-11290692 79 0.908752 adaRank_A
7 Q0 CSIRO140-04539147 80 0.907592 adaRank_A
7 Q0 CSIRO119-14327112 81 0.902821 adaRank_A
7 Q0 CSIRO129-11481463 82 0.902818 adaRank_A
7 Q0 CSIRO125-05125725 83 0.902696 adaRank_A
7 Q0 CSIRO146-12743315 84 0.901127 adaRank_A
7 Q0 CSIRO139-14644628 85 0.892833 adaRank_A
7 Q0 CSIRO062-16403623 86 0.892298 adaRank_A
7 Q0 CSIRO173-04157429 87 0.892028 adaRank_A
7 Q0 CSIRO147-03954897 88 0.89018 adaRank_A
7 Q0 CSIRO119-13048487 89 0.885727 adaRank_A
7 Q0 CSIRO173-09186457 90 0.882935 adaRank_A
7 Q0 CSIRO147-05343118 91 0.881239 adaRank_A
7 Q0 CSIRO138-16051510 92 0.880351 adaRank_A
7 Q0 CSIRO143-05000504 93 0.879167 adaRank_A
7 Q0 CSIRO265-13440477 94 0.874066 adaRank_A
7 Q0 CSIRO140-14964739 95 0.870188 adaRank_A
7 Q0 CSIRO127-06508087 96 0.868907 adaRank_A
7 Q0 CSIRO144-13309868 97 0.868535 adaRank_A
7 Q0 CSIRO173-13329840 98 0.865115 adaRank_A
7 Q0 CSIRO145-12654089 99 0.861203 adaRank_A
7 Q0 CSIRO141-01749044 100 0.85879 adaRank_A
7 Q0 CSIRO132-01583924 101 0.857067 adaRank_A
7 Q0 CSIRO146-16756368 102 0.851472 adaRank_A
7 Q0 CSIRO173-05342509 103 0.850881 adaRank_A
7 Q0 CSIRO129-02670231 104 0.849043 adaRank_A
7 Q0 CSIRO080-09230100 105 0.847816 adaRank_A
7 Q0 CSIRO138-11929259 106 0.846982 adaRank_A
7 Q0 CSIRO189-10823696 107 0.840537 adaRank_A
7 Q0 CSIRO134-13421514 108 0.83723 adaRank_A
7 Q0 CSIRO173-08128273 109 0.836713 adaRank_A
7 Q0 CSIRO141-09933942 110 0.835646 adaRank_A
7 Q0 CSIRO129-02527880 111 0.83311 adaRank_A
7 Q0 CSIRO265-06458524 112 0.830402 adaRank_A
7 Q0 CSIRO265-06816407 113 0.830402 adaRank_A
7 Q0 CSIRO145-05173880 114 0.830193 adaRank_A
7 Q0 CSIRO134-14717222 115 0.828895 adaRank_A
7 Q0 CSIRO133-10515246 116 0.827909 adaRank_A
7 Q0 CSIRO145-11725455 117 0.825623 adaRank_A
7 Q0 CSIRO145-04840316 118 0.824984 adaRank_A
7 Q0 CSIRO145-05534443 119 0.821833 adaRank_A
7 Q0 CSIRO136-14528850 120 0.819994 adaRank_A
7 Q0 CSIRO063-10263890 121 0.819454 adaRank_A
7 Q0 CSIRO142-05673211 122 0.818879 adaRank_A
7 Q0 CSIRO119-06796045 123 0.818335 adaRank_A
7 Q0 CSIRO140-14852036 124 0.816461 adaRank_A
7 Q0 CSIRO128-16610181 125 0.815661 adaRank_A
7 Q0 CSIRO265-13483765 126 0.813228 adaRank_A
7 Q0 CSIRO136-05449318 127 0.812262 adaRank_A
7 Q0 CSIRO138-00045920 128 0.810495 adaRank_A
7 Q0 CSIRO145-07664557 129 0.808704 adaRank_A
7 Q0 CSIRO141-05017988 130 0.806558 adaRank_A
7 Q0 CSIRO140-16591476 131 0.80624 adaRank_A
7 Q0 CSIRO173-06437291 132 0.804562 adaRank_A
7 Q0 CSIRO100-10705362 133 0.80382 adaRank_A
7 Q0 CSIRO116-00283272 134 0.802544 adaRank_A
7 Q0 CSIRO134-13986217 135 0.801241 adaRank_A
7 Q0 CSIRO145-12555733 136 0.799589 adaRank_A
7 Q0 CSIRO173-03270094 137 0.797473 adaRank_A
7 Q0 CSIRO173-05971705 138 0.797464 adaRank_A
7 Q0 CSIRO119-14230498 139 0.797387 adaRank_A
7 Q0 CSIRO144-16021163 140 0.797343 adaRank_A
7 Q0 CSIRO139-10500291 141 0.797152 adaRank_A
7 Q0 CSIRO139-04751648 142 0.796811 adaRank_A
7 Q0 CSIRO079-14748894 143 0.796187 adaRank_A
7 Q0 CSIRO142-05386737 144 0.794665 adaRank_A
7 Q0 CSIRO145-07703616 145 0.794161 adaRank_A
7 Q0 CSIRO139-00126054 146 0.793826 adaRank_A
7 Q0 CSIRO139-06205389 147 0.793453 adaRank_A
7 Q0 CSIRO134-15844229 148 0.790504 adaRank_A
7 Q0 CSIRO132-11919193 149 0.788666 adaRank_A
7 Q0 CSIRO127-06664462 150 0.786241 adaRank_A
7 Q0 CSIRO146-13188187 151 0.785289 adaRank_A
7 Q0 CSIRO146-13992390 152 0.785268 adaRank_A
7 Q0 CSIRO136-05968116 153 0.782983 adaRank_A
7 Q0 CSIRO140-14990504 154 0.779877 adaRank_A
7 Q0 CSIRO265-06145224 155 0.77726 adaRank_A
7 Q0 CSIRO140-12087084 156 0.776386 adaRank_A
7 Q0 CSIRO265-04646967 157 0.775292 adaRank_A
7 Q0 CSIRO119-12990633 158 0.774694 adaRank_A
7 Q0 CSIRO145-07166283 159 0.774574 adaRank_A
7 Q0 CSIRO173-13388894 160 0.773995 adaRank_A
7 Q0 CSIRO133-04907302 161 0.773693 adaRank_A
7 Q0 CSIRO138-11981182 162 0.772758 adaRank_A
7 Q0 CSIRO144-11601334 163 0.771707 adaRank_A
7 Q0 CSIRO134-11855437 164 0.77051 adaRank_A
7 Q0 CSIRO132-15255187 165 0.770352 adaRank_A
7 Q0 CSIRO265-08242356 166 0.768225 adaRank_A
7 Q0 CSIRO173-07310968 167 0.767875 adaRank_A
7 Q0 CSIRO140-07859780 168 0.765775 adaRank_A
7 Q0 CSIRO139-09702840 169 0.764873 adaRank_A
7 Q0 CSIRO144-10500305 170 0.76473 adaRank_A
7 Q0 CSIRO142-04289334 171 0.763111 adaRank_A
7 Q0 CSIRO130-08278681 172 0.762278 adaRank_A
7 Q0 CSIRO146-16528814 173 0.761659 adaRank_A
7 Q0 CSIRO113-05349689 174 0.761394 adaRank_A
7 Q0 CSIRO138-15720698 175 0.758467 adaRank_A
7 Q0 CSIRO132-01480712 176 0.757316 adaRank_A
7 Q0 CSIRO173-06610015 177 0.757289 adaRank_A
7 Q0 CSIRO258-09475008 178 0.754499 adaRank_A
7 Q0 CSIRO145-16125750 179 0.749361 adaRank_A
7 Q0 CSIRO187-05315999 180 0.748994 adaRank_A
7 Q0 CSIRO138-12015798 181 0.747577 adaRank_A
7 Q0 CSIRO146-13375551 182 0.745636 adaRank_A
7 Q0 CSIRO119-08798171 183 0.741121 adaRank_A
7 Q0 CSIRO142-11890512 184 0.740586 adaRank_A
7 Q0 CSIRO140-04892417 185 0.739877 adaRank_A
7 Q0 CSIRO189-13779527 186 0.739492 adaRank_A
7 Q0 CSIRO134-13871483 187 0.73812 adaRank_A
7 Q0 CSIRO147-08889550 188 0.73769 adaRank_A
7 Q0 CSIRO144-11639940 189 0.737406 adaRank_A
7 Q0 CSIRO144-09668492 190 0.736197 adaRank_A
7 Q0 CSIRO134-13929113 191 0.734691 adaRank_A
7 Q0 CSIRO145-04117894 192 0.734395 adaRank_A
7 Q0 CSIRO136-05335583 193 0.734002 adaRank_A
7 Q0 CSIRO132-01388179 194 0.733612 adaRank_A
7 Q0 CSIRO173-08204808 195 0.732998 adaRank_A
7 Q0 CSIRO129-12390162 196 0.732325 adaRank_A
7 Q0 CSIRO130-07587334 197 0.731296 adaRank_A
7 Q0 CSIRO138-00516887 198 0.727644 adaRank_A
7 Q0 CSIRO133-15199996 199 0.727421 adaRank_A
