6 Q0 CSIRO111-14825577 1 9.67894 adaRank_only_A
6 Q0 CSIRO135-09430735 2 9.64868 adaRank_only_A
6 Q0 CSIRO130-11999758 3 9.62606 adaRank_only_A
6 Q0 CSIRO111-16495148 4 9.59128 adaRank_only_A
6 Q0 CSIRO117-05295452 5 9.54387 adaRank_only_A
6 Q0 CSIRO112-00807120 6 9.50585 adaRank_only_A
6 Q0 CSIRO130-02485072 7 9.27028 adaRank_only_A
6 Q0 CSIRO130-02259381 8 9.27028 adaRank_only_A
6 Q0 CSIRO112-01327399 9 9.03713 adaRank_only_A
6 Q0 CSIRO112-00258706 10 8.99811 adaRank_only_A
6 Q0 CSIRO062-16755924 11 8.96254 adaRank_only_A
6 Q0 CSIRO119-00534482 12 8.8645 adaRank_only_A
6 Q0 CSIRO112-02374753 13 8.82332 adaRank_only_A
6 Q0 CSIRO131-00000000 14 8.81068 adaRank_only_A
6 Q0 CSIRO112-00892236 15 8.77629 adaRank_only_A
6 Q0 CSIRO130-01793508 16 8.76123 adaRank_only_A
6 Q0 CSIRO130-02015565 17 8.76123 adaRank_only_A
6 Q0 CSIRO112-01531358 18 8.70297 adaRank_only_A
6 Q0 CSIRO112-02174734 19 8.60972 adaRank_only_A
6 Q0 CSIRO112-01427811 20 8.58059 adaRank_only_A
6 Q0 CSIRO131-06396329 21 8.54845 adaRank_only_A
6 Q0 CSIRO111-15384287 22 8.51695 adaRank_only_A
6 Q0 CSIRO111-15518149 23 8.43968 adaRank_only_A
6 Q0 CSIRO130-02938345 24 8.40933 adaRank_only_A
6 Q0 CSIRO130-03009240 25 8.40933 adaRank_only_A
6 Q0 CSIRO115-06578087 26 8.31508 adaRank_only_A
6 Q0 CSIRO115-09234311 27 8.31508 adaRank_only_A
6 Q0 CSIRO062-16572390 28 8.31137 adaRank_only_A
6 Q0 CSIRO130-03084429 29 8.30017 adaRank_only_A
6 Q0 CSIRO130-03165138 30 8.30017 adaRank_only_A
6 Q0 CSIRO111-16682620 31 8.2917 adaRank_only_A
6 Q0 CSIRO116-02875559 32 8.29075 adaRank_only_A
6 Q0 CSIRO112-01239167 33 8.27456 adaRank_only_A
6 Q0 CSIRO112-00344023 34 8.25717 adaRank_only_A
6 Q0 CSIRO130-03973626 35 8.24936 adaRank_only_A
6 Q0 CSIRO112-01974666 36 8.20441 adaRank_only_A
6 Q0 CSIRO130-05618467 37 8.18179 adaRank_only_A
6 Q0 CSIRO190-06518960 38 8.13734 adaRank_only_A
6 Q0 CSIRO113-05349689 39 8.13518 adaRank_only_A
6 Q0 CSIRO112-12309715 40 8.11557 adaRank_only_A
6 Q0 CSIRO112-01613308 41 8.08212 adaRank_only_A
6 Q0 CSIRO131-06500693 42 8.07075 adaRank_only_A
6 Q0 CSIRO112-02075006 43 8.02889 adaRank_only_A
6 Q0 CSIRO112-02275638 44 8.01579 adaRank_only_A
6 Q0 CSIRO112-00000000 45 8.0122 adaRank_only_A
6 Q0 CSIRO111-15717287 46 7.98792 adaRank_only_A
6 Q0 CSIRO116-10324076 47 7.94036 adaRank_only_A
6 Q0 CSIRO112-00432459 48 7.9093 adaRank_only_A
6 Q0 CSIRO130-16165309 49 7.88141 adaRank_only_A
6 Q0 CSIRO136-01008739 50 7.88141 adaRank_only_A
6 Q0 CSIRO130-02746432 51 7.87197 adaRank_only_A
6 Q0 CSIRO130-02839540 52 7.87197 adaRank_only_A
6 Q0 CSIRO111-16597410 53 7.85285 adaRank_only_A
6 Q0 CSIRO130-15939421 54 7.7612 adaRank_only_A
6 Q0 CSIRO079-08865243 55 7.75822 adaRank_only_A
6 Q0 CSIRO078-03818428 56 7.75822 adaRank_only_A
6 Q0 CSIRO197-02129838 57 7.75373 adaRank_only_A
6 Q0 CSIRO130-04730245 58 7.74016 adaRank_only_A
6 Q0 CSIRO130-10332504 59 7.74016 adaRank_only_A
6 Q0 CSIRO130-08278681 60 7.69373 adaRank_only_A
6 Q0 CSIRO112-00985704 61 7.67303 adaRank_only_A
6 Q0 CSIRO130-04347320 62 7.66497 adaRank_only_A
6 Q0 CSIRO112-01146034 63 7.64867 adaRank_only_A
6 Q0 CSIRO111-15201134 64 7.63879 adaRank_only_A
6 Q0 CSIRO117-08224690 65 7.63547 adaRank_only_A
6 Q0 CSIRO111-16414166 66 7.59838 adaRank_only_A
6 Q0 CSIRO112-00717629 67 7.58978 adaRank_only_A
6 Q0 CSIRO120-03379033 68 7.58978 adaRank_only_A
6 Q0 CSIRO180-15517031 69 7.57589 adaRank_only_A
6 Q0 CSIRO111-15993576 70 7.52775 adaRank_only_A
6 Q0 CSIRO135-08674632 71 7.52044 adaRank_only_A
6 Q0 CSIRO112-02592360 72 7.49825 adaRank_only_A
6 Q0 CSIRO063-00140933 73 7.49825 adaRank_only_A
6 Q0 CSIRO112-00166516 74 7.44281 adaRank_only_A
6 Q0 CSIRO172-02986196 75 7.44085 adaRank_only_A
6 Q0 CSIRO135-11091369 76 7.41907 adaRank_only_A
6 Q0 CSIRO125-01113285 77 7.41907 adaRank_only_A
6 Q0 CSIRO063-00194479 78 7.405 adaRank_only_A
6 Q0 CSIRO131-16185860 79 7.39688 adaRank_only_A
6 Q0 CSIRO131-05668430 80 7.36173 adaRank_only_A
6 Q0 CSIRO115-16611679 81 7.35542 adaRank_only_A
6 Q0 CSIRO111-14934000 82 7.34268 adaRank_only_A
6 Q0 CSIRO130-15343113 83 7.34268 adaRank_only_A
6 Q0 CSIRO112-00083351 84 7.26778 adaRank_only_A
6 Q0 CSIRO135-09089936 85 7.25405 adaRank_only_A
6 Q0 CSIRO111-15078378 86 7.24943 adaRank_only_A
6 Q0 CSIRO111-14681561 87 7.24943 adaRank_only_A
6 Q0 CSIRO130-15813709 88 7.24943 adaRank_only_A
6 Q0 CSIRO112-01699180 89 7.24015 adaRank_only_A
6 Q0 CSIRO112-02488961 90 7.24015 adaRank_only_A
6 Q0 CSIRO111-15452511 91 7.17301 adaRank_only_A
6 Q0 CSIRO136-00203201 92 7.1631 adaRank_only_A
6 Q0 CSIRO125-01295638 93 7.1631 adaRank_only_A
6 Q0 CSIRO112-01799902 94 7.1556 adaRank_only_A
6 Q0 CSIRO125-01541695 95 7.13283 adaRank_only_A
6 Q0 CSIRO130-14890055 96 7.13028 adaRank_only_A
6 Q0 CSIRO117-04218598 97 7.09651 adaRank_only_A
6 Q0 CSIRO189-08716252 98 7.09122 adaRank_only_A
6 Q0 CSIRO129-16545538 99 7.06984 adaRank_only_A
6 Q0 CSIRO116-10828670 100 7.03702 adaRank_only_A
6 Q0 CSIRO117-03270177 101 7.03702 adaRank_only_A
6 Q0 CSIRO130-03250448 102 7.02588 adaRank_only_A
6 Q0 CSIRO130-03319040 103 7.02588 adaRank_only_A
6 Q0 CSIRO136-05449318 104 7.02588 adaRank_only_A
6 Q0 CSIRO136-05968116 105 7.02588 adaRank_only_A
6 Q0 CSIRO111-15139312 106 7.02026 adaRank_only_A
6 Q0 CSIRO062-13043554 107 7.02026 adaRank_only_A
6 Q0 CSIRO147-04494312 108 6.99753 adaRank_only_A
6 Q0 CSIRO063-00000000 109 6.99466 adaRank_only_A
6 Q0 CSIRO119-00592244 110 6.96847 adaRank_only_A
6 Q0 CSIRO171-02228403 111 6.91119 adaRank_only_A
6 Q0 CSIRO112-04970135 112 6.87669 adaRank_only_A
6 Q0 CSIRO130-03533634 113 6.87031 adaRank_only_A
6 Q0 CSIRO116-00991145 114 6.83125 adaRank_only_A
6 Q0 CSIRO112-10342838 115 6.82794 adaRank_only_A
6 Q0 CSIRO254-13486152 116 6.82462 adaRank_only_A
6 Q0 CSIRO112-01901327 117 6.80785 adaRank_only_A
6 Q0 CSIRO130-04428171 118 6.79768 adaRank_only_A
6 Q0 CSIRO111-16160821 119 6.79768 adaRank_only_A
6 Q0 CSIRO130-13327668 120 6.79427 adaRank_only_A
6 Q0 CSIRO131-03153354 121 6.77706 adaRank_only_A
6 Q0 CSIRO119-16527081 122 6.73828 adaRank_only_A
6 Q0 CSIRO130-11635126 123 6.73469 adaRank_only_A
6 Q0 CSIRO130-11059477 124 6.72022 adaRank_only_A
6 Q0 CSIRO116-01234682 125 6.69072 adaRank_only_A
6 Q0 CSIRO112-00649681 126 6.67569 adaRank_only_A
6 Q0 CSIRO127-06326259 127 6.6681 adaRank_only_A
6 Q0 CSIRO130-04637039 128 6.6681 adaRank_only_A
6 Q0 CSIRO113-02337169 129 6.6681 adaRank_only_A
6 Q0 CSIRO116-01694148 130 6.66046 adaRank_only_A
6 Q0 CSIRO116-11860713 131 6.59747 adaRank_only_A
6 Q0 CSIRO111-16324774 132 6.59747 adaRank_only_A
6 Q0 CSIRO081-05041192 133 6.58527 adaRank_only_A
6 Q0 CSIRO254-13749709 134 6.56465 adaRank_only_A
6 Q0 CSIRO130-07040949 135 6.56465 adaRank_only_A
6 Q0 CSIRO130-14105075 136 6.56465 adaRank_only_A
6 Q0 CSIRO117-07131482 137 6.56048 adaRank_only_A
6 Q0 CSIRO116-14126667 138 6.54366 adaRank_only_A
6 Q0 CSIRO062-13842407 139 6.53088 adaRank_only_A
6 Q0 CSIRO111-15649279 140 6.53088 adaRank_only_A
6 Q0 CSIRO135-11962203 141 6.53088 adaRank_only_A
6 Q0 CSIRO131-00325285 142 6.53088 adaRank_only_A
6 Q0 CSIRO135-14204594 143 6.4961 adaRank_only_A
6 Q0 CSIRO116-03214911 144 6.4961 adaRank_only_A
6 Q0 CSIRO139-15735123 145 6.4961 adaRank_only_A
6 Q0 CSIRO135-12129360 146 6.48278 adaRank_only_A
6 Q0 CSIRO131-06112763 147 6.47831 adaRank_only_A
6 Q0 CSIRO063-00297895 148 6.47382 adaRank_only_A
6 Q0 CSIRO135-15464231 149 6.44652 adaRank_only_A
6 Q0 CSIRO063-04106068 150 6.4419 adaRank_only_A
6 Q0 CSIRO111-15780747 151 6.4419 adaRank_only_A
6 Q0 CSIRO147-07090007 152 6.4419 adaRank_only_A
6 Q0 CSIRO131-05795355 153 6.4419 adaRank_only_A
6 Q0 CSIRO116-04318642 154 6.41855 adaRank_only_A
6 Q0 CSIRO112-13075252 155 6.39473 adaRank_only_A
6 Q0 CSIRO116-14634314 156 6.39473 adaRank_only_A
6 Q0 CSIRO062-14746222 157 6.38506 adaRank_only_A
6 Q0 CSIRO129-16731443 158 6.37531 adaRank_only_A
6 Q0 CSIRO100-10412549 159 6.34053 adaRank_only_A
6 Q0 CSIRO111-14616991 160 6.29423 adaRank_only_A
6 Q0 CSIRO141-01167626 161 6.28897 adaRank_only_A
6 Q0 CSIRO135-14851550 162 6.28369 adaRank_only_A
6 Q0 CSIRO130-14079170 163 6.26231 adaRank_only_A
6 Q0 CSIRO067-16595484 164 6.26231 adaRank_only_A
6 Q0 CSIRO111-16237786 165 6.26231 adaRank_only_A
6 Q0 CSIRO112-02672996 166 6.22949 adaRank_only_A
6 Q0 CSIRO113-04323863 167 6.21835 adaRank_only_A
6 Q0 CSIRO130-13792616 168 6.21834 adaRank_only_A
6 Q0 CSIRO131-12476688 169 6.19572 adaRank_only_A
6 Q0 CSIRO112-02760191 170 6.16094 adaRank_only_A
6 Q0 CSIRO130-03460478 171 6.16094 adaRank_only_A
6 Q0 CSIRO130-03391503 172 6.16094 adaRank_only_A
6 Q0 CSIRO112-05101834 173 6.14912 adaRank_only_A
6 Q0 CSIRO136-05107556 174 6.14316 adaRank_only_A
6 Q0 CSIRO140-15703739 175 6.12509 adaRank_only_A
6 Q0 CSIRO081-06012837 176 6.12509 adaRank_only_A
6 Q0 CSIRO204-14576053 177 6.10675 adaRank_only_A
6 Q0 CSIRO068-08846091 178 6.10675 adaRank_only_A
6 Q0 CSIRO206-06139948 179 6.10675 adaRank_only_A
6 Q0 CSIRO119-15546632 180 6.10675 adaRank_only_A
6 Q0 CSIRO205-15657543 181 6.10675 adaRank_only_A
6 Q0 CSIRO071-01358688 182 6.10675 adaRank_only_A
6 Q0 CSIRO072-03292986 183 6.10675 adaRank_only_A
6 Q0 CSIRO135-14770681 184 6.10675 adaRank_only_A
6 Q0 CSIRO069-15437241 185 6.10675 adaRank_only_A
6 Q0 CSIRO130-06307088 186 6.10675 adaRank_only_A
6 Q0 CSIRO111-15272102 187 6.06916 adaRank_only_A
6 Q0 CSIRO130-04261476 188 6.06278 adaRank_only_A
6 Q0 CSIRO067-16522897 189 6.06278 adaRank_only_A
6 Q0 CSIRO204-14503410 190 6.0499 adaRank_only_A
6 Q0 CSIRO130-14176386 191 6.0499 adaRank_only_A
6 Q0 CSIRO139-15723114 192 6.0499 adaRank_only_A
6 Q0 CSIRO130-14381058 193 6.0499 adaRank_only_A
6 Q0 CSIRO113-12035551 194 6.0499 adaRank_only_A
6 Q0 CSIRO117-08791351 195 6.01041 adaRank_only_A
6 Q0 CSIRO130-04470657 196 5.99015 adaRank_only_A
6 Q0 CSIRO266-04184084 197 5.98331 adaRank_only_A
6 Q0 CSIRO140-15039940 198 5.96953 adaRank_only_A
6 Q0 CSIRO130-08177130 199 5.96953 adaRank_only_A
