1,0.04
1,0.08
1,0.12
1,0.16
1,0.2
1,0.24
1,0.28
1,0.32
1,0.36
1,0.4
1,0.44
1,0.48
0.923077,0.48
0.928571,0.52
0.866667,0.52
0.875,0.56
0.823529,0.56
0.833333,0.6
0.842105,0.64
0.85,0.68
0.857143,0.72
0.818182,0.72
0.826087,0.76
0.833333,0.8
0.84,0.84
