30 Q0 CSIRO147-01506317 1 10.2071 bm25
30 Q0 CSIRO144-16204081 2 10.07 bm25
30 Q0 CSIRO144-16214368 3 9.76225 bm25
30 Q0 CSIRO147-01516588 4 9.69404 bm25
30 Q0 CSIRO138-10005210 5 9.61751 bm25
30 Q0 CSIRO138-05243416 6 9.6051 bm25
30 Q0 CSIRO265-14500946 7 9.45371 bm25
30 Q0 CSIRO126-10196158 8 9.34337 bm25
30 Q0 CSIRO138-09946612 9 9.25646 bm25
30 Q0 CSIRO138-06350787 10 5.45136 bm25
30 Q0 CSIRO138-07525546 11 5.33273 bm25
30 Q0 CSIRO138-05230374 12 5.23154 bm25
30 Q0 CSIRO065-13297749 13 5.14609 bm25
30 Q0 CSIRO140-02149452 14 4.65711 bm25
30 Q0 CSIRO138-05255295 15 3.80882 bm25
30 Q0 CSIRO141-02757316 16 3.54363 bm25
30 Q0 CSIRO145-01486041 17 3.36008 bm25
30 Q0 CSIRO145-08540981 18 3.3431 bm25
30 Q0 CSIRO144-14898137 19 3.10175 bm25
30 Q0 CSIRO140-02309169 20 2.96021 bm25
30 Q0 CSIRO145-08552235 21 2.73054 bm25
30 Q0 CSIRO145-01497011 22 2.72829 bm25
30 Q0 CSIRO146-15814596 23 2.69495 bm25
30 Q0 CSIRO136-05150011 24 2.65378 bm25
30 Q0 CSIRO140-01729613 25 2.41554 bm25
30 Q0 CSIRO136-06935730 26 0.86926 bm25
30 Q0 CSIRO136-05198751 27 0.654255 bm25
30 Q0 CSIRO135-16400222 28 0.598398 bm25
30 Q0 CSIRO187-02451590 29 0.598398 bm25
