0,0
0,0
0,0
0,0
0,0
0,0
0,0
0,0
0,0
0,0
0,0
0.0833333,0.04
0.153846,0.08
0.214286,0.12
0.266667,0.16
0.25,0.16
0.235294,0.16
0.222222,0.16
0.210526,0.16
0.2,0.16
0.238095,0.2
0.272727,0.24
0.304348,0.28
0.333333,0.32
0.36,0.36
