42 Q0 CSIRO145-16055338 1 7.04726 bm25
42 Q0 CSIRO145-16066103 2 6.86039 bm25
42 Q0 CSIRO124-07467254 3 6.79374 bm25
42 Q0 CSIRO265-13866999 4 6.63851 bm25
42 Q0 CSIRO137-11691589 5 6.61298 bm25
42 Q0 CSIRO185-00610654 6 6.57404 bm25
42 Q0 CSIRO175-11351766 7 6.53968 bm25
42 Q0 CSIRO185-10742374 8 6.53947 bm25
42 Q0 CSIRO138-07074677 9 6.4778 bm25
42 Q0 CSIRO185-10755263 10 6.23723 bm25
42 Q0 CSIRO185-01028297 11 6.22343 bm25
42 Q0 CSIRO140-11603355 12 6.20173 bm25
42 Q0 CSIRO136-16470593 13 6.19334 bm25
42 Q0 CSIRO185-00591598 14 6.19024 bm25
42 Q0 CSIRO138-06055799 15 6.16244 bm25
42 Q0 CSIRO136-10433040 16 6.1238 bm25
42 Q0 CSIRO175-11264677 17 6.1089 bm25
42 Q0 CSIRO185-01735315 18 6.10237 bm25
42 Q0 CSIRO138-05541043 19 6.09721 bm25
42 Q0 CSIRO196-14126191 20 6.05469 bm25
42 Q0 CSIRO185-01281474 21 5.99232 bm25
42 Q0 CSIRO145-10177528 22 5.98217 bm25
42 Q0 CSIRO138-07001608 23 5.94146 bm25
42 Q0 CSIRO140-11614820 24 5.92551 bm25
42 Q0 CSIRO139-01535740 25 5.92169 bm25
42 Q0 CSIRO184-16557155 26 5.87633 bm25
42 Q0 CSIRO185-01560515 27 5.87633 bm25
42 Q0 CSIRO131-13544290 28 5.82281 bm25
42 Q0 CSIRO136-09952816 29 5.80395 bm25
42 Q0 CSIRO185-10705181 30 5.80015 bm25
42 Q0 CSIRO185-01875177 31 5.77577 bm25
42 Q0 CSIRO175-11329158 32 5.76796 bm25
42 Q0 CSIRO185-00483563 33 5.76464 bm25
42 Q0 CSIRO196-13817500 34 5.76242 bm25
42 Q0 CSIRO145-10189691 35 5.7524 bm25
42 Q0 CSIRO175-11231916 36 5.7521 bm25
42 Q0 CSIRO185-02051902 37 5.75121 bm25
42 Q0 CSIRO139-02752989 38 5.726 bm25
42 Q0 CSIRO137-11091123 39 5.72165 bm25
42 Q0 CSIRO185-01767219 40 5.70771 bm25
42 Q0 CSIRO137-01467009 41 5.70434 bm25
42 Q0 CSIRO175-11305908 42 5.70053 bm25
42 Q0 CSIRO175-11342675 43 5.67724 bm25
42 Q0 CSIRO137-11983351 44 5.64387 bm25
42 Q0 CSIRO185-00969886 45 5.62015 bm25
42 Q0 CSIRO139-01474455 46 5.61394 bm25
42 Q0 CSIRO138-08343214 47 5.58346 bm25
42 Q0 CSIRO175-11284403 48 5.5771 bm25
42 Q0 CSIRO185-02065916 49 5.53857 bm25
42 Q0 CSIRO196-13405213 50 5.53324 bm25
42 Q0 CSIRO196-13352406 51 5.50925 bm25
42 Q0 CSIRO185-00030772 52 5.50859 bm25
42 Q0 CSIRO139-02692775 53 5.49028 bm25
42 Q0 CSIRO135-11008887 54 5.48222 bm25
42 Q0 CSIRO138-06495612 55 5.44802 bm25
42 Q0 CSIRO185-01249732 56 5.44011 bm25
42 Q0 CSIRO131-15355806 57 5.43101 bm25
42 Q0 CSIRO137-03488527 58 5.42993 bm25
42 Q0 CSIRO185-01124063 59 5.41601 bm25
42 Q0 CSIRO137-01298430 60 5.41591 bm25
42 Q0 CSIRO124-07536312 61 5.41393 bm25
42 Q0 CSIRO185-01723211 62 5.37645 bm25
42 Q0 CSIRO124-07387773 63 5.3446 bm25
42 Q0 CSIRO196-13393589 64 5.32707 bm25
42 Q0 CSIRO196-13900510 65 5.30834 bm25
42 Q0 CSIRO175-11240866 66 5.30432 bm25
42 Q0 CSIRO138-12976939 67 5.30237 bm25
42 Q0 CSIRO183-01038336 68 5.28355 bm25
42 Q0 CSIRO185-00205294 69 5.26027 bm25
42 Q0 CSIRO138-08402377 70 5.24491 bm25
42 Q0 CSIRO138-13070221 71 5.23175 bm25
42 Q0 CSIRO185-01949926 72 5.22098 bm25
42 Q0 CSIRO134-00809192 73 5.21402 bm25
42 Q0 CSIRO185-02035556 74 5.2048 bm25
42 Q0 CSIRO138-08376483 75 5.19898 bm25
42 Q0 CSIRO136-12030531 76 5.19861 bm25
42 Q0 CSIRO136-11343916 77 5.18293 bm25
42 Q0 CSIRO138-02049649 78 5.15786 bm25
42 Q0 CSIRO138-02185988 79 5.14019 bm25
42 Q0 CSIRO139-03895067 80 5.12275 bm25
42 Q0 CSIRO185-01923420 81 5.0992 bm25
42 Q0 CSIRO185-02081282 82 5.08506 bm25
42 Q0 CSIRO185-00887964 83 5.08209 bm25
42 Q0 CSIRO137-09321918 84 5.08181 bm25
42 Q0 CSIRO136-12065761 85 5.07984 bm25
42 Q0 CSIRO138-05515120 86 5.07741 bm25
42 Q0 CSIRO131-15322177 87 5.0662 bm25
42 Q0 CSIRO185-02057925 88 5.05838 bm25
42 Q0 CSIRO082-14124084 89 5.04994 bm25
42 Q0 CSIRO184-16700201 90 5.0487 bm25
42 Q0 CSIRO175-11293904 91 5.04513 bm25
42 Q0 CSIRO136-12980377 92 5.04388 bm25
42 Q0 CSIRO138-01987135 93 5.03762 bm25
42 Q0 CSIRO082-14447167 94 5.03731 bm25
42 Q0 CSIRO137-07183239 95 5.03562 bm25
42 Q0 CSIRO264-15204422 96 5.02316 bm25
42 Q0 CSIRO185-01651268 97 5.02181 bm25
42 Q0 CSIRO184-16647221 98 5.02181 bm25
42 Q0 CSIRO138-08314097 99 5.02112 bm25
42 Q0 CSIRO137-07172923 100 5.01955 bm25
42 Q0 CSIRO185-04990525 101 5.00333 bm25
42 Q0 CSIRO138-03364120 102 4.9891 bm25
42 Q0 CSIRO185-11368382 103 4.95277 bm25
42 Q0 CSIRO124-07833043 104 4.95142 bm25
42 Q0 CSIRO196-13375452 105 4.94854 bm25
42 Q0 CSIRO185-12415293 106 4.94109 bm25
42 Q0 CSIRO264-15182883 107 4.93568 bm25
42 Q0 CSIRO175-11188022 108 4.93424 bm25
42 Q0 CSIRO182-16429168 109 4.92553 bm25
42 Q0 CSIRO124-09349345 110 4.91171 bm25
42 Q0 CSIRO175-11197827 111 4.88723 bm25
42 Q0 CSIRO184-14279647 112 4.86399 bm25
42 Q0 CSIRO139-04716006 113 4.85824 bm25
42 Q0 CSIRO119-08402314 114 4.8508 bm25
42 Q0 CSIRO196-15920940 115 4.80964 bm25
42 Q0 CSIRO182-16385741 116 4.7945 bm25
42 Q0 CSIRO185-12230372 117 4.79245 bm25
42 Q0 CSIRO136-10844672 118 4.77732 bm25
42 Q0 CSIRO120-00186752 119 4.77321 bm25
42 Q0 CSIRO124-08833006 120 4.7592 bm25
42 Q0 CSIRO139-03803665 121 4.75903 bm25
42 Q0 CSIRO124-09131817 122 4.75049 bm25
42 Q0 CSIRO138-03446049 123 4.74275 bm25
42 Q0 CSIRO137-07274936 124 4.73953 bm25
42 Q0 CSIRO120-02380459 125 4.72326 bm25
42 Q0 CSIRO124-08952126 126 4.72277 bm25
42 Q0 CSIRO185-01754439 127 4.7177 bm25
42 Q0 CSIRO181-15155111 128 4.70105 bm25
42 Q0 CSIRO181-08785180 129 4.69438 bm25
42 Q0 CSIRO148-08992856 130 4.69212 bm25
42 Q0 CSIRO175-11374960 131 4.68864 bm25
42 Q0 CSIRO138-05551718 132 4.68734 bm25
42 Q0 CSIRO137-16552452 133 4.68317 bm25
42 Q0 CSIRO139-04655293 134 4.64946 bm25
42 Q0 CSIRO185-11976431 135 4.63952 bm25
42 Q0 CSIRO185-02135181 136 4.63061 bm25
42 Q0 CSIRO183-00196855 137 4.61787 bm25
42 Q0 CSIRO196-13360825 138 4.61424 bm25
42 Q0 CSIRO138-05972223 139 4.61227 bm25
42 Q0 CSIRO124-08887246 140 4.59436 bm25
42 Q0 CSIRO185-00566317 141 4.58913 bm25
42 Q0 CSIRO137-07144503 142 4.57764 bm25
42 Q0 CSIRO184-16383231 143 4.57236 bm25
42 Q0 CSIRO185-01385277 144 4.57236 bm25
42 Q0 CSIRO119-09941280 145 4.54214 bm25
42 Q0 CSIRO196-15626623 146 4.538 bm25
42 Q0 CSIRO138-05490937 147 4.53665 bm25
42 Q0 CSIRO182-15762017 148 4.53619 bm25
42 Q0 CSIRO138-07113891 149 4.51998 bm25
42 Q0 CSIRO129-15070687 150 4.50589 bm25
42 Q0 CSIRO138-05562740 151 4.49327 bm25
42 Q0 CSIRO138-15897299 152 4.48897 bm25
42 Q0 CSIRO196-14203097 153 4.48857 bm25
42 Q0 CSIRO147-03875696 154 4.47909 bm25
42 Q0 CSIRO124-09030142 155 4.46734 bm25
42 Q0 CSIRO181-07846748 156 4.45753 bm25
42 Q0 CSIRO119-13271741 157 4.4516 bm25
42 Q0 CSIRO120-02748594 158 4.4516 bm25
42 Q0 CSIRO185-01355503 159 4.44346 bm25
42 Q0 CSIRO184-16353677 160 4.44346 bm25
42 Q0 CSIRO147-03838618 161 4.43303 bm25
42 Q0 CSIRO196-14345162 162 4.43212 bm25
42 Q0 CSIRO175-11207449 163 4.43056 bm25
42 Q0 CSIRO120-03379033 164 4.40632 bm25
42 Q0 CSIRO185-01426737 165 4.39594 bm25
42 Q0 CSIRO184-16424358 166 4.39594 bm25
42 Q0 CSIRO147-10175000 167 4.39268 bm25
42 Q0 CSIRO147-03077535 168 4.38791 bm25
42 Q0 CSIRO138-15833866 169 4.36847 bm25
42 Q0 CSIRO185-02098537 170 4.35041 bm25
42 Q0 CSIRO196-14222591 171 4.33633 bm25
42 Q0 CSIRO185-05744840 172 4.32588 bm25
42 Q0 CSIRO263-15334015 173 4.32421 bm25
42 Q0 CSIRO184-11723237 174 4.31039 bm25
42 Q0 CSIRO137-04359741 175 4.30359 bm25
42 Q0 CSIRO183-08926822 176 4.30339 bm25
42 Q0 CSIRO137-07155866 177 4.27789 bm25
42 Q0 CSIRO182-10789714 178 4.27382 bm25
42 Q0 CSIRO182-16322966 179 4.27177 bm25
42 Q0 CSIRO185-05791702 180 4.25616 bm25
42 Q0 CSIRO184-16678149 181 4.25447 bm25
42 Q0 CSIRO181-08824038 182 4.2521 bm25
42 Q0 CSIRO185-01515991 183 4.2426 bm25
42 Q0 CSIRO184-16512951 184 4.2426 bm25
42 Q0 CSIRO196-14250366 185 4.24252 bm25
42 Q0 CSIRO182-15207526 186 4.22681 bm25
42 Q0 CSIRO137-10047225 187 4.21965 bm25
42 Q0 CSIRO124-07689345 188 4.18516 bm25
42 Q0 CSIRO180-16474118 189 4.17203 bm25
42 Q0 CSIRO184-16542627 190 4.16948 bm25
42 Q0 CSIRO185-01545885 191 4.16948 bm25
42 Q0 CSIRO148-00856884 192 4.16534 bm25
42 Q0 CSIRO136-10104447 193 4.14613 bm25
42 Q0 CSIRO137-03457618 194 4.14145 bm25
42 Q0 CSIRO185-01793854 195 4.12844 bm25
42 Q0 CSIRO142-10665441 196 4.12661 bm25
42 Q0 CSIRO138-05530075 197 4.11877 bm25
42 Q0 CSIRO124-09169076 198 4.10634 bm25
42 Q0 CSIRO120-00241452 199 4.10355 bm25
