1,0.04
0.5,0.04
0.333333,0.04
0.25,0.04
0.4,0.08
0.333333,0.08
0.285714,0.08
0.25,0.08
0.222222,0.08
0.2,0.08
0.272727,0.12
0.25,0.12
0.307692,0.16
0.285714,0.16
0.266667,0.16
0.25,0.16
0.294118,0.2
0.277778,0.2
0.263158,0.2
0.25,0.2
0.238095,0.2
0.227273,0.2
0.217391,0.2
0.208333,0.2
0.2,0.2
