0,0
0.5,0.04
0.666667,0.08
0.75,0.12
0.6,0.12
0.666667,0.16
0.714286,0.2
0.75,0.24
0.777778,0.28
0.8,0.32
0.818182,0.36
0.833333,0.4
0.846154,0.44
0.857143,0.48
0.866667,0.52
0.8125,0.52
0.823529,0.56
0.833333,0.6
0.842105,0.64
0.8,0.64
0.809524,0.68
0.818182,0.72
0.826087,0.76
0.833333,0.8
0.84,0.84
