50 Q0 CSIRO141-05420421 1 10.3406 bm25
50 Q0 CSIRO141-05514136 2 10.3258 bm25
50 Q0 CSIRO144-16021163 3 10.2469 bm25
50 Q0 CSIRO147-06540842 4 10.2 bm25
50 Q0 CSIRO136-11675287 5 10.1886 bm25
50 Q0 CSIRO147-08666101 6 10.1417 bm25
50 Q0 CSIRO138-02880072 7 10.1332 bm25
50 Q0 CSIRO144-16031155 8 10.1239 bm25
50 Q0 CSIRO119-16158127 9 10.009 bm25
50 Q0 CSIRO140-04528831 10 9.96018 bm25
50 Q0 CSIRO126-04638732 11 9.95158 bm25
50 Q0 CSIRO120-01949967 12 9.93649 bm25
50 Q0 CSIRO102-06692011 13 9.86247 bm25
50 Q0 CSIRO140-04539147 14 9.76968 bm25
50 Q0 CSIRO136-12752648 15 9.72916 bm25
50 Q0 CSIRO132-01583924 16 9.69208 bm25
50 Q0 CSIRO138-01828989 17 9.679 bm25
50 Q0 CSIRO147-08591053 18 9.6417 bm25
50 Q0 CSIRO136-10899267 19 9.58433 bm25
50 Q0 CSIRO139-12106379 20 9.55685 bm25
50 Q0 CSIRO138-03523132 21 9.54912 bm25
50 Q0 CSIRO147-09474513 22 9.52306 bm25
50 Q0 CSIRO146-12743315 23 9.47569 bm25
50 Q0 CSIRO147-08936906 24 9.39242 bm25
50 Q0 CSIRO137-09971386 25 9.39084 bm25
50 Q0 CSIRO119-14387253 26 9.36105 bm25
50 Q0 CSIRO134-11855437 27 9.34567 bm25
50 Q0 CSIRO147-08736717 28 9.34247 bm25
50 Q0 CSIRO147-02039744 29 9.3393 bm25
50 Q0 CSIRO139-12117799 30 9.32065 bm25
50 Q0 CSIRO141-03030090 31 9.28788 bm25
50 Q0 CSIRO131-13791328 32 9.2621 bm25
50 Q0 CSIRO147-05086352 33 9.25036 bm25
50 Q0 CSIRO147-08631178 34 9.24186 bm25
50 Q0 CSIRO136-13042639 35 9.22051 bm25
50 Q0 CSIRO147-05025422 36 9.16362 bm25
50 Q0 CSIRO146-12804236 37 9.14751 bm25
50 Q0 CSIRO147-09120278 38 9.12922 bm25
50 Q0 CSIRO145-16135941 39 9.10431 bm25
50 Q0 CSIRO147-10258487 40 9.04491 bm25
50 Q0 CSIRO137-01266937 41 9.01789 bm25
50 Q0 CSIRO140-06474228 42 8.99345 bm25
50 Q0 CSIRO137-01801553 43 8.94578 bm25
50 Q0 CSIRO147-09202703 44 8.94368 bm25
50 Q0 CSIRO137-03676315 45 8.92206 bm25
50 Q0 CSIRO147-08472174 46 8.87804 bm25
50 Q0 CSIRO147-08459519 47 8.84472 bm25
50 Q0 CSIRO141-02994489 48 8.83228 bm25
50 Q0 CSIRO119-06250149 49 8.82283 bm25
50 Q0 CSIRO124-07372355 50 8.81167 bm25
50 Q0 CSIRO147-06191116 51 8.80855 bm25
50 Q0 CSIRO124-07483409 52 8.77092 bm25
50 Q0 CSIRO147-09146528 53 8.73711 bm25
50 Q0 CSIRO145-11710307 54 8.73039 bm25
50 Q0 CSIRO127-01524837 55 8.71812 bm25
50 Q0 CSIRO137-07827609 56 8.71671 bm25
50 Q0 CSIRO147-05047646 57 8.71441 bm25
50 Q0 CSIRO141-06791850 58 8.70433 bm25
50 Q0 CSIRO147-10187370 59 8.70327 bm25
50 Q0 CSIRO147-08718380 60 8.70042 bm25
50 Q0 CSIRO147-08500067 61 8.68131 bm25
50 Q0 CSIRO136-13414917 62 8.67038 bm25
50 Q0 CSIRO147-05154737 63 8.66922 bm25
50 Q0 CSIRO140-06484033 64 8.66563 bm25
50 Q0 CSIRO119-16234099 65 8.64733 bm25
50 Q0 CSIRO137-07681534 66 8.60318 bm25
50 Q0 CSIRO138-04213975 67 8.59122 bm25
50 Q0 CSIRO147-09432379 68 8.58343 bm25
50 Q0 CSIRO147-05096234 69 8.5698 bm25
50 Q0 CSIRO138-06128978 70 8.56794 bm25
50 Q0 CSIRO119-04466231 71 8.54877 bm25
50 Q0 CSIRO145-16125750 72 8.53874 bm25
50 Q0 CSIRO147-08486516 73 8.52645 bm25
50 Q0 CSIRO147-09076821 74 8.52383 bm25
50 Q0 CSIRO205-00214180 75 8.49654 bm25
50 Q0 CSIRO206-10324884 76 8.48873 bm25
50 Q0 CSIRO068-11155272 77 8.48873 bm25
50 Q0 CSIRO070-00791795 78 8.48873 bm25
50 Q0 CSIRO131-14983782 79 8.46078 bm25
50 Q0 CSIRO145-04486399 80 8.44098 bm25
50 Q0 CSIRO146-03036265 81 8.43062 bm25
50 Q0 CSIRO146-02482554 82 8.43062 bm25
50 Q0 CSIRO119-06136300 83 8.37966 bm25
50 Q0 CSIRO147-09722865 84 8.30739 bm25
50 Q0 CSIRO147-10074157 85 8.28623 bm25
50 Q0 CSIRO147-08705274 86 8.26903 bm25
50 Q0 CSIRO145-11725455 87 8.25282 bm25
50 Q0 CSIRO136-12100931 88 8.2168 bm25
50 Q0 CSIRO131-13965794 89 8.21374 bm25
50 Q0 CSIRO105-00537887 90 8.19994 bm25
50 Q0 CSIRO136-12319121 91 8.19307 bm25
50 Q0 CSIRO119-12990633 92 8.16056 bm25
50 Q0 CSIRO137-01875850 93 8.16016 bm25
50 Q0 CSIRO138-03549474 94 8.15929 bm25
50 Q0 CSIRO119-07360331 95 8.15639 bm25
50 Q0 CSIRO119-12966683 96 8.12801 bm25
50 Q0 CSIRO137-07607296 97 8.12467 bm25
50 Q0 CSIRO131-13603710 98 8.11178 bm25
50 Q0 CSIRO119-07513612 99 8.10368 bm25
50 Q0 CSIRO119-13074327 100 8.09643 bm25
50 Q0 CSIRO137-01025215 101 8.08688 bm25
50 Q0 CSIRO147-08889550 102 8.07795 bm25
50 Q0 CSIRO119-03143433 103 8.07102 bm25
50 Q0 CSIRO119-07987816 104 8.0062 bm25
50 Q0 CSIRO136-14130995 105 7.97148 bm25
50 Q0 CSIRO147-10055497 106 7.94033 bm25
50 Q0 CSIRO136-11714395 107 7.93805 bm25
50 Q0 CSIRO126-15414915 108 7.92203 bm25
50 Q0 CSIRO147-01999697 109 7.92203 bm25
50 Q0 CSIRO119-13015365 110 7.92051 bm25
50 Q0 CSIRO147-05128799 111 7.91151 bm25
50 Q0 CSIRO137-10614889 112 7.91002 bm25
50 Q0 CSIRO138-04482700 113 7.88589 bm25
50 Q0 CSIRO147-09388127 114 7.86769 bm25
50 Q0 CSIRO147-09963203 115 7.86732 bm25
50 Q0 CSIRO138-03721675 116 7.85063 bm25
50 Q0 CSIRO134-11805850 117 7.80913 bm25
50 Q0 CSIRO138-02863103 118 7.80802 bm25
50 Q0 CSIRO136-16025468 119 7.80412 bm25
50 Q0 CSIRO119-04833295 120 7.77989 bm25
50 Q0 CSIRO148-02503912 121 7.77948 bm25
50 Q0 CSIRO200-09717326 122 7.76247 bm25
50 Q0 CSIRO147-05038689 123 7.67917 bm25
50 Q0 CSIRO120-02015122 124 7.66458 bm25
50 Q0 CSIRO124-07364110 125 7.59826 bm25
50 Q0 CSIRO147-08910097 126 7.58983 bm25
50 Q0 CSIRO147-02066258 127 7.52651 bm25
50 Q0 CSIRO148-04386559 128 7.5078 bm25
50 Q0 CSIRO147-09936792 129 7.47781 bm25
50 Q0 CSIRO147-05058478 130 7.46506 bm25
50 Q0 CSIRO147-00736037 131 7.46414 bm25
50 Q0 CSIRO147-02021443 132 7.44686 bm25
50 Q0 CSIRO147-08863809 133 7.44208 bm25
50 Q0 CSIRO136-05052870 134 7.4315 bm25
50 Q0 CSIRO126-13746446 135 7.42659 bm25
50 Q0 CSIRO147-05597681 136 7.40044 bm25
50 Q0 CSIRO147-10039271 137 7.38556 bm25
50 Q0 CSIRO147-09946648 138 7.3151 bm25
50 Q0 CSIRO264-15739846 139 7.31422 bm25
50 Q0 CSIRO138-11222461 140 7.31267 bm25
50 Q0 CSIRO145-04479311 141 7.29519 bm25
50 Q0 CSIRO120-01969110 142 7.26649 bm25
50 Q0 CSIRO147-09786846 143 7.26384 bm25
50 Q0 CSIRO119-08210350 144 7.22559 bm25
50 Q0 CSIRO198-03712918 145 7.18172 bm25
50 Q0 CSIRO126-06606134 146 7.18072 bm25
50 Q0 CSIRO147-09997845 147 7.17935 bm25
50 Q0 CSIRO147-09887744 148 7.1655 bm25
50 Q0 CSIRO147-06351520 149 7.1633 bm25
50 Q0 CSIRO119-14911932 150 7.15137 bm25
50 Q0 CSIRO147-08782301 151 7.14749 bm25
50 Q0 CSIRO132-01388179 152 7.13714 bm25
50 Q0 CSIRO147-06282759 153 7.12872 bm25
50 Q0 CSIRO147-08577632 154 7.12459 bm25
50 Q0 CSIRO264-16076643 155 7.06621 bm25
50 Q0 CSIRO147-10238691 156 7.03077 bm25
50 Q0 CSIRO145-15585815 157 6.97933 bm25
50 Q0 CSIRO119-15053714 158 6.93923 bm25
50 Q0 CSIRO113-07988723 159 6.91284 bm25
50 Q0 CSIRO119-04421977 160 6.90644 bm25
50 Q0 CSIRO126-04686798 161 6.90183 bm25
50 Q0 CSIRO138-05023631 162 6.90155 bm25
50 Q0 CSIRO200-06630682 163 6.88279 bm25
50 Q0 CSIRO139-06205389 164 6.87035 bm25
50 Q0 CSIRO119-14141879 165 6.86484 bm25
50 Q0 CSIRO139-06301181 166 6.85363 bm25
50 Q0 CSIRO147-11664752 167 6.85133 bm25
50 Q0 CSIRO147-02906475 168 6.84971 bm25
50 Q0 CSIRO147-08540050 169 6.82733 bm25
50 Q0 CSIRO147-02245629 170 6.82001 bm25
50 Q0 CSIRO264-09722540 171 6.81925 bm25
50 Q0 CSIRO120-02139268 172 6.80992 bm25
50 Q0 CSIRO148-02717367 173 6.80972 bm25
50 Q0 CSIRO136-13802263 174 6.794 bm25
50 Q0 CSIRO200-04953791 175 6.79298 bm25
50 Q0 CSIRO147-09107251 176 6.76731 bm25
50 Q0 CSIRO136-10398395 177 6.76731 bm25
50 Q0 CSIRO137-03397874 178 6.76456 bm25
50 Q0 CSIRO147-08618481 179 6.76351 bm25
50 Q0 CSIRO262-11247501 180 6.76096 bm25
50 Q0 CSIRO147-10168955 181 6.71392 bm25
50 Q0 CSIRO147-06513003 182 6.70801 bm25
50 Q0 CSIRO126-16709522 183 6.68667 bm25
50 Q0 CSIRO137-04483672 184 6.66867 bm25
50 Q0 CSIRO147-09038864 185 6.66369 bm25
50 Q0 CSIRO119-05213770 186 6.60135 bm25
50 Q0 CSIRO132-01720043 187 6.59199 bm25
50 Q0 CSIRO132-01531832 188 6.59199 bm25
50 Q0 CSIRO132-01667901 189 6.59199 bm25
50 Q0 CSIRO132-01549201 190 6.59199 bm25
50 Q0 CSIRO132-01566557 191 6.59199 bm25
50 Q0 CSIRO132-01737403 192 6.59199 bm25
50 Q0 CSIRO132-01633147 193 6.59199 bm25
50 Q0 CSIRO132-01514454 194 6.5865 bm25
50 Q0 CSIRO132-01650507 195 6.5865 bm25
50 Q0 CSIRO132-01702653 196 6.5865 bm25
50 Q0 CSIRO132-01615773 197 6.5865 bm25
50 Q0 CSIRO132-01685260 198 6.5865 bm25
50 Q0 CSIRO138-11130472 199 6.57838 bm25
