40 Q0 CSIRO184-13012064 1 9.73287 bm25
40 Q0 CSIRO182-09930972 2 9.71147 bm25
40 Q0 CSIRO182-02885674 3 9.59913 bm25
40 Q0 CSIRO182-02935939 4 9.58728 bm25
40 Q0 CSIRO182-02860644 5 9.58314 bm25
40 Q0 CSIRO182-03271177 6 9.58048 bm25
40 Q0 CSIRO182-03249607 7 9.57473 bm25
40 Q0 CSIRO182-02910787 8 9.5653 bm25
40 Q0 CSIRO182-03202404 9 9.56146 bm25
40 Q0 CSIRO182-03573683 10 9.56145 bm25
40 Q0 CSIRO182-10584498 11 9.56103 bm25
40 Q0 CSIRO182-03553051 12 9.55851 bm25
40 Q0 CSIRO182-10348542 13 9.55234 bm25
40 Q0 CSIRO182-04205337 14 9.55115 bm25
40 Q0 CSIRO182-03340850 15 9.5486 bm25
40 Q0 CSIRO182-03176629 16 9.53988 bm25
40 Q0 CSIRO182-10670411 17 9.52852 bm25
40 Q0 CSIRO182-03315002 18 9.52515 bm25
40 Q0 CSIRO182-15523842 19 9.47907 bm25
40 Q0 CSIRO182-03618750 20 9.47611 bm25
40 Q0 CSIRO182-16048638 21 9.47036 bm25
40 Q0 CSIRO182-10376659 22 9.4687 bm25
40 Q0 CSIRO182-04316078 23 9.45303 bm25
40 Q0 CSIRO182-16022636 24 9.45294 bm25
40 Q0 CSIRO184-12358366 25 9.44942 bm25
40 Q0 CSIRO182-03594895 26 9.44642 bm25
40 Q0 CSIRO182-10495781 27 9.43119 bm25
40 Q0 CSIRO184-14247277 28 9.42242 bm25
40 Q0 CSIRO182-10641368 29 9.42131 bm25
40 Q0 CSIRO182-10555615 30 9.41912 bm25
40 Q0 CSIRO182-10612438 31 9.40927 bm25
40 Q0 CSIRO182-03433021 32 9.40666 bm25
40 Q0 CSIRO182-15250743 33 9.40365 bm25
40 Q0 CSIRO182-03411279 34 9.40321 bm25
40 Q0 CSIRO182-03528506 35 9.39759 bm25
40 Q0 CSIRO182-10296406 36 9.39531 bm25
40 Q0 CSIRO182-10270345 37 9.38774 bm25
40 Q0 CSIRO182-03504184 38 9.38499 bm25
40 Q0 CSIRO182-10465944 39 9.38418 bm25
40 Q0 CSIRO182-16207627 40 9.38226 bm25
40 Q0 CSIRO182-15436735 41 9.37993 bm25
40 Q0 CSIRO182-10244192 42 9.37641 bm25
40 Q0 CSIRO182-10436190 43 9.37223 bm25
40 Q0 CSIRO184-14279647 44 9.36669 bm25
40 Q0 CSIRO182-10217965 45 9.36636 bm25
40 Q0 CSIRO182-10405532 46 9.36518 bm25
40 Q0 CSIRO182-03388931 47 9.36325 bm25
40 Q0 CSIRO182-03479619 48 9.35707 bm25
40 Q0 CSIRO182-15544882 49 9.35628 bm25
40 Q0 CSIRO182-10191561 50 9.35383 bm25
40 Q0 CSIRO182-03455161 51 9.35133 bm25
40 Q0 CSIRO182-03366589 52 9.34872 bm25
40 Q0 CSIRO182-15359974 53 9.34398 bm25
40 Q0 CSIRO182-09720553 54 9.33136 bm25
40 Q0 CSIRO182-03710395 55 9.31319 bm25
40 Q0 CSIRO182-10699328 56 9.30741 bm25
40 Q0 CSIRO182-04337123 57 9.30537 bm25
40 Q0 CSIRO182-10524839 58 9.29373 bm25
40 Q0 CSIRO182-09775041 59 9.29168 bm25
40 Q0 CSIRO182-04291211 60 9.2729 bm25
40 Q0 CSIRO182-10163729 61 9.26951 bm25
40 Q0 CSIRO184-13167111 62 9.25447 bm25
40 Q0 CSIRO182-04125801 63 9.23487 bm25
40 Q0 CSIRO182-09747526 64 9.22451 bm25
40 Q0 CSIRO182-04076797 65 9.21732 bm25
40 Q0 CSIRO182-04177364 66 9.21107 bm25
40 Q0 CSIRO184-12973034 67 9.21006 bm25
40 Q0 CSIRO184-12965530 68 9.20942 bm25
40 Q0 CSIRO182-07597266 69 9.20296 bm25
40 Q0 CSIRO180-14984809 70 9.20259 bm25
40 Q0 CSIRO182-10322891 71 9.1923 bm25
40 Q0 CSIRO184-12968843 72 9.19052 bm25
40 Q0 CSIRO182-04050792 73 9.18989 bm25
40 Q0 CSIRO184-13171528 74 9.1834 bm25
40 Q0 CSIRO182-04153913 75 9.18113 bm25
40 Q0 CSIRO182-04362352 76 9.17373 bm25
40 Q0 CSIRO184-12460495 77 9.17069 bm25
40 Q0 CSIRO185-02846922 78 9.16751 bm25
40 Q0 CSIRO182-03925447 79 9.16424 bm25
40 Q0 CSIRO184-12982967 80 9.16349 bm25
40 Q0 CSIRO183-15060789 81 9.1288 bm25
40 Q0 CSIRO141-04378409 82 9.12644 bm25
40 Q0 CSIRO182-04002222 83 9.11839 bm25
40 Q0 CSIRO182-02798080 84 9.11006 bm25
40 Q0 CSIRO184-13022378 85 9.1048 bm25
40 Q0 CSIRO182-02775393 86 9.07815 bm25
40 Q0 CSIRO182-02712643 87 9.03113 bm25
40 Q0 CSIRO184-13030422 88 8.99941 bm25
40 Q0 CSIRO182-04391323 89 8.99408 bm25
40 Q0 CSIRO182-02690228 90 8.99207 bm25
40 Q0 CSIRO182-15572054 91 8.97682 bm25
40 Q0 CSIRO184-13155616 92 8.92512 bm25
40 Q0 CSIRO182-15960177 93 8.92225 bm25
40 Q0 CSIRO184-13000297 94 8.90232 bm25
40 Q0 CSIRO184-12272785 95 8.88958 bm25
40 Q0 CSIRO184-12386488 96 8.88111 bm25
40 Q0 CSIRO184-12925522 97 8.85433 bm25
40 Q0 CSIRO184-12463815 98 8.84342 bm25
40 Q0 CSIRO184-14355922 99 8.83058 bm25
40 Q0 CSIRO141-04317784 100 8.78442 bm25
40 Q0 CSIRO184-12332389 101 8.75998 bm25
40 Q0 CSIRO184-12920444 102 8.73863 bm25
40 Q0 CSIRO184-12062078 103 8.71945 bm25
40 Q0 CSIRO183-15213741 104 8.70922 bm25
40 Q0 CSIRO184-12473802 105 8.70675 bm25
40 Q0 CSIRO183-13336965 106 8.70237 bm25
40 Q0 CSIRO184-12052792 107 8.67074 bm25
40 Q0 CSIRO184-12997072 108 8.66672 bm25
40 Q0 CSIRO184-12119440 109 8.66107 bm25
40 Q0 CSIRO184-12087980 110 8.66107 bm25
40 Q0 CSIRO184-12055812 111 8.64431 bm25
40 Q0 CSIRO184-12084817 112 8.62737 bm25
40 Q0 CSIRO184-13016317 113 8.61436 bm25
40 Q0 CSIRO185-00661996 114 8.60395 bm25
40 Q0 CSIRO184-12081663 115 8.5987 bm25
40 Q0 CSIRO184-12955817 116 8.59492 bm25
40 Q0 CSIRO184-12397289 117 8.58443 bm25
40 Q0 CSIRO184-12379965 118 8.58239 bm25
40 Q0 CSIRO184-12352060 119 8.57021 bm25
40 Q0 CSIRO184-12976780 120 8.54992 bm25
40 Q0 CSIRO184-12729917 121 8.54784 bm25
40 Q0 CSIRO183-06625199 122 8.5353 bm25
40 Q0 CSIRO181-08964555 123 8.53501 bm25
40 Q0 CSIRO184-12951489 124 8.51232 bm25
40 Q0 CSIRO184-12376695 125 8.49982 bm25
40 Q0 CSIRO183-10047499 126 8.47066 bm25
40 Q0 CSIRO184-12145245 127 8.46911 bm25
40 Q0 CSIRO184-12122537 128 8.46736 bm25
40 Q0 CSIRO184-12448320 129 8.4577 bm25
40 Q0 CSIRO182-10789714 130 8.45762 bm25
40 Q0 CSIRO184-12456186 131 8.45386 bm25
40 Q0 CSIRO183-09427872 132 8.45221 bm25
40 Q0 CSIRO182-03090540 133 8.44204 bm25
40 Q0 CSIRO182-03069141 134 8.43974 bm25
40 Q0 CSIRO183-07018548 135 8.42926 bm25
40 Q0 CSIRO183-06997940 136 8.41042 bm25
40 Q0 CSIRO182-02262816 137 8.39446 bm25
40 Q0 CSIRO183-07422203 138 8.38992 bm25
40 Q0 CSIRO182-03131817 139 8.37959 bm25
40 Q0 CSIRO183-16597236 140 8.37727 bm25
40 Q0 CSIRO184-12403361 141 8.36695 bm25
40 Q0 CSIRO182-09615916 142 8.35614 bm25
40 Q0 CSIRO184-12163574 143 8.34447 bm25
40 Q0 CSIRO184-13026989 144 8.34398 bm25
40 Q0 CSIRO183-09788125 145 8.33089 bm25
40 Q0 CSIRO183-11142032 146 8.32182 bm25
40 Q0 CSIRO181-08983993 147 8.31153 bm25
40 Q0 CSIRO183-09407919 148 8.31106 bm25
40 Q0 CSIRO182-02669135 149 8.30563 bm25
40 Q0 CSIRO184-12905629 150 8.29267 bm25
40 Q0 CSIRO182-15463537 151 8.28939 bm25
40 Q0 CSIRO182-03293374 152 8.28842 bm25
40 Q0 CSIRO182-03047199 153 8.25012 bm25
40 Q0 CSIRO184-12366025 154 8.24766 bm25
40 Q0 CSIRO183-07656348 155 8.24492 bm25
40 Q0 CSIRO183-07528177 156 8.23998 bm25
40 Q0 CSIRO183-16621767 157 8.23911 bm25
40 Q0 CSIRO181-09005363 158 8.23245 bm25
40 Q0 CSIRO184-13040543 159 8.2283 bm25
40 Q0 CSIRO183-06509080 160 8.18793 bm25
40 Q0 CSIRO182-03109958 161 8.18466 bm25
40 Q0 CSIRO183-10092030 162 8.18447 bm25
40 Q0 CSIRO184-12932131 163 8.18214 bm25
40 Q0 CSIRO185-02763329 164 8.18019 bm25
40 Q0 CSIRO183-14772121 165 8.17378 bm25
40 Q0 CSIRO182-15706056 166 8.17081 bm25
40 Q0 CSIRO183-08537326 167 8.16056 bm25
40 Q0 CSIRO184-12727393 168 8.15334 bm25
40 Q0 CSIRO182-15685166 169 8.14729 bm25
40 Q0 CSIRO184-12400452 170 8.14264 bm25
40 Q0 CSIRO183-09924488 171 8.13917 bm25
40 Q0 CSIRO184-12319342 172 8.12666 bm25
40 Q0 CSIRO184-12945722 173 8.1218 bm25
40 Q0 CSIRO182-03827597 174 8.12067 bm25
40 Q0 CSIRO182-03228327 175 8.11773 bm25
40 Q0 CSIRO183-06669052 176 8.10428 bm25
40 Q0 CSIRO182-15593377 177 8.09978 bm25
40 Q0 CSIRO184-12961813 178 8.08747 bm25
40 Q0 CSIRO184-13004367 179 8.08301 bm25
40 Q0 CSIRO137-10553358 180 8.08004 bm25
40 Q0 CSIRO183-08906815 181 8.06708 bm25
40 Q0 CSIRO182-02754981 182 8.06627 bm25
40 Q0 CSIRO181-11202850 183 8.06427 bm25
40 Q0 CSIRO182-03903694 184 8.05595 bm25
40 Q0 CSIRO183-09357364 185 8.05318 bm25
40 Q0 CSIRO183-10558509 186 8.02453 bm25
40 Q0 CSIRO182-15783026 187 8.02303 bm25
40 Q0 CSIRO137-09660944 188 8.00497 bm25
40 Q0 CSIRO182-02981434 189 8.00188 bm25
40 Q0 CSIRO182-03023319 190 8.00151 bm25
40 Q0 CSIRO184-13159486 191 8.00026 bm25
40 Q0 CSIRO184-13008153 192 7.98612 bm25
40 Q0 CSIRO182-03153731 193 7.97845 bm25
40 Q0 CSIRO182-09655957 194 7.97365 bm25
40 Q0 CSIRO183-04134607 195 7.97095 bm25
40 Q0 CSIRO182-15503407 196 7.96883 bm25
40 Q0 CSIRO183-04113483 197 7.95851 bm25
40 Q0 CSIRO183-08064833 198 7.95618 bm25
40 Q0 CSIRO183-16106130 199 7.95487 bm25
