18 Q0 CSIRO173-13411289 1 8.46203 bm25
18 Q0 CSIRO173-13388894 2 8.30892 bm25
18 Q0 CSIRO173-13477325 3 8.26489 bm25
18 Q0 CSIRO174-06936324 4 8.12012 bm25
18 Q0 CSIRO174-11656323 5 7.85309 bm25
18 Q0 CSIRO173-09395701 6 7.80869 bm25
18 Q0 CSIRO136-00274327 7 7.80444 bm25
18 Q0 CSIRO138-11705454 8 7.71792 bm25
18 Q0 CSIRO174-08739353 9 7.6617 bm25
18 Q0 CSIRO174-10714349 10 7.59381 bm25
18 Q0 CSIRO145-00175409 11 7.56856 bm25
18 Q0 CSIRO174-07427686 12 7.54961 bm25
18 Q0 CSIRO174-08352781 13 7.45508 bm25
18 Q0 CSIRO173-13329840 14 7.40473 bm25
18 Q0 CSIRO138-11613909 15 7.39869 bm25
18 Q0 CSIRO174-11665582 16 7.39726 bm25
18 Q0 CSIRO173-13301001 17 7.34215 bm25
18 Q0 CSIRO145-00185091 18 7.33864 bm25
18 Q0 CSIRO112-16164468 19 7.26334 bm25
18 Q0 CSIRO265-04695567 20 7.21392 bm25
18 Q0 CSIRO148-06582780 21 7.16658 bm25
18 Q0 CSIRO174-06371550 22 7.12363 bm25
18 Q0 CSIRO063-09922950 23 7.06929 bm25
18 Q0 CSIRO174-10053786 24 7.06833 bm25
18 Q0 CSIRO112-08726461 25 7.0325 bm25
18 Q0 CSIRO174-08749227 26 7.02598 bm25
18 Q0 CSIRO174-11671447 27 6.94628 bm25
18 Q0 CSIRO265-04518060 28 6.93951 bm25
18 Q0 CSIRO174-10256332 29 6.92722 bm25
18 Q0 CSIRO174-05528642 30 6.892 bm25
18 Q0 CSIRO112-13422216 31 6.82856 bm25
18 Q0 CSIRO174-06318265 32 6.81043 bm25
18 Q0 CSIRO174-10724120 33 6.80585 bm25
18 Q0 CSIRO174-10063325 34 6.78173 bm25
18 Q0 CSIRO139-00887299 35 6.75416 bm25
18 Q0 CSIRO173-12485026 36 6.69857 bm25
18 Q0 CSIRO174-06224764 37 6.66523 bm25
18 Q0 CSIRO173-09186457 38 6.62062 bm25
18 Q0 CSIRO146-15227673 39 6.60296 bm25
18 Q0 CSIRO174-00743229 40 6.59708 bm25
18 Q0 CSIRO132-01480712 41 6.5902 bm25
18 Q0 CSIRO174-06719430 42 6.58115 bm25
18 Q0 CSIRO174-04274536 43 6.50911 bm25
18 Q0 CSIRO174-04208488 44 6.50818 bm25
18 Q0 CSIRO146-15237102 45 6.48948 bm25
18 Q0 CSIRO139-00823094 46 6.47768 bm25
18 Q0 CSIRO173-10183944 47 6.44804 bm25
18 Q0 CSIRO173-09067587 48 6.4444 bm25
18 Q0 CSIRO174-06386805 49 6.4431 bm25
18 Q0 CSIRO173-07310968 50 6.4127 bm25
18 Q0 CSIRO173-03738578 51 6.40588 bm25
18 Q0 CSIRO174-06866147 52 6.40175 bm25
18 Q0 CSIRO173-07338935 53 6.39801 bm25
18 Q0 CSIRO173-09455080 54 6.38906 bm25
18 Q0 CSIRO173-06190581 55 6.38801 bm25
18 Q0 CSIRO173-09511749 56 6.37896 bm25
18 Q0 CSIRO136-07741817 57 6.37875 bm25
18 Q0 CSIRO082-15739164 58 6.37271 bm25
18 Q0 CSIRO138-14626853 59 6.36414 bm25
18 Q0 CSIRO174-11736409 60 6.36039 bm25
18 Q0 CSIRO174-07353858 61 6.34568 bm25
18 Q0 CSIRO144-14782832 62 6.32622 bm25
18 Q0 CSIRO081-04900273 63 6.32429 bm25
18 Q0 CSIRO139-16464837 64 6.31401 bm25
18 Q0 CSIRO082-15931423 65 6.28892 bm25
18 Q0 CSIRO174-10349307 66 6.24877 bm25
18 Q0 CSIRO174-10266445 67 6.24845 bm25
18 Q0 CSIRO141-16595363 68 6.22775 bm25
18 Q0 CSIRO144-04648798 69 6.22282 bm25
18 Q0 CSIRO266-00497054 70 6.22105 bm25
18 Q0 CSIRO174-04285070 71 6.20831 bm25
18 Q0 CSIRO174-08361316 72 6.18908 bm25
18 Q0 CSIRO144-14792583 73 6.17084 bm25
18 Q0 CSIRO173-03622642 74 6.14973 bm25
18 Q0 CSIRO173-06120053 75 6.12378 bm25
18 Q0 CSIRO174-04255288 76 6.07928 bm25
18 Q0 CSIRO173-08176036 77 6.05965 bm25
18 Q0 CSIRO174-01926840 78 6.05742 bm25
18 Q0 CSIRO173-07356254 79 6.05107 bm25
18 Q0 CSIRO138-14564246 80 6.03693 bm25
18 Q0 CSIRO173-05868131 81 6.02531 bm25
18 Q0 CSIRO144-10645545 82 6.00361 bm25
18 Q0 CSIRO265-13529784 83 5.99673 bm25
18 Q0 CSIRO189-16668082 84 5.99581 bm25
18 Q0 CSIRO174-05616963 85 5.97334 bm25
18 Q0 CSIRO174-03789510 86 5.95619 bm25
18 Q0 CSIRO173-08128273 87 5.95229 bm25
18 Q0 CSIRO139-16523214 88 5.94265 bm25
18 Q0 CSIRO173-05696294 89 5.93842 bm25
18 Q0 CSIRO144-05083307 90 5.91717 bm25
18 Q0 CSIRO138-11981182 91 5.89097 bm25
18 Q0 CSIRO145-10255578 92 5.85416 bm25
18 Q0 CSIRO173-09311786 93 5.83552 bm25
18 Q0 CSIRO265-04506474 94 5.83238 bm25
18 Q0 CSIRO265-04600614 95 5.8214 bm25
18 Q0 CSIRO265-04588639 96 5.8214 bm25
18 Q0 CSIRO265-04576658 97 5.8214 bm25
18 Q0 CSIRO265-04552705 98 5.8214 bm25
18 Q0 CSIRO265-04540718 99 5.8214 bm25
18 Q0 CSIRO265-04528716 100 5.8214 bm25
18 Q0 CSIRO265-04612601 101 5.8214 bm25
18 Q0 CSIRO265-04489131 102 5.8214 bm25
18 Q0 CSIRO265-04624567 103 5.8214 bm25
18 Q0 CSIRO265-04564683 104 5.8214 bm25
18 Q0 CSIRO173-05838826 105 5.80608 bm25
18 Q0 CSIRO173-06127828 106 5.80498 bm25
18 Q0 CSIRO173-09303400 107 5.79565 bm25
18 Q0 CSIRO173-05561985 108 5.76931 bm25
18 Q0 CSIRO127-00452705 109 5.7604 bm25
18 Q0 CSIRO173-05885227 110 5.76002 bm25
18 Q0 CSIRO173-03825700 111 5.72483 bm25
18 Q0 CSIRO173-13096336 112 5.71556 bm25
18 Q0 CSIRO133-01938709 113 5.70817 bm25
18 Q0 CSIRO144-04793450 114 5.7059 bm25
18 Q0 CSIRO144-04701637 115 5.7059 bm25
18 Q0 CSIRO144-04721087 116 5.7059 bm25
18 Q0 CSIRO144-04740532 117 5.7059 bm25
18 Q0 CSIRO144-04812896 118 5.7059 bm25
18 Q0 CSIRO144-05063857 119 5.7059 bm25
18 Q0 CSIRO174-10358387 120 5.70359 bm25
18 Q0 CSIRO144-05140025 121 5.70193 bm25
18 Q0 CSIRO144-05120550 122 5.70193 bm25
18 Q0 CSIRO144-05044397 123 5.70193 bm25
18 Q0 CSIRO144-04854514 124 5.70193 bm25
18 Q0 CSIRO144-04905894 125 5.70193 bm25
18 Q0 CSIRO144-04964312 126 5.70193 bm25
18 Q0 CSIRO144-04983762 127 5.70193 bm25
18 Q0 CSIRO144-05003261 128 5.70193 bm25
18 Q0 CSIRO173-07377425 129 5.70156 bm25
18 Q0 CSIRO144-04925349 130 5.69796 bm25
18 Q0 CSIRO144-04944833 131 5.69796 bm25
18 Q0 CSIRO144-04674197 132 5.66821 bm25
18 Q0 CSIRO174-02575649 133 5.6584 bm25
18 Q0 CSIRO174-02779949 134 5.6539 bm25
18 Q0 CSIRO265-04646967 135 5.6537 bm25
18 Q0 CSIRO144-08436621 136 5.65029 bm25
18 Q0 CSIRO144-08202690 137 5.64649 bm25
18 Q0 CSIRO174-02563297 138 5.63588 bm25
18 Q0 CSIRO173-05632755 139 5.62455 bm25
18 Q0 CSIRO174-10303178 140 5.62287 bm25
18 Q0 CSIRO173-03843716 141 5.58582 bm25
18 Q0 CSIRO133-01846968 142 5.56918 bm25
18 Q0 CSIRO173-09378472 143 5.56728 bm25
18 Q0 CSIRO173-03613971 144 5.56005 bm25
18 Q0 CSIRO180-12785160 145 5.54985 bm25
18 Q0 CSIRO173-05855596 146 5.52979 bm25
18 Q0 CSIRO144-05022756 147 5.52916 bm25
18 Q0 CSIRO173-10371925 148 5.51216 bm25
18 Q0 CSIRO188-11770423 149 5.50149 bm25
18 Q0 CSIRO173-06202960 150 5.47086 bm25
18 Q0 CSIRO188-11788375 151 5.46794 bm25
18 Q0 CSIRO173-05778421 152 5.466 bm25
18 Q0 CSIRO146-00587153 153 5.45438 bm25
18 Q0 CSIRO173-09287207 154 5.45349 bm25
18 Q0 CSIRO144-11455872 155 5.45029 bm25
18 Q0 CSIRO144-04832342 156 5.44153 bm25
18 Q0 CSIRO174-10698791 157 5.43907 bm25
18 Q0 CSIRO173-15323022 158 5.43623 bm25
18 Q0 CSIRO173-13419999 159 5.41003 bm25
18 Q0 CSIRO140-04216611 160 5.40704 bm25
18 Q0 CSIRO174-06603516 161 5.39885 bm25
18 Q0 CSIRO112-09584334 162 5.39157 bm25
18 Q0 CSIRO173-09270911 163 5.38801 bm25
18 Q0 CSIRO173-16059910 164 5.38588 bm25
18 Q0 CSIRO065-13762163 165 5.38577 bm25
18 Q0 CSIRO144-04873960 166 5.3681 bm25
18 Q0 CSIRO145-10265794 167 5.34919 bm25
18 Q0 CSIRO174-11694737 168 5.34551 bm25
18 Q0 CSIRO144-11465541 169 5.34531 bm25
18 Q0 CSIRO174-05647400 170 5.3434 bm25
18 Q0 CSIRO173-09518716 171 5.32775 bm25
18 Q0 CSIRO173-03630075 172 5.32626 bm25
18 Q0 CSIRO174-07757722 173 5.31716 bm25
18 Q0 CSIRO173-05679876 174 5.29589 bm25
18 Q0 CSIRO173-05745472 175 5.28013 bm25
18 Q0 CSIRO173-13359925 176 5.26877 bm25
18 Q0 CSIRO142-03198882 177 5.22075 bm25
18 Q0 CSIRO174-10312770 178 5.21276 bm25
18 Q0 CSIRO145-10228675 179 5.20763 bm25
18 Q0 CSIRO139-13145412 180 5.19493 bm25
18 Q0 CSIRO174-11682154 181 5.18603 bm25
18 Q0 CSIRO173-05654318 182 5.17642 bm25
18 Q0 CSIRO173-13325804 183 5.17295 bm25
18 Q0 CSIRO173-05785939 184 5.16426 bm25
18 Q0 CSIRO173-07391363 185 5.16081 bm25
18 Q0 CSIRO180-12750202 186 5.14019 bm25
18 Q0 CSIRO082-15791908 187 5.11213 bm25
18 Q0 CSIRO183-13202040 188 5.10265 bm25
18 Q0 CSIRO140-04205358 189 5.1005 bm25
18 Q0 CSIRO132-01989416 190 5.10013 bm25
18 Q0 CSIRO146-14405981 191 5.07917 bm25
18 Q0 CSIRO140-04169698 192 5.06171 bm25
18 Q0 CSIRO133-02008790 193 5.06142 bm25
18 Q0 CSIRO174-09664363 194 5.04099 bm25
18 Q0 CSIRO188-09779245 195 5.03891 bm25
18 Q0 CSIRO173-13285955 196 5.01739 bm25
18 Q0 CSIRO174-08507818 197 5.00226 bm25
18 Q0 CSIRO265-04659785 198 4.99844 bm25
18 Q0 CSIRO174-07383693 199 4.9957 bm25
