5 Q0 CSIRO257-03932692 1 5.67585 bm25
5 Q0 CSIRO145-11423992 2 5.64712 bm25
5 Q0 CSIRO258-09588294 3 5.64028 bm25
5 Q0 CSIRO172-04053687 4 5.63925 bm25
5 Q0 CSIRO172-04106155 5 5.61357 bm25
5 Q0 CSIRO258-09598386 6 5.59843 bm25
5 Q0 CSIRO145-11435393 7 5.59445 bm25
5 Q0 CSIRO201-01055268 8 5.58999 bm25
5 Q0 CSIRO201-00341640 9 5.58521 bm25
5 Q0 CSIRO258-09578742 10 5.57903 bm25
5 Q0 CSIRO066-10413555 11 5.57073 bm25
5 Q0 CSIRO066-10349872 12 5.57073 bm25
5 Q0 CSIRO201-01489774 13 5.57073 bm25
5 Q0 CSIRO066-10382051 14 5.56432 bm25
5 Q0 CSIRO147-04594634 15 5.55515 bm25
5 Q0 CSIRO172-04524058 16 5.54347 bm25
5 Q0 CSIRO257-04292639 17 5.54163 bm25
5 Q0 CSIRO200-06535435 18 5.52582 bm25
5 Q0 CSIRO172-04147836 19 5.52468 bm25
5 Q0 CSIRO126-07016734 20 5.52468 bm25
5 Q0 CSIRO136-16380054 21 5.5245 bm25
5 Q0 CSIRO258-09538339 22 5.52216 bm25
5 Q0 CSIRO172-03993518 23 5.5182 bm25
5 Q0 CSIRO172-04909208 24 5.50133 bm25
5 Q0 CSIRO144-10763586 25 5.49819 bm25
5 Q0 CSIRO200-10109829 26 5.4954 bm25
5 Q0 CSIRO172-04183536 27 5.49518 bm25
5 Q0 CSIRO265-15334962 28 5.4943 bm25
5 Q0 CSIRO258-09611444 29 5.49081 bm25
5 Q0 CSIRO192-06319336 30 5.47585 bm25
5 Q0 CSIRO200-11794555 31 5.47265 bm25
5 Q0 CSIRO200-11188221 32 5.47123 bm25
5 Q0 CSIRO145-08503971 33 5.46765 bm25
5 Q0 CSIRO265-15370389 34 5.45334 bm25
5 Q0 CSIRO172-11297644 35 5.44343 bm25
5 Q0 CSIRO126-14389499 36 5.44007 bm25
5 Q0 CSIRO172-04488082 37 5.43693 bm25
5 Q0 CSIRO200-05823692 38 5.43571 bm25
5 Q0 CSIRO144-08979569 39 5.43492 bm25
5 Q0 CSIRO200-06982027 40 5.43485 bm25
5 Q0 CSIRO137-01061432 41 5.42489 bm25
5 Q0 CSIRO257-04398159 42 5.42419 bm25
5 Q0 CSIRO145-13233068 43 5.41645 bm25
5 Q0 CSIRO145-08514470 44 5.41539 bm25
5 Q0 CSIRO126-04289983 45 5.41328 bm25
5 Q0 CSIRO265-14828234 46 5.40696 bm25
5 Q0 CSIRO146-06494473 47 5.40563 bm25
5 Q0 CSIRO063-02599173 48 5.40265 bm25
5 Q0 CSIRO265-15347234 49 5.40018 bm25
5 Q0 CSIRO201-01360817 50 5.39996 bm25
5 Q0 CSIRO200-07181078 51 5.39912 bm25
5 Q0 CSIRO126-04369225 52 5.39608 bm25
5 Q0 CSIRO258-09569746 53 5.39249 bm25
5 Q0 CSIRO127-01931802 54 5.39238 bm25
5 Q0 CSIRO172-04679185 55 5.39095 bm25
5 Q0 CSIRO187-13369786 56 5.38565 bm25
5 Q0 CSIRO172-04643233 57 5.38552 bm25
5 Q0 CSIRO131-14181763 58 5.38092 bm25
5 Q0 CSIRO172-04404809 59 5.37898 bm25
5 Q0 CSIRO200-08471692 60 5.37497 bm25
5 Q0 CSIRO200-05729436 61 5.37474 bm25
5 Q0 CSIRO200-07404758 62 5.3747 bm25
5 Q0 CSIRO200-05267272 63 5.37405 bm25
5 Q0 CSIRO172-04314475 64 5.37032 bm25
5 Q0 CSIRO172-03957466 65 5.3684 bm25
5 Q0 CSIRO068-03915327 66 5.36812 bm25
5 Q0 CSIRO129-10005518 67 5.36794 bm25
5 Q0 CSIRO073-02067648 68 5.36727 bm25
5 Q0 CSIRO069-00311329 69 5.36641 bm25
5 Q0 CSIRO207-03159714 70 5.36641 bm25
5 Q0 CSIRO200-04326007 71 5.36507 bm25
5 Q0 CSIRO137-06773887 72 5.3647 bm25
5 Q0 CSIRO200-11542307 73 5.36116 bm25
5 Q0 CSIRO200-09845767 74 5.35958 bm25
5 Q0 CSIRO200-11954690 75 5.35711 bm25
5 Q0 CSIRO136-13976837 76 5.35464 bm25
5 Q0 CSIRO254-03611601 77 5.35363 bm25
5 Q0 CSIRO146-05428922 78 5.35196 bm25
5 Q0 CSIRO172-05207092 79 5.35196 bm25
5 Q0 CSIRO200-05855069 80 5.35081 bm25
5 Q0 CSIRO126-14695029 81 5.34917 bm25
5 Q0 CSIRO141-02767497 82 5.34709 bm25
5 Q0 CSIRO131-14188199 83 5.3392 bm25
5 Q0 CSIRO172-04004541 84 5.3358 bm25
5 Q0 CSIRO137-09643821 85 5.33374 bm25
5 Q0 CSIRO257-03480936 86 5.3329 bm25
5 Q0 CSIRO200-08140180 87 5.33183 bm25
5 Q0 CSIRO257-03179665 88 5.32866 bm25
5 Q0 CSIRO126-11065026 89 5.32762 bm25
5 Q0 CSIRO200-06288293 90 5.32645 bm25
5 Q0 CSIRO201-01391431 91 5.32119 bm25
5 Q0 CSIRO200-08706107 92 5.31813 bm25
5 Q0 CSIRO200-12604413 93 5.31759 bm25
5 Q0 CSIRO172-04067760 94 5.3171 bm25
5 Q0 CSIRO200-15545313 95 5.31503 bm25
5 Q0 CSIRO200-06256582 96 5.30882 bm25
5 Q0 CSIRO131-14647279 97 5.30389 bm25
5 Q0 CSIRO200-05330109 98 5.3016 bm25
5 Q0 CSIRO140-02175170 99 5.30141 bm25
5 Q0 CSIRO127-10272148 100 5.29941 bm25
5 Q0 CSIRO172-04372048 101 5.29749 bm25
5 Q0 CSIRO200-04636818 102 5.29542 bm25
5 Q0 CSIRO201-01207339 103 5.29475 bm25
5 Q0 CSIRO127-05122665 104 5.29348 bm25
5 Q0 CSIRO265-14966045 105 5.2914 bm25
5 Q0 CSIRO200-05143463 106 5.28926 bm25
5 Q0 CSIRO257-04521418 107 5.28919 bm25
5 Q0 CSIRO078-13286918 108 5.2891 bm25
5 Q0 CSIRO073-03487954 109 5.28801 bm25
5 Q0 CSIRO207-04959143 110 5.28692 bm25
5 Q0 CSIRO069-01885833 111 5.28692 bm25
5 Q0 CSIRO200-06951836 112 5.28692 bm25
5 Q0 CSIRO254-03707926 113 5.28456 bm25
5 Q0 CSIRO126-09673034 114 5.28428 bm25
5 Q0 CSIRO137-07562461 115 5.28126 bm25
5 Q0 CSIRO200-14438201 116 5.2808 bm25
5 Q0 CSIRO200-14377173 117 5.27733 bm25
5 Q0 CSIRO200-11479206 118 5.27714 bm25
5 Q0 CSIRO200-10175271 119 5.27488 bm25
5 Q0 CSIRO136-11399251 120 5.27396 bm25
5 Q0 CSIRO126-06998577 121 5.27039 bm25
5 Q0 CSIRO126-04787366 122 5.2694 bm25
5 Q0 CSIRO200-10703914 123 5.26882 bm25
5 Q0 CSIRO200-04573042 124 5.26632 bm25
5 Q0 CSIRO254-03841274 125 5.26272 bm25
5 Q0 CSIRO257-03348730 126 5.26251 bm25
5 Q0 CSIRO172-04164281 127 5.26147 bm25
5 Q0 CSIRO172-04195028 128 5.26147 bm25
5 Q0 CSIRO201-01562588 129 5.26145 bm25
5 Q0 CSIRO141-06643375 130 5.26003 bm25
5 Q0 CSIRO258-09530960 131 5.25815 bm25
5 Q0 CSIRO200-14406863 132 5.25773 bm25
5 Q0 CSIRO200-11986868 133 5.25769 bm25
5 Q0 CSIRO200-07626621 134 5.25562 bm25
5 Q0 CSIRO145-13241899 135 5.25016 bm25
5 Q0 CSIRO172-07371835 136 5.24979 bm25
5 Q0 CSIRO172-05064431 137 5.24896 bm25
5 Q0 CSIRO200-04604603 138 5.24753 bm25
5 Q0 CSIRO200-16470863 139 5.24549 bm25
5 Q0 CSIRO126-15102700 140 5.24479 bm25
5 Q0 CSIRO200-07914155 141 5.24479 bm25
5 Q0 CSIRO138-03206581 142 5.24402 bm25
5 Q0 CSIRO200-05947582 143 5.24051 bm25
5 Q0 CSIRO172-04120662 144 5.23837 bm25
5 Q0 CSIRO265-14910139 145 5.23815 bm25
5 Q0 CSIRO200-10609692 146 5.23449 bm25
5 Q0 CSIRO200-08242863 147 5.23303 bm25
5 Q0 CSIRO200-11635735 148 5.2309 bm25
5 Q0 CSIRO265-15460168 149 5.22916 bm25
5 Q0 CSIRO265-15006664 150 5.22811 bm25
5 Q0 CSIRO200-11349696 151 5.2277 bm25
5 Q0 CSIRO265-15447119 152 5.22742 bm25
5 Q0 CSIRO172-04031325 153 5.22475 bm25
5 Q0 CSIRO254-04139175 154 5.22349 bm25
5 Q0 CSIRO200-04796656 155 5.22349 bm25
5 Q0 CSIRO066-10327163 156 5.22228 bm25
5 Q0 CSIRO200-05049034 157 5.22009 bm25
5 Q0 CSIRO200-12049901 158 5.2192 bm25
5 Q0 CSIRO172-04689387 159 5.21868 bm25
5 Q0 CSIRO265-14937377 160 5.21788 bm25
5 Q0 CSIRO200-12208614 161 5.21669 bm25
5 Q0 CSIRO200-16254287 162 5.21626 bm25
5 Q0 CSIRO254-04007454 163 5.21489 bm25
5 Q0 CSIRO172-04300956 164 5.21352 bm25
5 Q0 CSIRO200-07308910 165 5.21217 bm25
5 Q0 CSIRO200-05699706 166 5.20924 bm25
5 Q0 CSIRO172-05181653 167 5.20677 bm25
5 Q0 CSIRO200-13272300 168 5.20534 bm25
5 Q0 CSIRO200-13211111 169 5.20428 bm25
5 Q0 CSIRO172-05078187 170 5.19987 bm25
5 Q0 CSIRO126-09305483 171 5.19911 bm25
5 Q0 CSIRO200-04765209 172 5.19815 bm25
5 Q0 CSIRO200-14620885 173 5.19815 bm25
5 Q0 CSIRO145-13916956 174 5.19806 bm25
5 Q0 CSIRO201-01869403 175 5.19799 bm25
5 Q0 CSIRO200-10143102 176 5.19305 bm25
5 Q0 CSIRO201-03365340 177 5.19159 bm25
5 Q0 CSIRO200-07245167 178 5.19108 bm25
5 Q0 CSIRO201-01818767 179 5.18871 bm25
5 Q0 CSIRO147-03119963 180 5.18736 bm25
5 Q0 CSIRO172-04133007 181 5.18666 bm25
5 Q0 CSIRO201-00374205 182 5.18463 bm25
5 Q0 CSIRO265-15358687 183 5.18334 bm25
5 Q0 CSIRO200-06726714 184 5.18299 bm25
5 Q0 CSIRO200-04511475 185 5.18205 bm25
5 Q0 CSIRO172-04670383 186 5.18147 bm25
5 Q0 CSIRO127-00031353 187 5.17948 bm25
5 Q0 CSIRO265-16153640 188 5.17948 bm25
5 Q0 CSIRO172-05128582 189 5.17926 bm25
5 Q0 CSIRO200-04296715 190 5.1759 bm25
5 Q0 CSIRO172-04614692 191 5.17285 bm25
5 Q0 CSIRO137-10847285 192 5.17181 bm25
5 Q0 CSIRO201-03554341 193 5.16994 bm25
5 Q0 CSIRO200-15790214 194 5.16895 bm25
5 Q0 CSIRO172-04215941 195 5.16713 bm25
5 Q0 CSIRO200-07563160 196 5.16705 bm25
5 Q0 CSIRO200-15852246 197 5.16665 bm25
5 Q0 CSIRO254-03643624 198 5.16519 bm25
5 Q0 CSIRO138-09783410 199 5.16148 bm25
