50 Q0 CSIRO119-07987816 1 10.6777 tfidf
50 Q0 CSIRO119-16234099 2 10.5631 tfidf
50 Q0 CSIRO130-11999758 3 10.5083 tfidf
50 Q0 CSIRO119-09054197 4 10.4236 tfidf
50 Q0 CSIRO119-07360331 5 10.385 tfidf
50 Q0 CSIRO148-03957246 6 10.36 tfidf
50 Q0 CSIRO148-04110586 7 10.36 tfidf
50 Q0 CSIRO119-06136300 8 10.1985 tfidf
50 Q0 CSIRO119-03143433 9 10.1308 tfidf
50 Q0 CSIRO119-04833295 10 10.0439 tfidf
50 Q0 CSIRO130-10332504 11 10.0116 tfidf
50 Q0 CSIRO119-04466231 12 9.88939 tfidf
50 Q0 CSIRO119-07513612 13 9.88833 tfidf
50 Q0 CSIRO119-06250149 14 9.7199 tfidf
50 Q0 CSIRO119-16357130 15 9.58221 tfidf
50 Q0 CSIRO119-13015365 16 9.47213 tfidf
50 Q0 CSIRO135-09089936 17 9.34142 tfidf
50 Q0 CSIRO141-05420421 18 9.33263 tfidf
50 Q0 CSIRO119-13074327 19 9.32543 tfidf
50 Q0 CSIRO119-16158127 20 9.18309 tfidf
50 Q0 CSIRO146-02482554 21 9.17295 tfidf
50 Q0 CSIRO146-03036265 22 9.17295 tfidf
50 Q0 CSIRO147-03954897 23 9.16202 tfidf
50 Q0 CSIRO116-03727811 24 9.03923 tfidf
50 Q0 CSIRO136-00770129 25 9.00816 tfidf
50 Q0 CSIRO147-05343118 26 9.00313 tfidf
50 Q0 CSIRO131-06889541 27 8.99387 tfidf
50 Q0 CSIRO147-06540842 28 8.98785 tfidf
50 Q0 CSIRO101-06914842 29 8.95192 tfidf
50 Q0 CSIRO144-16031155 30 8.94359 tfidf
50 Q0 CSIRO111-15840668 31 8.90943 tfidf
50 Q0 CSIRO119-12966683 32 8.84943 tfidf
50 Q0 CSIRO140-04539147 33 8.84004 tfidf
50 Q0 CSIRO120-01949967 34 8.84004 tfidf
50 Q0 CSIRO141-05514136 35 8.82196 tfidf
50 Q0 CSIRO130-06157343 36 8.81855 tfidf
50 Q0 CSIRO119-12990633 37 8.7887 tfidf
50 Q0 CSIRO102-06692011 38 8.7733 tfidf
50 Q0 CSIRO132-01583924 39 8.66397 tfidf
50 Q0 CSIRO119-14327112 40 8.65114 tfidf
50 Q0 CSIRO113-05349689 41 8.62529 tfidf
50 Q0 CSIRO146-12743315 42 8.61264 tfidf
50 Q0 CSIRO140-04528831 43 8.61155 tfidf
50 Q0 CSIRO190-06229998 44 8.60749 tfidf
50 Q0 CSIRO144-16021163 45 8.57217 tfidf
50 Q0 CSIRO120-01969110 46 8.53225 tfidf
50 Q0 CSIRO079-14748894 47 8.50638 tfidf
50 Q0 CSIRO135-09430735 48 8.43657 tfidf
50 Q0 CSIRO147-09963203 49 8.43623 tfidf
50 Q0 CSIRO147-08666101 50 8.41326 tfidf
50 Q0 CSIRO139-12117799 51 8.34802 tfidf
50 Q0 CSIRO119-14230498 52 8.31236 tfidf
50 Q0 CSIRO120-02139268 53 8.29673 tfidf
50 Q0 CSIRO130-13200941 54 8.29673 tfidf
50 Q0 CSIRO145-16135941 55 8.27189 tfidf
50 Q0 CSIRO113-07282041 56 8.25683 tfidf
50 Q0 CSIRO147-08591053 57 8.24135 tfidf
50 Q0 CSIRO113-07988723 58 8.22495 tfidf
50 Q0 CSIRO136-11675287 59 8.18645 tfidf
50 Q0 CSIRO138-02880072 60 8.18645 tfidf
50 Q0 CSIRO127-01524837 61 8.1363 tfidf
50 Q0 CSIRO117-08224690 62 8.12704 tfidf
50 Q0 CSIRO130-06307088 63 8.11972 tfidf
50 Q0 CSIRO119-06796045 64 8.11631 tfidf
50 Q0 CSIRO147-02245629 65 8.10598 tfidf
50 Q0 CSIRO147-06191116 66 8.10598 tfidf
50 Q0 CSIRO130-09148901 67 8.08538 tfidf
50 Q0 CSIRO119-06594070 68 8.08538 tfidf
50 Q0 CSIRO138-01828989 69 8.08538 tfidf
50 Q0 CSIRO136-12752648 70 8.08538 tfidf
50 Q0 CSIRO136-13042639 71 8.08353 tfidf
50 Q0 CSIRO139-12106379 72 8.07315 tfidf
50 Q0 CSIRO134-11855437 73 8.06573 tfidf
50 Q0 CSIRO130-08278681 74 8.05822 tfidf
50 Q0 CSIRO119-08167550 75 8.0411 tfidf
50 Q0 CSIRO147-09474513 76 8.03094 tfidf
50 Q0 CSIRO119-14420895 77 8.00063 tfidf
50 Q0 CSIRO112-01531358 78 7.97586 tfidf
50 Q0 CSIRO266-04184084 79 7.97247 tfidf
50 Q0 CSIRO111-15993576 80 7.97171 tfidf
50 Q0 CSIRO119-14145278 81 7.95947 tfidf
50 Q0 CSIRO119-14387253 82 7.90503 tfidf
50 Q0 CSIRO137-09971386 83 7.90503 tfidf
50 Q0 CSIRO111-16092873 84 7.86635 tfidf
50 Q0 CSIRO146-12804236 85 7.86504 tfidf
50 Q0 CSIRO119-04421977 86 7.84656 tfidf
50 Q0 CSIRO190-07493483 87 7.8202 tfidf
50 Q0 CSIRO145-11725455 88 7.81412 tfidf
50 Q0 CSIRO145-11710307 89 7.81412 tfidf
50 Q0 CSIRO147-08631178 90 7.7834 tfidf
50 Q0 CSIRO137-00172029 91 7.7834 tfidf
50 Q0 CSIRO130-07587334 92 7.75968 tfidf
50 Q0 CSIRO147-08936906 93 7.74096 tfidf
50 Q0 CSIRO135-08674632 94 7.74096 tfidf
50 Q0 CSIRO119-08798171 95 7.71475 tfidf
50 Q0 CSIRO147-08736717 96 7.70045 tfidf
50 Q0 CSIRO119-05213770 97 7.69728 tfidf
50 Q0 CSIRO135-15464231 98 7.68233 tfidf
50 Q0 CSIRO111-15780747 99 7.68233 tfidf
50 Q0 CSIRO179-09763602 100 7.64254 tfidf
50 Q0 CSIRO113-04539962 101 7.64254 tfidf
50 Q0 CSIRO147-10258487 102 7.6422 tfidf
50 Q0 CSIRO112-00985704 103 7.59509 tfidf
50 Q0 CSIRO137-01266937 104 7.59509 tfidf
50 Q0 CSIRO131-16185860 105 7.58777 tfidf
50 Q0 CSIRO112-02825901 106 7.58777 tfidf
50 Q0 CSIRO147-04202386 107 7.53055 tfidf
50 Q0 CSIRO137-03676315 108 7.48272 tfidf
50 Q0 CSIRO145-16125750 109 7.48272 tfidf
50 Q0 CSIRO138-03830834 110 7.46614 tfidf
50 Q0 CSIRO136-10500499 111 7.46614 tfidf
50 Q0 CSIRO135-11962203 112 7.46614 tfidf
50 Q0 CSIRO141-02994489 113 7.46348 tfidf
50 Q0 CSIRO189-13288140 114 7.46348 tfidf
50 Q0 CSIRO265-05887307 115 7.44544 tfidf
50 Q0 CSIRO119-13048487 116 7.4318 tfidf
50 Q0 CSIRO112-00892236 117 7.4318 tfidf
50 Q0 CSIRO147-05025422 118 7.41107 tfidf
50 Q0 CSIRO137-01801553 119 7.41107 tfidf
50 Q0 CSIRO147-09202703 120 7.41107 tfidf
50 Q0 CSIRO136-14528850 121 7.39748 tfidf
50 Q0 CSIRO147-08500067 122 7.39748 tfidf
50 Q0 CSIRO136-07152427 123 7.39748 tfidf
50 Q0 CSIRO119-07205178 124 7.38752 tfidf
50 Q0 CSIRO147-09722865 125 7.37736 tfidf
50 Q0 CSIRO112-02374753 126 7.37736 tfidf
50 Q0 CSIRO147-09146528 127 7.35812 tfidf
50 Q0 CSIRO119-02590755 128 7.34705 tfidf
50 Q0 CSIRO115-16611679 129 7.32961 tfidf
50 Q0 CSIRO119-06557975 130 7.31889 tfidf
50 Q0 CSIRO130-13654454 131 7.31889 tfidf
50 Q0 CSIRO174-07781840 132 7.31813 tfidf
50 Q0 CSIRO140-06484033 133 7.31813 tfidf
50 Q0 CSIRO141-03030090 134 7.31813 tfidf
50 Q0 CSIRO130-13108371 135 7.25929 tfidf
50 Q0 CSIRO130-07646708 136 7.25289 tfidf
50 Q0 CSIRO147-08472174 137 7.23915 tfidf
50 Q0 CSIRO117-09856936 138 7.2365 tfidf
50 Q0 CSIRO147-09120278 139 7.2365 tfidf
50 Q0 CSIRO145-04486399 140 7.2365 tfidf
50 Q0 CSIRO131-14870792 141 7.21277 tfidf
50 Q0 CSIRO138-03523132 142 7.21146 tfidf
50 Q0 CSIRO136-10899267 143 7.21146 tfidf
50 Q0 CSIRO116-01863712 144 7.15355 tfidf
50 Q0 CSIRO117-08791351 145 7.15355 tfidf
50 Q0 CSIRO147-07498975 146 7.14622 tfidf
50 Q0 CSIRO137-10348354 147 7.14622 tfidf
50 Q0 CSIRO137-07827609 148 7.14622 tfidf
50 Q0 CSIRO112-01146034 149 7.14622 tfidf
50 Q0 CSIRO112-00432459 150 7.11577 tfidf
50 Q0 CSIRO119-09724100 151 7.11577 tfidf
50 Q0 CSIRO148-04386559 152 7.11548 tfidf
50 Q0 CSIRO147-09432379 153 7.11188 tfidf
50 Q0 CSIRO136-14130995 154 7.11188 tfidf
50 Q0 CSIRO172-09431809 155 7.09264 tfidf
50 Q0 CSIRO119-04111539 156 7.09115 tfidf
50 Q0 CSIRO124-07372355 157 7.09115 tfidf
50 Q0 CSIRO101-07313136 158 7.09115 tfidf
50 Q0 CSIRO137-05924270 159 7.09115 tfidf
50 Q0 CSIRO137-07607296 160 7.09115 tfidf
50 Q0 CSIRO137-07681534 161 7.09115 tfidf
50 Q0 CSIRO147-06513003 162 7.09115 tfidf
50 Q0 CSIRO148-03728902 163 7.0437 tfidf
50 Q0 CSIRO062-10622543 164 7.04249 tfidf
50 Q0 CSIRO206-10324884 165 7.04086 tfidf
50 Q0 CSIRO205-00214180 166 7.04086 tfidf
50 Q0 CSIRO068-11155272 167 7.04086 tfidf
50 Q0 CSIRO140-06474228 168 7.04086 tfidf
50 Q0 CSIRO070-00791795 169 7.04086 tfidf
50 Q0 CSIRO131-06396329 170 7.04086 tfidf
50 Q0 CSIRO114-12357051 171 7.02875 tfidf
50 Q0 CSIRO147-08718380 172 7.02875 tfidf
50 Q0 CSIRO147-08459519 173 7.02875 tfidf
50 Q0 CSIRO117-10369133 174 6.96473 tfidf
50 Q0 CSIRO112-01613308 175 6.94729 tfidf
50 Q0 CSIRO119-05960221 176 6.94729 tfidf
50 Q0 CSIRO131-14983782 177 6.93581 tfidf
50 Q0 CSIRO147-05086352 178 6.93581 tfidf
50 Q0 CSIRO147-10187370 179 6.93581 tfidf
50 Q0 CSIRO147-02039744 180 6.93581 tfidf
50 Q0 CSIRO112-02488961 181 6.93581 tfidf
50 Q0 CSIRO147-08705274 182 6.93581 tfidf
50 Q0 CSIRO119-12834177 183 6.93581 tfidf
50 Q0 CSIRO114-07986249 184 6.92656 tfidf
50 Q0 CSIRO135-15373537 185 6.91923 tfidf
50 Q0 CSIRO095-11566659 186 6.8779 tfidf
50 Q0 CSIRO138-06128978 187 6.83045 tfidf
50 Q0 CSIRO147-09388127 188 6.83045 tfidf
50 Q0 CSIRO189-12591706 189 6.83045 tfidf
50 Q0 CSIRO138-02863103 190 6.83045 tfidf
50 Q0 CSIRO119-06502164 191 6.83045 tfidf
50 Q0 CSIRO136-12319121 192 6.83045 tfidf
50 Q0 CSIRO119-07932355 193 6.82914 tfidf
50 Q0 CSIRO180-15517031 194 6.81266 tfidf
50 Q0 CSIRO117-05881855 195 6.81266 tfidf
50 Q0 CSIRO138-03549474 196 6.77822 tfidf
50 Q0 CSIRO136-12100931 197 6.77822 tfidf
50 Q0 CSIRO111-15384287 198 6.77538 tfidf
50 Q0 CSIRO147-00736037 199 6.77538 tfidf
