1,0.04
1,0.08
1,0.12
1,0.16
1,0.2
1,0.24
0.857143,0.24
0.875,0.28
0.888889,0.32
0.9,0.36
0.818182,0.36
0.833333,0.4
0.769231,0.4
0.785714,0.44
0.8,0.48
0.8125,0.52
0.823529,0.56
0.833333,0.6
0.789474,0.6
0.75,0.6
0.761905,0.64
0.772727,0.68
0.782609,0.72
0.75,0.72
0.76,0.76
