32 Q0 CSIRO112-08388668 1 10.3942 tfidf
32 Q0 CSIRO082-06882168 2 10.2048 tfidf
32 Q0 CSIRO082-07908993 3 10.1474 tfidf
32 Q0 CSIRO173-04157429 4 10.1286 tfidf
32 Q0 CSIRO173-05342509 5 9.69227 tfidf
32 Q0 CSIRO173-06437291 6 9.52617 tfidf
32 Q0 CSIRO082-09065520 7 9.38042 tfidf
32 Q0 CSIRO173-06610015 8 9.16046 tfidf
32 Q0 CSIRO125-03780150 9 9.16046 tfidf
32 Q0 CSIRO173-05971705 10 9.01457 tfidf
32 Q0 CSIRO173-03270094 11 9.01457 tfidf
32 Q0 CSIRO125-06824715 12 9.0072 tfidf
32 Q0 CSIRO189-14724344 13 8.96432 tfidf
32 Q0 CSIRO136-00770129 14 8.72548 tfidf
32 Q0 CSIRO173-06956698 15 8.65446 tfidf
32 Q0 CSIRO173-07633105 16 8.65446 tfidf
32 Q0 CSIRO112-08466172 17 8.45941 tfidf
32 Q0 CSIRO130-09695170 18 8.38691 tfidf
32 Q0 CSIRO266-04184084 19 8.3549 tfidf
32 Q0 CSIRO125-08422537 20 8.35454 tfidf
32 Q0 CSIRO082-09309890 21 8.27772 tfidf
32 Q0 CSIRO145-10513660 22 8.27757 tfidf
32 Q0 CSIRO145-10523964 23 8.27757 tfidf
32 Q0 CSIRO173-06236385 24 8.23566 tfidf
32 Q0 CSIRO173-03750615 25 8.23566 tfidf
32 Q0 CSIRO125-06904966 26 7.99419 tfidf
32 Q0 CSIRO100-11414531 27 7.97355 tfidf
32 Q0 CSIRO189-13779527 28 7.93609 tfidf
32 Q0 CSIRO082-09304288 29 7.79587 tfidf
32 Q0 CSIRO082-09287330 30 7.78206 tfidf
32 Q0 CSIRO265-07510346 31 7.78167 tfidf
32 Q0 CSIRO125-04494713 32 7.73778 tfidf
32 Q0 CSIRO124-12977649 33 7.73742 tfidf
32 Q0 CSIRO130-11999758 34 7.67808 tfidf
32 Q0 CSIRO173-06983114 35 7.42107 tfidf
32 Q0 CSIRO173-07661668 36 7.42107 tfidf
32 Q0 CSIRO138-03642228 37 7.42107 tfidf
32 Q0 CSIRO082-09266453 38 7.37816 tfidf
32 Q0 CSIRO125-06712414 39 7.37707 tfidf
32 Q0 CSIRO125-04384078 40 7.37707 tfidf
32 Q0 CSIRO081-16768706 41 7.35643 tfidf
32 Q0 CSIRO125-05754714 42 7.28125 tfidf
32 Q0 CSIRO173-07649951 43 7.25928 tfidf
32 Q0 CSIRO173-06972157 44 7.25928 tfidf
32 Q0 CSIRO173-04679773 45 7.23154 tfidf
32 Q0 CSIRO131-16185860 46 7.17875 tfidf
32 Q0 CSIRO125-03742929 47 7.17766 tfidf
32 Q0 CSIRO125-06961282 48 7.17766 tfidf
32 Q0 CSIRO190-08809817 49 7.17657 tfidf
32 Q0 CSIRO082-09227680 50 7.12094 tfidf
32 Q0 CSIRO189-10363826 51 7.06205 tfidf
32 Q0 CSIRO135-13863313 52 7.06096 tfidf
32 Q0 CSIRO082-09318227 53 7.06008 tfidf
32 Q0 CSIRO148-03592223 54 7.02904 tfidf
32 Q0 CSIRO173-03561145 55 6.92372 tfidf
32 Q0 CSIRO124-13298011 56 6.92308 tfidf
32 Q0 CSIRO125-05545351 57 6.92263 tfidf
32 Q0 CSIRO125-04745771 58 6.92263 tfidf
32 Q0 CSIRO173-06923585 59 6.92199 tfidf
32 Q0 CSIRO173-07598980 60 6.92199 tfidf
32 Q0 CSIRO125-04273802 61 6.84466 tfidf
32 Q0 CSIRO125-08186394 62 6.84466 tfidf
32 Q0 CSIRO082-09154457 63 6.80529 tfidf
32 Q0 CSIRO082-09026939 64 6.76139 tfidf
32 Q0 CSIRO082-09247733 65 6.76104 tfidf
32 Q0 CSIRO173-07867402 66 6.75995 tfidf
32 Q0 CSIRO125-07210329 67 6.66804 tfidf
32 Q0 CSIRO112-09543307 68 6.66631 tfidf
32 Q0 CSIRO173-07979845 69 6.66631 tfidf
32 Q0 CSIRO173-04801828 70 6.66631 tfidf
32 Q0 CSIRO174-05553923 71 6.66631 tfidf
32 Q0 CSIRO190-02018011 72 6.66522 tfidf
32 Q0 CSIRO082-09091524 73 6.56382 tfidf
32 Q0 CSIRO082-09016534 74 6.56273 tfidf
32 Q0 CSIRO135-14090949 75 6.50491 tfidf
32 Q0 CSIRO104-13692309 76 6.44603 tfidf
32 Q0 CSIRO174-09389612 77 6.44296 tfidf
32 Q0 CSIRO113-00960402 78 6.44296 tfidf
32 Q0 CSIRO174-09455319 79 6.44296 tfidf
32 Q0 CSIRO190-09072845 80 6.44187 tfidf
32 Q0 CSIRO112-09756922 81 6.30769 tfidf
32 Q0 CSIRO112-00432459 82 6.30705 tfidf
32 Q0 CSIRO173-13781870 83 6.30705 tfidf
32 Q0 CSIRO082-09128806 84 6.3066 tfidf
32 Q0 CSIRO147-00805069 85 6.3066 tfidf
32 Q0 CSIRO173-06898548 86 6.30596 tfidf
32 Q0 CSIRO173-05286721 87 6.30596 tfidf
32 Q0 CSIRO173-06143606 88 6.30596 tfidf
32 Q0 CSIRO173-03691945 89 6.30596 tfidf
32 Q0 CSIRO173-07574609 90 6.30596 tfidf
32 Q0 CSIRO173-05064363 91 6.30596 tfidf
32 Q0 CSIRO125-07230592 92 6.14537 tfidf
32 Q0 CSIRO135-08674632 93 6.14537 tfidf
32 Q0 CSIRO111-15586318 94 6.14392 tfidf
32 Q0 CSIRO173-08047687 95 6.14392 tfidf
32 Q0 CSIRO173-03247417 96 6.14392 tfidf
32 Q0 CSIRO125-03881764 97 6.14392 tfidf
32 Q0 CSIRO173-04417506 98 6.14392 tfidf
32 Q0 CSIRO173-08204808 99 6.14392 tfidf
32 Q0 CSIRO148-03639217 100 6.05265 tfidf
32 Q0 CSIRO082-09314660 101 6.05092 tfidf
32 Q0 CSIRO147-00795052 102 6.05092 tfidf
32 Q0 CSIRO082-09215268 103 6.05092 tfidf
32 Q0 CSIRO125-03561272 104 6.05092 tfidf
32 Q0 CSIRO125-04956624 105 6.05092 tfidf
32 Q0 CSIRO082-09224288 106 6.05092 tfidf
32 Q0 CSIRO125-03973306 107 6.05092 tfidf
32 Q0 CSIRO173-06999276 108 6.05092 tfidf
32 Q0 CSIRO112-14938556 109 6.05092 tfidf
32 Q0 CSIRO173-09501208 110 6.05092 tfidf
32 Q0 CSIRO082-09145553 111 6.05092 tfidf
32 Q0 CSIRO173-07678626 112 6.05092 tfidf
32 Q0 CSIRO125-07326816 113 6.04919 tfidf
32 Q0 CSIRO189-10823696 114 6.04919 tfidf
32 Q0 CSIRO173-08128273 115 5.9467 tfidf
32 Q0 CSIRO101-07040819 116 5.9467 tfidf
32 Q0 CSIRO173-07162718 117 5.94561 tfidf
32 Q0 CSIRO254-13359299 118 5.94561 tfidf
32 Q0 CSIRO173-05105318 119 5.94561 tfidf
32 Q0 CSIRO190-01500776 120 5.94561 tfidf
32 Q0 CSIRO125-09228009 121 5.94561 tfidf
32 Q0 CSIRO082-09241321 122 5.94561 tfidf
32 Q0 CSIRO112-09590427 123 5.94561 tfidf
32 Q0 CSIRO190-11274269 124 5.94451 tfidf
32 Q0 CSIRO135-09430735 125 5.94451 tfidf
32 Q0 CSIRO112-09095615 126 5.82891 tfidf
32 Q0 CSIRO112-09113335 127 5.82891 tfidf
32 Q0 CSIRO111-15078378 128 5.82891 tfidf
32 Q0 CSIRO125-07621104 129 5.82584 tfidf
32 Q0 CSIRO125-04630530 130 5.82584 tfidf
32 Q0 CSIRO189-07241965 131 5.82584 tfidf
32 Q0 CSIRO125-04830322 132 5.82584 tfidf
32 Q0 CSIRO125-08739916 133 5.69166 tfidf
32 Q0 CSIRO081-11715260 134 5.69166 tfidf
32 Q0 CSIRO082-09219399 135 5.69057 tfidf
32 Q0 CSIRO111-14888365 136 5.69057 tfidf
32 Q0 CSIRO095-03048895 137 5.69057 tfidf
32 Q0 CSIRO082-08999345 138 5.69057 tfidf
32 Q0 CSIRO100-10775393 139 5.69057 tfidf
32 Q0 CSIRO125-12093514 140 5.69057 tfidf
32 Q0 CSIRO125-04163306 141 5.69057 tfidf
32 Q0 CSIRO082-09124574 142 5.68993 tfidf
32 Q0 CSIRO082-09174578 143 5.68993 tfidf
32 Q0 CSIRO173-06574427 144 5.68993 tfidf
32 Q0 CSIRO125-07477430 145 5.68993 tfidf
32 Q0 CSIRO126-01463150 146 5.68993 tfidf
32 Q0 CSIRO126-09774126 147 5.68993 tfidf
32 Q0 CSIRO125-05568289 148 5.68993 tfidf
32 Q0 CSIRO112-02075006 149 5.68993 tfidf
32 Q0 CSIRO137-08967568 150 5.68993 tfidf
32 Q0 CSIRO137-12490495 151 5.68993 tfidf
32 Q0 CSIRO112-08346852 152 5.68993 tfidf
32 Q0 CSIRO125-08574176 153 5.68884 tfidf
32 Q0 CSIRO063-04799107 154 5.68884 tfidf
32 Q0 CSIRO173-12834774 155 5.68884 tfidf
32 Q0 CSIRO192-02170638 156 5.68884 tfidf
32 Q0 CSIRO173-06943389 157 5.68884 tfidf
32 Q0 CSIRO173-07619505 158 5.68884 tfidf
32 Q0 CSIRO135-09089936 159 5.68884 tfidf
32 Q0 CSIRO119-04702762 160 5.52934 tfidf
32 Q0 CSIRO125-05461438 161 5.52934 tfidf
32 Q0 CSIRO174-00863032 162 5.5268 tfidf
32 Q0 CSIRO118-14956197 163 5.5268 tfidf
32 Q0 CSIRO173-07899095 164 5.5268 tfidf
32 Q0 CSIRO174-06831678 165 5.5268 tfidf
32 Q0 CSIRO125-07348974 166 5.5268 tfidf
32 Q0 CSIRO116-10324076 167 5.52317 tfidf
32 Q0 CSIRO135-13610280 168 5.33067 tfidf
32 Q0 CSIRO141-07798295 169 5.33067 tfidf
32 Q0 CSIRO063-03163878 170 5.33067 tfidf
32 Q0 CSIRO082-05799724 171 5.33067 tfidf
32 Q0 CSIRO092-01057543 172 5.33067 tfidf
32 Q0 CSIRO125-04576899 173 5.33067 tfidf
32 Q0 CSIRO173-07356254 174 5.32958 tfidf
32 Q0 CSIRO082-09055386 175 5.32958 tfidf
32 Q0 CSIRO125-09033536 176 5.32958 tfidf
32 Q0 CSIRO148-05195046 177 5.32958 tfidf
32 Q0 CSIRO148-12279017 178 5.32958 tfidf
32 Q0 CSIRO137-00421325 179 5.32958 tfidf
32 Q0 CSIRO100-11290692 180 5.32958 tfidf
32 Q0 CSIRO082-09300606 181 5.32958 tfidf
32 Q0 CSIRO135-14645500 182 5.32958 tfidf
32 Q0 CSIRO112-00000000 183 5.32958 tfidf
32 Q0 CSIRO125-03398080 184 5.32958 tfidf
32 Q0 CSIRO111-16414166 185 5.32849 tfidf
32 Q0 CSIRO125-07643587 186 5.32849 tfidf
32 Q0 CSIRO112-00166516 187 5.32849 tfidf
32 Q0 CSIRO134-11752892 188 5.32849 tfidf
32 Q0 CSIRO173-08022799 189 5.32849 tfidf
32 Q0 CSIRO173-07079809 190 5.32849 tfidf
32 Q0 CSIRO125-09354781 191 5.32849 tfidf
32 Q0 CSIRO173-07800514 192 5.32849 tfidf
32 Q0 CSIRO173-07760461 193 5.32849 tfidf
32 Q0 CSIRO136-07152427 194 5.32849 tfidf
32 Q0 CSIRO132-01337452 195 5.32849 tfidf
32 Q0 CSIRO134-08922119 196 5.32849 tfidf
32 Q0 CSIRO125-07286825 197 5.32849 tfidf
32 Q0 CSIRO189-13618072 198 5.32849 tfidf
32 Q0 CSIRO103-14237361 199 5.2405 tfidf
