0,0
0,0
0.333333,0.04
0.5,0.08
0.6,0.12
0.666667,0.16
0.571429,0.16
0.5,0.16
0.444444,0.16
0.4,0.16
0.363636,0.16
0.333333,0.16
0.384615,0.2
0.428571,0.24
0.466667,0.28
0.4375,0.28
0.411765,0.28
0.388889,0.28
0.368421,0.28
0.35,0.28
0.333333,0.28
0.318182,0.28
0.304348,0.28
0.291667,0.28
0.32,0.32
