45 Q0 CSIRO119-13048487 1 12.004 tfidf
45 Q0 CSIRO062-12690993 2 11.499 tfidf
45 Q0 CSIRO102-04250006 3 10.6303 tfidf
45 Q0 CSIRO104-12120934 4 9.96008 tfidf
45 Q0 CSIRO147-10331048 5 9.95154 tfidf
45 Q0 CSIRO064-02244492 6 9.8342 tfidf
45 Q0 CSIRO112-02672996 7 9.80858 tfidf
45 Q0 CSIRO147-03954897 8 9.20048 tfidf
45 Q0 CSIRO147-06256652 9 9.00752 tfidf
45 Q0 CSIRO119-14230498 10 8.92417 tfidf
45 Q0 CSIRO119-04740834 11 8.13149 tfidf
45 Q0 CSIRO120-00767811 12 8.04963 tfidf
45 Q0 CSIRO125-16124590 13 7.32003 tfidf
45 Q0 CSIRO125-16319733 14 7.32003 tfidf
45 Q0 CSIRO119-14145278 15 7.12869 tfidf
45 Q0 CSIRO116-09772508 16 7.04138 tfidf
45 Q0 CSIRO119-14327112 17 6.8945 tfidf
45 Q0 CSIRO126-03047156 18 6.8449 tfidf
45 Q0 CSIRO234-16492647 19 6.59258 tfidf
45 Q0 CSIRO147-11457087 20 6.59258 tfidf
45 Q0 CSIRO093-03767790 21 6.38804 tfidf
45 Q0 CSIRO129-15309148 22 6.36391 tfidf
45 Q0 CSIRO080-10011908 23 6.34962 tfidf
45 Q0 CSIRO119-12778290 24 6.34962 tfidf
45 Q0 CSIRO092-15141375 25 6.23418 tfidf
45 Q0 CSIRO129-02312429 26 6.20619 tfidf
45 Q0 CSIRO235-01571241 27 6.16705 tfidf
45 Q0 CSIRO147-05343118 28 6.08612 tfidf
45 Q0 CSIRO120-00850830 29 6.04608 tfidf
45 Q0 CSIRO063-05530416 30 6.04608 tfidf
45 Q0 CSIRO119-13842545 31 5.98609 tfidf
45 Q0 CSIRO125-14761833 32 5.87551 tfidf
45 Q0 CSIRO147-06699714 33 5.87551 tfidf
45 Q0 CSIRO092-11862030 34 5.83591 tfidf
45 Q0 CSIRO093-03736907 35 5.83591 tfidf
45 Q0 CSIRO066-01581545 36 5.75312 tfidf
45 Q0 CSIRO116-15640032 37 5.75312 tfidf
45 Q0 CSIRO093-03376610 38 5.7519 tfidf
45 Q0 CSIRO092-15120042 39 5.70724 tfidf
45 Q0 CSIRO196-05078725 40 5.66058 tfidf
45 Q0 CSIRO196-05183335 41 5.66058 tfidf
45 Q0 CSIRO196-02907672 42 5.61176 tfidf
45 Q0 CSIRO254-09424513 43 5.61176 tfidf
45 Q0 CSIRO119-02930360 44 5.57781 tfidf
45 Q0 CSIRO172-09764890 45 5.57781 tfidf
45 Q0 CSIRO063-05608535 46 5.57781 tfidf
45 Q0 CSIRO196-03202874 47 5.56056 tfidf
45 Q0 CSIRO196-06548530 48 5.56056 tfidf
45 Q0 CSIRO129-14104225 49 5.50672 tfidf
45 Q0 CSIRO119-12834177 50 5.50672 tfidf
45 Q0 CSIRO129-15391612 51 5.50672 tfidf
45 Q0 CSIRO196-03500403 52 5.50672 tfidf
45 Q0 CSIRO196-03623256 53 5.50672 tfidf
45 Q0 CSIRO093-03287762 54 5.44998 tfidf
45 Q0 CSIRO129-08274176 55 5.43959 tfidf
45 Q0 CSIRO124-07387773 56 5.43959 tfidf
45 Q0 CSIRO253-10741310 57 5.43959 tfidf
45 Q0 CSIRO147-06351520 58 5.43959 tfidf
45 Q0 CSIRO250-15643744 59 5.43959 tfidf
45 Q0 CSIRO135-08572433 60 5.43959 tfidf
45 Q0 CSIRO120-01949967 61 5.43959 tfidf
45 Q0 CSIRO093-03310516 62 5.38999 tfidf
45 Q0 CSIRO092-13744726 63 5.38999 tfidf
45 Q0 CSIRO212-01350467 64 5.37542 tfidf
45 Q0 CSIRO080-05520017 65 5.37542 tfidf
45 Q0 CSIRO101-13347938 66 5.37542 tfidf
45 Q0 CSIRO196-08918545 67 5.32637 tfidf
45 Q0 CSIRO196-09067787 68 5.32637 tfidf
45 Q0 CSIRO196-08685395 69 5.32637 tfidf
45 Q0 CSIRO129-14613513 70 5.32637 tfidf
45 Q0 CSIRO066-04856837 71 5.25864 tfidf
45 Q0 CSIRO187-09546348 72 5.18623 tfidf
45 Q0 CSIRO129-11120965 73 5.18623 tfidf
45 Q0 CSIRO093-04757294 74 5.18623 tfidf
45 Q0 CSIRO129-10602826 75 5.18623 tfidf
45 Q0 CSIRO129-11481463 76 5.18623 tfidf
45 Q0 CSIRO101-13125090 77 5.13606 tfidf
45 Q0 CSIRO217-14980017 78 5.13606 tfidf
45 Q0 CSIRO172-09621361 79 5.13606 tfidf
45 Q0 CSIRO200-07880323 80 5.13606 tfidf
45 Q0 CSIRO093-07669574 81 5.10845 tfidf
45 Q0 CSIRO104-10030697 82 5.10845 tfidf
45 Q0 CSIRO092-16257111 83 5.10845 tfidf
45 Q0 CSIRO092-13353414 84 5.10845 tfidf
45 Q0 CSIRO092-15105754 85 5.10845 tfidf
45 Q0 CSIRO119-04466231 86 5.02445 tfidf
45 Q0 CSIRO124-07896923 87 5.02445 tfidf
45 Q0 CSIRO120-01812451 88 5.02445 tfidf
45 Q0 CSIRO096-02540596 89 4.93313 tfidf
45 Q0 CSIRO098-03421637 90 4.93313 tfidf
45 Q0 CSIRO196-02514928 91 4.93313 tfidf
45 Q0 CSIRO129-12390162 92 4.93313 tfidf
45 Q0 CSIRO092-16302310 93 4.93313 tfidf
45 Q0 CSIRO197-08135289 94 4.84309 tfidf
45 Q0 CSIRO063-09448933 95 4.84309 tfidf
45 Q0 CSIRO070-04855567 96 4.84309 tfidf
45 Q0 CSIRO072-16096036 97 4.84309 tfidf
45 Q0 CSIRO063-05584687 98 4.84309 tfidf
45 Q0 CSIRO207-00252624 99 4.84309 tfidf
45 Q0 CSIRO063-05564299 100 4.84309 tfidf
45 Q0 CSIRO205-03035621 101 4.84309 tfidf
45 Q0 CSIRO119-14475662 102 4.8331 tfidf
45 Q0 CSIRO098-03297480 103 4.8331 tfidf
45 Q0 CSIRO098-03196317 104 4.8331 tfidf
45 Q0 CSIRO098-02961715 105 4.8331 tfidf
45 Q0 CSIRO096-03565869 106 4.8331 tfidf
45 Q0 CSIRO119-16234099 107 4.8331 tfidf
45 Q0 CSIRO129-13929856 108 4.8331 tfidf
45 Q0 CSIRO066-05680472 109 4.8331 tfidf
45 Q0 CSIRO093-03334084 110 4.8331 tfidf
45 Q0 CSIRO119-07987816 111 4.8331 tfidf
45 Q0 CSIRO092-15111321 112 4.8331 tfidf
45 Q0 CSIRO119-06683431 113 4.8331 tfidf
45 Q0 CSIRO092-11395053 114 4.8331 tfidf
45 Q0 CSIRO129-15538147 115 4.8331 tfidf
45 Q0 CSIRO119-05060080 116 4.8331 tfidf
45 Q0 CSIRO092-16228048 117 4.72253 tfidf
45 Q0 CSIRO091-12881281 118 4.72253 tfidf
45 Q0 CSIRO129-10982636 119 4.72253 tfidf
45 Q0 CSIRO092-12556777 120 4.72253 tfidf
45 Q0 CSIRO129-11082559 121 4.72253 tfidf
45 Q0 CSIRO096-03492596 122 4.72253 tfidf
45 Q0 CSIRO119-03740779 123 4.72253 tfidf
45 Q0 CSIRO092-13720211 124 4.72253 tfidf
45 Q0 CSIRO136-00770129 125 4.72253 tfidf
45 Q0 CSIRO092-11835205 126 4.72253 tfidf
45 Q0 CSIRO079-15572366 127 4.72253 tfidf
45 Q0 CSIRO093-03729656 128 4.72253 tfidf
45 Q0 CSIRO147-03022931 129 4.72253 tfidf
45 Q0 CSIRO098-02588672 130 4.59891 tfidf
45 Q0 CSIRO147-03875696 131 4.59891 tfidf
45 Q0 CSIRO128-16249727 132 4.59891 tfidf
45 Q0 CSIRO119-08167550 133 4.59891 tfidf
45 Q0 CSIRO129-14504074 134 4.59891 tfidf
45 Q0 CSIRO129-12341782 135 4.59891 tfidf
45 Q0 CSIRO092-11819212 136 4.59891 tfidf
45 Q0 CSIRO147-03838618 137 4.59891 tfidf
45 Q0 CSIRO129-10693306 138 4.59891 tfidf
45 Q0 CSIRO092-11981384 139 4.59891 tfidf
45 Q0 CSIRO129-10548007 140 4.59891 tfidf
45 Q0 CSIRO096-03531794 141 4.59891 tfidf
45 Q0 CSIRO119-09786443 142 4.59891 tfidf
45 Q0 CSIRO119-06962598 143 4.59891 tfidf
45 Q0 CSIRO147-04202386 144 4.59891 tfidf
45 Q0 CSIRO092-10751018 145 4.59891 tfidf
45 Q0 CSIRO096-02995085 146 4.59891 tfidf
45 Q0 CSIRO196-05290446 147 4.59891 tfidf
45 Q0 CSIRO135-08393367 148 4.4654 tfidf
45 Q0 CSIRO213-08282354 149 4.4654 tfidf
45 Q0 CSIRO197-01768110 150 4.4654 tfidf
45 Q0 CSIRO115-06816903 151 4.4654 tfidf
45 Q0 CSIRO197-08158288 152 4.4654 tfidf
45 Q0 CSIRO115-09473138 153 4.4654 tfidf
45 Q0 CSIRO200-07274845 154 4.4654 tfidf
45 Q0 CSIRO253-14008624 155 4.4654 tfidf
45 Q0 CSIRO070-04874436 156 4.4654 tfidf
45 Q0 CSIRO217-09510816 157 4.4654 tfidf
45 Q0 CSIRO205-03054676 158 4.4654 tfidf
45 Q0 CSIRO072-16114981 159 4.4654 tfidf
45 Q0 CSIRO254-16536482 160 4.4654 tfidf
45 Q0 CSIRO207-00271605 161 4.4654 tfidf
45 Q0 CSIRO197-02129838 162 4.4654 tfidf
45 Q0 CSIRO127-06455387 163 4.4654 tfidf
45 Q0 CSIRO197-01056223 164 4.4654 tfidf
45 Q0 CSIRO127-06664462 165 4.45877 tfidf
45 Q0 CSIRO093-03723666 166 4.45877 tfidf
45 Q0 CSIRO147-11739940 167 4.45877 tfidf
45 Q0 CSIRO094-03467084 168 4.45877 tfidf
45 Q0 CSIRO093-00433379 169 4.45877 tfidf
45 Q0 CSIRO116-04482165 170 4.45877 tfidf
45 Q0 CSIRO196-06434531 171 4.45877 tfidf
45 Q0 CSIRO093-13231464 172 4.45877 tfidf
45 Q0 CSIRO253-15417212 173 4.45877 tfidf
45 Q0 CSIRO092-13380652 174 4.45877 tfidf
45 Q0 CSIRO147-01849024 175 4.45877 tfidf
45 Q0 CSIRO129-13116617 176 4.45877 tfidf
45 Q0 CSIRO079-14748894 177 4.45877 tfidf
45 Q0 CSIRO092-12538539 178 4.45877 tfidf
45 Q0 CSIRO129-10387327 179 4.45877 tfidf
45 Q0 CSIRO116-09890113 180 4.45877 tfidf
45 Q0 CSIRO092-09105381 181 4.45877 tfidf
45 Q0 CSIRO092-11945574 182 4.45877 tfidf
45 Q0 CSIRO079-12401159 183 4.29699 tfidf
45 Q0 CSIRO092-09121849 184 4.29699 tfidf
45 Q0 CSIRO119-10328935 185 4.29699 tfidf
45 Q0 CSIRO092-13704861 186 4.29699 tfidf
45 Q0 CSIRO119-03095893 187 4.29699 tfidf
45 Q0 CSIRO093-01047648 188 4.29699 tfidf
45 Q0 CSIRO098-02856760 189 4.29699 tfidf
45 Q0 CSIRO119-04914847 190 4.29699 tfidf
45 Q0 CSIRO093-00999574 191 4.29699 tfidf
45 Q0 CSIRO129-12648579 192 4.29699 tfidf
45 Q0 CSIRO100-04520432 193 4.29699 tfidf
45 Q0 CSIRO119-07705125 194 4.29699 tfidf
45 Q0 CSIRO119-05213770 195 4.29699 tfidf
45 Q0 CSIRO129-13154758 196 4.29699 tfidf
45 Q0 CSIRO265-07964191 197 4.29699 tfidf
45 Q0 CSIRO093-08163351 198 4.29699 tfidf
45 Q0 CSIRO096-03442677 199 4.29699 tfidf
