44 Q0 CSIRO131-16070992 1 7.48899 tfidf
44 Q0 CSIRO131-16112167 2 7.36504 tfidf
44 Q0 CSIRO131-15699882 3 7.33864 tfidf
44 Q0 CSIRO131-15733583 4 7.07059 tfidf
44 Q0 CSIRO135-12671353 5 6.89097 tfidf
44 Q0 CSIRO131-16152761 6 6.85158 tfidf
44 Q0 CSIRO135-12463098 7 6.81086 tfidf
44 Q0 CSIRO131-15686987 8 6.63257 tfidf
44 Q0 CSIRO131-15777963 9 6.53241 tfidf
44 Q0 CSIRO131-15982687 10 6.47901 tfidf
44 Q0 CSIRO131-15724359 11 6.47901 tfidf
44 Q0 CSIRO131-15946583 12 6.42313 tfidf
44 Q0 CSIRO131-15634186 13 6.42313 tfidf
44 Q0 CSIRO130-14381058 14 6.36452 tfidf
44 Q0 CSIRO131-16003581 15 6.23796 tfidf
44 Q0 CSIRO130-11917426 16 6.1693 tfidf
44 Q0 CSIRO131-15799945 17 6.09648 tfidf
44 Q0 CSIRO131-15930159 18 6.09648 tfidf
44 Q0 CSIRO130-03746486 19 6.09648 tfidf
44 Q0 CSIRO130-00910168 20 6.09648 tfidf
44 Q0 CSIRO131-05591514 21 6.09648 tfidf
44 Q0 CSIRO131-15712661 22 6.01895 tfidf
44 Q0 CSIRO117-07839500 23 5.93607 tfidf
44 Q0 CSIRO131-16038947 24 5.84705 tfidf
44 Q0 CSIRO130-01018266 25 5.84705 tfidf
44 Q0 CSIRO131-15830626 26 5.7509 tfidf
44 Q0 CSIRO115-10237480 27 5.7509 tfidf
44 Q0 CSIRO130-02259381 28 5.7509 tfidf
44 Q0 CSIRO130-02485072 29 5.7509 tfidf
44 Q0 CSIRO131-15880019 30 5.7509 tfidf
44 Q0 CSIRO130-04030612 31 5.7509 tfidf
44 Q0 CSIRO131-05598516 32 5.7509 tfidf
44 Q0 CSIRO136-16359489 33 5.64638 tfidf
44 Q0 CSIRO137-02206681 34 5.64638 tfidf
44 Q0 CSIRO130-01053814 35 5.64638 tfidf
44 Q0 CSIRO142-04314947 36 5.64638 tfidf
44 Q0 CSIRO142-04216534 37 5.64638 tfidf
44 Q0 CSIRO130-01793508 38 5.64638 tfidf
44 Q0 CSIRO130-01096276 39 5.64638 tfidf
44 Q0 CSIRO130-00950309 40 5.53189 tfidf
44 Q0 CSIRO130-02015565 41 5.53189 tfidf
44 Q0 CSIRO130-01631389 42 5.53189 tfidf
44 Q0 CSIRO130-01483545 43 5.53189 tfidf
44 Q0 CSIRO130-00982145 44 5.53189 tfidf
44 Q0 CSIRO073-10674573 45 5.40533 tfidf
44 Q0 CSIRO067-13763895 46 5.40533 tfidf
44 Q0 CSIRO071-14507057 47 5.40533 tfidf
44 Q0 CSIRO070-09700791 48 5.40533 tfidf
44 Q0 CSIRO131-15182935 49 5.40533 tfidf
44 Q0 CSIRO145-16310991 50 5.40533 tfidf
44 Q0 CSIRO131-15756459 51 5.40533 tfidf
44 Q0 CSIRO068-05143003 52 5.40533 tfidf
44 Q0 CSIRO131-15854334 53 5.40533 tfidf
44 Q0 CSIRO069-09140987 54 5.40533 tfidf
44 Q0 CSIRO130-01198112 55 5.40533 tfidf
44 Q0 CSIRO130-01143845 56 5.40533 tfidf
44 Q0 CSIRO141-07272616 57 5.26384 tfidf
44 Q0 CSIRO131-15565045 58 5.26384 tfidf
44 Q0 CSIRO131-15549627 59 5.26384 tfidf
44 Q0 CSIRO145-11241528 60 5.26384 tfidf
44 Q0 CSIRO145-16299852 61 5.26384 tfidf
44 Q0 CSIRO130-01365692 62 5.26384 tfidf
44 Q0 CSIRO211-05882864 63 5.26384 tfidf
44 Q0 CSIRO130-01258707 64 5.26384 tfidf
44 Q0 CSIRO131-15916850 65 5.26384 tfidf
44 Q0 CSIRO145-11251520 66 5.26384 tfidf
44 Q0 CSIRO131-15966217 67 5.10344 tfidf
44 Q0 CSIRO131-15958734 68 5.10344 tfidf
44 Q0 CSIRO064-16018181 69 5.10344 tfidf
44 Q0 CSIRO131-15897699 70 4.91827 tfidf
44 Q0 CSIRO131-15846347 71 4.91827 tfidf
44 Q0 CSIRO137-06308639 72 4.91827 tfidf
44 Q0 CSIRO137-07052741 73 4.91827 tfidf
44 Q0 CSIRO131-15578589 74 4.91827 tfidf
44 Q0 CSIRO131-15272251 75 4.91827 tfidf
44 Q0 CSIRO064-16056170 76 4.91827 tfidf
44 Q0 CSIRO131-15866514 77 4.69926 tfidf
44 Q0 CSIRO131-15907180 78 4.69926 tfidf
44 Q0 CSIRO136-10182970 79 4.69926 tfidf
44 Q0 CSIRO131-15768692 80 4.69926 tfidf
44 Q0 CSIRO131-15630568 81 4.69926 tfidf
44 Q0 CSIRO131-15542995 82 4.69926 tfidf
44 Q0 CSIRO130-04027437 83 4.69926 tfidf
44 Q0 CSIRO103-09175083 84 4.69926 tfidf
44 Q0 CSIRO115-10219346 85 4.69926 tfidf
44 Q0 CSIRO131-16021519 86 4.69926 tfidf
44 Q0 CSIRO115-10129020 87 4.43121 tfidf
44 Q0 CSIRO141-07798295 88 4.43121 tfidf
44 Q0 CSIRO263-09200562 89 4.43121 tfidf
44 Q0 CSIRO213-14960219 90 4.43121 tfidf
44 Q0 CSIRO207-07093663 91 4.43121 tfidf
44 Q0 CSIRO095-01051956 92 4.43121 tfidf
44 Q0 CSIRO171-11340334 93 4.43121 tfidf
44 Q0 CSIRO131-03395812 94 4.43121 tfidf
44 Q0 CSIRO131-12728090 95 4.43121 tfidf
44 Q0 CSIRO131-15127691 96 4.43121 tfidf
44 Q0 CSIRO131-15364004 97 4.43121 tfidf
44 Q0 CSIRO131-15534180 98 4.43121 tfidf
44 Q0 CSIRO131-15583686 99 4.43121 tfidf
44 Q0 CSIRO131-15592799 100 4.43121 tfidf
44 Q0 CSIRO073-05094880 101 4.43121 tfidf
44 Q0 CSIRO131-15603302 102 4.43121 tfidf
44 Q0 CSIRO131-15618514 103 4.43121 tfidf
44 Q0 CSIRO131-15646901 104 4.43121 tfidf
44 Q0 CSIRO137-00172029 105 4.43121 tfidf
44 Q0 CSIRO131-15809605 106 4.43121 tfidf
44 Q0 CSIRO136-00770129 107 4.43121 tfidf
44 Q0 CSIRO135-13610280 108 4.43121 tfidf
44 Q0 CSIRO069-15241844 109 4.08564 tfidf
44 Q0 CSIRO067-16358341 110 4.08564 tfidf
44 Q0 CSIRO115-09473138 111 4.08564 tfidf
44 Q0 CSIRO263-07330173 112 4.08564 tfidf
44 Q0 CSIRO115-08866499 113 4.08564 tfidf
44 Q0 CSIRO115-06816903 114 4.08564 tfidf
44 Q0 CSIRO263-07252885 115 4.08564 tfidf
44 Q0 CSIRO263-07232610 116 4.08564 tfidf
44 Q0 CSIRO112-12309715 117 4.08564 tfidf
44 Q0 CSIRO262-08339800 118 4.08564 tfidf
44 Q0 CSIRO254-16569020 119 4.08564 tfidf
44 Q0 CSIRO254-16464358 120 4.08564 tfidf
44 Q0 CSIRO254-16406744 121 4.08564 tfidf
44 Q0 CSIRO136-15006277 122 4.08564 tfidf
44 Q0 CSIRO136-15277932 123 4.08564 tfidf
44 Q0 CSIRO071-01233681 124 4.08564 tfidf
44 Q0 CSIRO211-03886355 125 4.08564 tfidf
44 Q0 CSIRO131-15977151 126 4.08564 tfidf
44 Q0 CSIRO205-15423671 127 4.08564 tfidf
44 Q0 CSIRO204-14338857 128 4.08564 tfidf
44 Q0 CSIRO137-03152831 129 4.08564 tfidf
44 Q0 CSIRO137-04555855 130 4.08564 tfidf
44 Q0 CSIRO137-04565592 131 4.08564 tfidf
44 Q0 CSIRO137-11280300 132 4.08564 tfidf
44 Q0 CSIRO102-13854681 133 4.08564 tfidf
44 Q0 CSIRO130-02938345 134 4.08564 tfidf
44 Q0 CSIRO131-15656389 135 4.08564 tfidf
44 Q0 CSIRO072-03059119 136 4.08564 tfidf
44 Q0 CSIRO130-03009240 137 4.08564 tfidf
44 Q0 CSIRO131-15642242 138 4.08564 tfidf
44 Q0 CSIRO130-03533634 139 4.08564 tfidf
44 Q0 CSIRO067-08825492 140 4.08564 tfidf
44 Q0 CSIRO131-15972572 141 4.08564 tfidf
44 Q0 CSIRO068-08651005 142 4.08564 tfidf
44 Q0 CSIRO130-04150369 143 4.08564 tfidf
44 Q0 CSIRO147-02843952 144 4.08564 tfidf
44 Q0 CSIRO131-01366983 145 4.08564 tfidf
44 Q0 CSIRO131-15382997 146 4.08564 tfidf
44 Q0 CSIRO062-16620324 147 4.08564 tfidf
44 Q0 CSIRO074-02907121 148 4.08564 tfidf
44 Q0 CSIRO131-15588036 149 4.08564 tfidf
44 Q0 CSIRO131-15599062 150 4.08564 tfidf
44 Q0 CSIRO067-08670064 151 3.59858 tfidf
44 Q0 CSIRO068-16534043 152 3.59858 tfidf
44 Q0 CSIRO068-16716083 153 3.59858 tfidf
44 Q0 CSIRO067-13377706 154 3.59858 tfidf
44 Q0 CSIRO067-13045095 155 3.59858 tfidf
44 Q0 CSIRO139-09015831 156 3.59858 tfidf
44 Q0 CSIRO067-08299988 157 3.59858 tfidf
44 Q0 CSIRO074-13559795 158 3.59858 tfidf
44 Q0 CSIRO067-08241867 159 3.59858 tfidf
44 Q0 CSIRO131-15607529 160 3.59858 tfidf
44 Q0 CSIRO074-16598573 161 3.59858 tfidf
44 Q0 CSIRO068-14352728 162 3.59858 tfidf
44 Q0 CSIRO073-01631552 163 3.59858 tfidf
44 Q0 CSIRO068-12558294 164 3.59858 tfidf
44 Q0 CSIRO076-13963550 165 3.59858 tfidf
44 Q0 CSIRO141-12519053 166 3.59858 tfidf
44 Q0 CSIRO077-02360055 167 3.59858 tfidf
44 Q0 CSIRO077-02425815 168 3.59858 tfidf
44 Q0 CSIRO145-16195421 169 3.59858 tfidf
44 Q0 CSIRO067-13720392 170 3.59858 tfidf
44 Q0 CSIRO131-14870792 171 3.59858 tfidf
44 Q0 CSIRO077-03321258 172 3.59858 tfidf
44 Q0 CSIRO131-14448893 173 3.59858 tfidf
44 Q0 CSIRO135-08281258 174 3.59858 tfidf
44 Q0 CSIRO131-11332495 175 3.59858 tfidf
44 Q0 CSIRO067-07628940 176 3.59858 tfidf
44 Q0 CSIRO145-16204830 177 3.59858 tfidf
44 Q0 CSIRO131-03929462 178 3.59858 tfidf
44 Q0 CSIRO077-16291830 179 3.59858 tfidf
44 Q0 CSIRO135-08217955 180 3.59858 tfidf
44 Q0 CSIRO131-01566024 181 3.59858 tfidf
44 Q0 CSIRO073-01395416 182 3.59858 tfidf
44 Q0 CSIRO131-01247091 183 3.59858 tfidf
44 Q0 CSIRO078-11185547 184 3.59858 tfidf
44 Q0 CSIRO067-07139566 185 3.59858 tfidf
44 Q0 CSIRO135-10799026 186 3.59858 tfidf
44 Q0 CSIRO130-07510193 187 3.59858 tfidf
44 Q0 CSIRO079-11371176 188 3.59858 tfidf
44 Q0 CSIRO130-04347320 189 3.59858 tfidf
44 Q0 CSIRO131-15626698 190 3.59858 tfidf
44 Q0 CSIRO171-11033234 191 3.59858 tfidf
44 Q0 CSIRO067-06693481 192 3.59858 tfidf
44 Q0 CSIRO130-03973626 193 3.59858 tfidf
44 Q0 CSIRO072-14318621 194 3.59858 tfidf
44 Q0 CSIRO072-11043567 195 3.59858 tfidf
44 Q0 CSIRO139-09004713 196 3.59858 tfidf
44 Q0 CSIRO067-12973241 197 3.59858 tfidf
44 Q0 CSIRO131-15666753 198 3.59858 tfidf
44 Q0 CSIRO131-15677743 199 3.59858 tfidf
