13 Q0 CSIRO190-04473040 1 21.2824 tfidf
13 Q0 CSIRO190-05231838 2 16.7791 tfidf
13 Q0 CSIRO190-05543411 3 15.7238 tfidf
13 Q0 CSIRO266-04184084 4 15.211 tfidf
13 Q0 CSIRO190-02018011 5 14.6587 tfidf
13 Q0 CSIRO189-16162365 6 13.2903 tfidf
13 Q0 CSIRO135-09430735 7 12.8093 tfidf
13 Q0 CSIRO189-14357621 8 12.4316 tfidf
13 Q0 CSIRO135-15785146 9 12.1071 tfidf
13 Q0 CSIRO131-16185860 10 11.5986 tfidf
13 Q0 CSIRO145-08477954 11 11.3244 tfidf
13 Q0 CSIRO145-08467429 12 11.3244 tfidf
13 Q0 CSIRO145-11110519 13 11.1253 tfidf
13 Q0 CSIRO135-08674632 14 11.0566 tfidf
13 Q0 CSIRO112-02825901 15 10.98 tfidf
13 Q0 CSIRO100-12641502 16 10.918 tfidf
13 Q0 CSIRO266-03198131 17 10.8251 tfidf
13 Q0 CSIRO145-11099403 18 10.7968 tfidf
13 Q0 CSIRO191-08618696 19 10.6865 tfidf
13 Q0 CSIRO100-12320916 20 10.6258 tfidf
13 Q0 CSIRO100-13400672 21 10.6258 tfidf
13 Q0 CSIRO172-15985711 22 10.5463 tfidf
13 Q0 CSIRO190-05734357 23 10.4415 tfidf
13 Q0 CSIRO190-06179592 24 10.1287 tfidf
13 Q0 CSIRO145-13819510 25 10.104 tfidf
13 Q0 CSIRO145-13809452 26 10.104 tfidf
13 Q0 CSIRO135-14090949 27 10.0994 tfidf
13 Q0 CSIRO135-13102894 28 10.0114 tfidf
13 Q0 CSIRO179-11087714 29 9.99153 tfidf
13 Q0 CSIRO136-05449318 30 9.89718 tfidf
13 Q0 CSIRO138-03830834 31 9.75939 tfidf
13 Q0 CSIRO131-14233079 32 9.63587 tfidf
13 Q0 CSIRO135-09089936 33 9.61909 tfidf
13 Q0 CSIRO136-05968116 34 9.58361 tfidf
13 Q0 CSIRO190-02315529 35 9.55209 tfidf
13 Q0 CSIRO253-12177354 36 9.38101 tfidf
13 Q0 CSIRO130-14381058 37 9.29967 tfidf
13 Q0 CSIRO192-03066992 38 9.29105 tfidf
13 Q0 CSIRO187-02746259 39 9.2015 tfidf
13 Q0 CSIRO140-16443204 40 9.13696 tfidf
13 Q0 CSIRO104-08954553 41 9.0736 tfidf
13 Q0 CSIRO135-10737479 42 8.8829 tfidf
13 Q0 CSIRO140-16431850 43 8.82339 tfidf
13 Q0 CSIRO135-14283628 44 8.82325 tfidf
13 Q0 CSIRO135-14044072 45 8.82325 tfidf
13 Q0 CSIRO140-16664694 46 8.82325 tfidf
13 Q0 CSIRO172-15954894 47 8.73366 tfidf
13 Q0 CSIRO170-11243695 48 8.71272 tfidf
13 Q0 CSIRO253-12041622 49 8.66887 tfidf
13 Q0 CSIRO137-01232994 50 8.58637 tfidf
13 Q0 CSIRO186-16704691 51 8.56256 tfidf
13 Q0 CSIRO136-05065446 52 8.47818 tfidf
13 Q0 CSIRO140-14019326 53 8.45511 tfidf
13 Q0 CSIRO140-14029695 54 8.45511 tfidf
13 Q0 CSIRO074-14841281 55 8.43678 tfidf
13 Q0 CSIRO081-16626818 56 8.4084 tfidf
13 Q0 CSIRO172-16090634 57 8.30552 tfidf
13 Q0 CSIRO112-04482173 58 8.27232 tfidf
13 Q0 CSIRO140-16654015 59 8.19429 tfidf
13 Q0 CSIRO137-15900589 60 8.16291 tfidf
13 Q0 CSIRO173-12087085 61 8.09705 tfidf
13 Q0 CSIRO131-14222830 62 8.03347 tfidf
13 Q0 CSIRO191-07756313 63 7.97864 tfidf
13 Q0 CSIRO137-03152831 64 7.90222 tfidf
13 Q0 CSIRO081-16768706 65 7.90003 tfidf
13 Q0 CSIRO258-08689974 66 7.86785 tfidf
13 Q0 CSIRO148-02004016 67 7.86452 tfidf
13 Q0 CSIRO137-00172029 68 7.85767 tfidf
13 Q0 CSIRO145-13857098 69 7.82615 tfidf
13 Q0 CSIRO125-05243178 70 7.81382 tfidf
13 Q0 CSIRO171-10936969 71 7.78971 tfidf
13 Q0 CSIRO131-14870792 72 7.77279 tfidf
13 Q0 CSIRO148-02112703 73 7.6781 tfidf
13 Q0 CSIRO104-13069127 74 7.66337 tfidf
13 Q0 CSIRO145-06030182 75 7.66337 tfidf
13 Q0 CSIRO145-06022994 76 7.66337 tfidf
13 Q0 CSIRO064-16408277 77 7.56546 tfidf
13 Q0 CSIRO189-10403669 78 7.55233 tfidf
13 Q0 CSIRO136-10668302 79 7.53394 tfidf
13 Q0 CSIRO170-13324469 80 7.47911 tfidf
13 Q0 CSIRO173-02843699 81 7.47911 tfidf
13 Q0 CSIRO190-16695395 82 7.47911 tfidf
13 Q0 CSIRO197-06090655 83 7.47911 tfidf
13 Q0 CSIRO136-04753982 84 7.43407 tfidf
13 Q0 CSIRO135-15743687 85 7.43407 tfidf
13 Q0 CSIRO135-13040771 86 7.43407 tfidf
13 Q0 CSIRO172-15436224 87 7.43407 tfidf
13 Q0 CSIRO118-13348208 88 7.37058 tfidf
13 Q0 CSIRO172-08167918 89 7.3675 tfidf
13 Q0 CSIRO117-07988716 90 7.36467 tfidf
13 Q0 CSIRO173-04157429 91 7.36467 tfidf
13 Q0 CSIRO148-02281162 92 7.35236 tfidf
13 Q0 CSIRO137-00018233 93 7.27325 tfidf
13 Q0 CSIRO138-09584700 94 7.27325 tfidf
13 Q0 CSIRO172-15411719 95 7.27325 tfidf
13 Q0 CSIRO137-10751737 96 7.27325 tfidf
13 Q0 CSIRO136-06425377 97 7.27107 tfidf
13 Q0 CSIRO171-02939625 98 7.27107 tfidf
13 Q0 CSIRO265-12649304 99 7.27107 tfidf
13 Q0 CSIRO265-05065231 100 7.20514 tfidf
13 Q0 CSIRO173-07979845 101 7.20386 tfidf
13 Q0 CSIRO173-05064363 102 7.20386 tfidf
13 Q0 CSIRO265-08242356 103 7.16325 tfidf
13 Q0 CSIRO205-02676375 104 7.11077 tfidf
13 Q0 CSIRO072-14928375 105 7.11077 tfidf
13 Q0 CSIRO064-04515764 106 7.11077 tfidf
13 Q0 CSIRO068-14908631 107 7.11077 tfidf
13 Q0 CSIRO141-08052241 108 7.11077 tfidf
13 Q0 CSIRO206-16097136 109 7.11077 tfidf
13 Q0 CSIRO135-11900342 110 7.06593 tfidf
13 Q0 CSIRO145-08292096 111 7.06593 tfidf
13 Q0 CSIRO145-08282574 112 7.06593 tfidf
13 Q0 CSIRO191-07796808 113 7.06593 tfidf
13 Q0 CSIRO067-15803605 114 7.03441 tfidf
13 Q0 CSIRO142-14394630 115 7.03441 tfidf
13 Q0 CSIRO138-03135263 116 7.03441 tfidf
13 Q0 CSIRO189-08086680 117 6.99797 tfidf
13 Q0 CSIRO257-05756006 118 6.9417 tfidf
13 Q0 CSIRO180-15517031 119 6.93729 tfidf
13 Q0 CSIRO135-11962203 120 6.93729 tfidf
13 Q0 CSIRO137-05217748 121 6.90315 tfidf
13 Q0 CSIRO172-16228412 122 6.90315 tfidf
13 Q0 CSIRO079-16690874 123 6.89666 tfidf
13 Q0 CSIRO173-04679773 124 6.88834 tfidf
13 Q0 CSIRO265-05556710 125 6.79353 tfidf
13 Q0 CSIRO136-14439891 126 6.77372 tfidf
13 Q0 CSIRO135-12129360 127 6.77372 tfidf
13 Q0 CSIRO136-14117931 128 6.77372 tfidf
13 Q0 CSIRO138-03995929 129 6.77372 tfidf
13 Q0 CSIRO144-16630450 130 6.77372 tfidf
13 Q0 CSIRO145-08364156 131 6.77372 tfidf
13 Q0 CSIRO265-07735884 132 6.77372 tfidf
13 Q0 CSIRO135-15737454 133 6.77372 tfidf
13 Q0 CSIRO139-03737186 134 6.77372 tfidf
13 Q0 CSIRO139-03828308 135 6.77372 tfidf
13 Q0 CSIRO081-16723059 136 6.74174 tfidf
13 Q0 CSIRO172-09764890 137 6.74161 tfidf
13 Q0 CSIRO062-13546469 138 6.70519 tfidf
13 Q0 CSIRO062-13842407 139 6.59394 tfidf
13 Q0 CSIRO111-16495148 140 6.58625 tfidf
13 Q0 CSIRO265-10358641 141 6.57576 tfidf
13 Q0 CSIRO172-16459695 142 6.50046 tfidf
13 Q0 CSIRO206-15937806 143 6.497 tfidf
13 Q0 CSIRO072-14799221 144 6.497 tfidf
13 Q0 CSIRO072-14775862 145 6.497 tfidf
13 Q0 CSIRO206-15961580 146 6.497 tfidf
13 Q0 CSIRO206-15984975 147 6.497 tfidf
13 Q0 CSIRO068-14779405 148 6.497 tfidf
13 Q0 CSIRO205-02538764 149 6.497 tfidf
13 Q0 CSIRO205-02562612 150 6.497 tfidf
13 Q0 CSIRO068-14756034 151 6.497 tfidf
13 Q0 CSIRO072-14752124 152 6.497 tfidf
13 Q0 CSIRO205-02586081 153 6.497 tfidf
13 Q0 CSIRO068-14732284 154 6.497 tfidf
13 Q0 CSIRO136-10500499 155 6.47376 tfidf
13 Q0 CSIRO112-02374753 156 6.47376 tfidf
13 Q0 CSIRO173-03569430 157 6.44364 tfidf
13 Q0 CSIRO173-04506636 158 6.44364 tfidf
13 Q0 CSIRO062-14557934 159 6.42057 tfidf
13 Q0 CSIRO173-12261426 160 6.40907 tfidf
13 Q0 CSIRO125-04358815 161 6.38881 tfidf
13 Q0 CSIRO136-07430767 162 6.38881 tfidf
13 Q0 CSIRO130-07646708 163 6.37892 tfidf
13 Q0 CSIRO113-06408253 164 6.37892 tfidf
13 Q0 CSIRO172-08921897 165 6.37369 tfidf
13 Q0 CSIRO170-10689518 166 6.37151 tfidf
13 Q0 CSIRO135-15644420 167 6.36907 tfidf
13 Q0 CSIRO136-08335122 168 6.3474 tfidf
13 Q0 CSIRO130-07181385 169 6.30679 tfidf
13 Q0 CSIRO064-02439326 170 6.30625 tfidf
13 Q0 CSIRO145-09753921 171 6.27419 tfidf
13 Q0 CSIRO142-08875559 172 6.27419 tfidf
13 Q0 CSIRO136-16638465 173 6.27419 tfidf
13 Q0 CSIRO136-10389872 174 6.27419 tfidf
13 Q0 CSIRO138-05815356 175 6.27419 tfidf
13 Q0 CSIRO137-08140821 176 6.27419 tfidf
13 Q0 CSIRO100-13042813 177 6.27419 tfidf
13 Q0 CSIRO111-02153080 178 6.27419 tfidf
13 Q0 CSIRO113-00960402 179 6.27419 tfidf
13 Q0 CSIRO142-09080451 180 6.27419 tfidf
13 Q0 CSIRO103-06778039 181 6.27419 tfidf
13 Q0 CSIRO265-12917839 182 6.27419 tfidf
13 Q0 CSIRO112-14413479 183 6.27419 tfidf
13 Q0 CSIRO266-02916604 184 6.27419 tfidf
13 Q0 CSIRO189-10823696 185 6.27419 tfidf
13 Q0 CSIRO145-09743440 186 6.27419 tfidf
13 Q0 CSIRO065-00055865 187 6.26464 tfidf
13 Q0 CSIRO064-16713968 188 6.24208 tfidf
13 Q0 CSIRO140-16391099 189 6.23631 tfidf
13 Q0 CSIRO140-16402909 190 6.23631 tfidf
13 Q0 CSIRO065-00263832 191 6.18295 tfidf
13 Q0 CSIRO125-05754714 192 6.18295 tfidf
13 Q0 CSIRO146-06171435 193 6.18148 tfidf
13 Q0 CSIRO074-15828890 194 6.18148 tfidf
13 Q0 CSIRO140-07145057 195 6.18148 tfidf
13 Q0 CSIRO140-07156479 196 6.18148 tfidf
13 Q0 CSIRO174-00587252 197 6.18148 tfidf
13 Q0 CSIRO187-02895661 198 6.1755 tfidf
13 Q0 CSIRO112-00807120 199 6.16855 tfidf
