40 Q0 CSIRO183-15213741 1 12.8344 tfidf
40 Q0 CSIRO180-14984809 2 9.94227 tfidf
40 Q0 CSIRO182-10670411 3 9.33825 tfidf
40 Q0 CSIRO182-10584498 4 9.33825 tfidf
40 Q0 CSIRO182-10348542 5 9.33825 tfidf
40 Q0 CSIRO182-10405532 6 9.33825 tfidf
40 Q0 CSIRO182-10641368 7 9.27467 tfidf
40 Q0 CSIRO182-10612438 8 9.27467 tfidf
40 Q0 CSIRO182-10555615 9 9.27467 tfidf
40 Q0 CSIRO182-10524839 10 9.27467 tfidf
40 Q0 CSIRO182-10495781 11 9.27467 tfidf
40 Q0 CSIRO182-10465944 12 9.27467 tfidf
40 Q0 CSIRO182-10436190 13 9.27467 tfidf
40 Q0 CSIRO182-10376659 14 9.27467 tfidf
40 Q0 CSIRO182-03340850 15 9.04752 tfidf
40 Q0 CSIRO182-03202404 16 9.04752 tfidf
40 Q0 CSIRO182-10270345 17 9.02104 tfidf
40 Q0 CSIRO182-02935939 18 9.02104 tfidf
40 Q0 CSIRO182-02885674 19 9.02104 tfidf
40 Q0 CSIRO182-09720553 20 9.02104 tfidf
40 Q0 CSIRO182-09775041 21 9.02104 tfidf
40 Q0 CSIRO182-10163729 22 9.02104 tfidf
40 Q0 CSIRO182-10191561 23 9.02104 tfidf
40 Q0 CSIRO182-10217965 24 9.02104 tfidf
40 Q0 CSIRO182-10244192 25 9.02104 tfidf
40 Q0 CSIRO182-10296406 26 9.02104 tfidf
40 Q0 CSIRO182-04076797 27 8.97274 tfidf
40 Q0 CSIRO182-03315002 28 8.97274 tfidf
40 Q0 CSIRO182-03176629 29 8.97274 tfidf
40 Q0 CSIRO182-04125801 30 8.97274 tfidf
40 Q0 CSIRO182-04177364 31 8.97274 tfidf
40 Q0 CSIRO182-04362352 32 8.97274 tfidf
40 Q0 CSIRO182-02910787 33 8.94518 tfidf
40 Q0 CSIRO182-02860644 34 8.94518 tfidf
40 Q0 CSIRO182-16048638 35 8.94518 tfidf
40 Q0 CSIRO182-15436735 36 8.94518 tfidf
40 Q0 CSIRO182-16022636 37 8.94518 tfidf
40 Q0 CSIRO182-15544882 38 8.94518 tfidf
40 Q0 CSIRO182-09747526 39 8.94518 tfidf
40 Q0 CSIRO182-03528506 40 8.86567 tfidf
40 Q0 CSIRO182-03618750 41 8.83566 tfidf
40 Q0 CSIRO182-03479619 42 8.83566 tfidf
40 Q0 CSIRO182-09930972 43 8.83566 tfidf
40 Q0 CSIRO181-02964482 44 8.8221 tfidf
40 Q0 CSIRO182-04337123 45 8.81214 tfidf
40 Q0 CSIRO182-16207627 46 8.80426 tfidf
40 Q0 CSIRO182-03504184 47 8.78214 tfidf
40 Q0 CSIRO182-04050792 48 8.78214 tfidf
40 Q0 CSIRO182-04291211 49 8.78214 tfidf
40 Q0 CSIRO182-03594895 50 8.75073 tfidf
40 Q0 CSIRO182-15359974 51 8.75073 tfidf
40 Q0 CSIRO182-03455161 52 8.75073 tfidf
40 Q0 CSIRO182-10322891 53 8.75073 tfidf
40 Q0 CSIRO183-15060789 54 8.75073 tfidf
40 Q0 CSIRO182-10699328 55 8.75073 tfidf
40 Q0 CSIRO182-03925447 56 8.7178 tfidf
40 Q0 CSIRO182-15250743 57 8.7178 tfidf
40 Q0 CSIRO182-04002222 58 8.7178 tfidf
40 Q0 CSIRO182-03271177 59 8.69415 tfidf
40 Q0 CSIRO182-03433021 60 8.62658 tfidf
40 Q0 CSIRO182-03573683 61 8.62658 tfidf
40 Q0 CSIRO182-04316078 62 8.60119 tfidf
40 Q0 CSIRO182-04205337 63 8.60119 tfidf
40 Q0 CSIRO182-03249607 64 8.60119 tfidf
40 Q0 CSIRO182-03388931 65 8.59008 tfidf
40 Q0 CSIRO182-15523842 66 8.56656 tfidf
40 Q0 CSIRO182-03710395 67 8.56656 tfidf
40 Q0 CSIRO182-03411279 68 8.53006 tfidf
40 Q0 CSIRO182-04153913 69 8.53006 tfidf
40 Q0 CSIRO182-03553051 70 8.53006 tfidf
40 Q0 CSIRO182-03366589 71 8.49148 tfidf
40 Q0 CSIRO181-02611636 72 8.45997 tfidf
40 Q0 CSIRO181-02898192 73 8.45055 tfidf
40 Q0 CSIRO182-07597266 74 8.39563 tfidf
40 Q0 CSIRO182-02798080 75 8.39563 tfidf
40 Q0 CSIRO182-02712643 76 8.31638 tfidf
40 Q0 CSIRO182-02775393 77 8.28176 tfidf
40 Q0 CSIRO181-02236718 78 8.24526 tfidf
40 Q0 CSIRO182-04391323 79 8.23024 tfidf
40 Q0 CSIRO182-02690228 80 8.19561 tfidf
40 Q0 CSIRO182-15572054 81 8.19561 tfidf
40 Q0 CSIRO182-15960177 82 8.15911 tfidf
40 Q0 CSIRO182-11822787 83 7.84711 tfidf
40 Q0 CSIRO184-13012064 84 7.84507 tfidf
40 Q0 CSIRO181-03351596 85 7.83737 tfidf
40 Q0 CSIRO182-10789714 86 7.83737 tfidf
40 Q0 CSIRO183-13336965 87 7.82666 tfidf
40 Q0 CSIRO182-03069141 88 7.7908 tfidf
40 Q0 CSIRO183-14772121 89 7.76232 tfidf
40 Q0 CSIRO181-02283088 90 7.74077 tfidf
40 Q0 CSIRO182-03660981 91 7.7323 tfidf
40 Q0 CSIRO183-06625199 92 7.7323 tfidf
40 Q0 CSIRO183-11142032 93 7.7323 tfidf
40 Q0 CSIRO182-03951084 94 7.7323 tfidf
40 Q0 CSIRO180-14664089 95 7.72961 tfidf
40 Q0 CSIRO182-03293374 96 7.72076 tfidf
40 Q0 CSIRO182-02669135 97 7.72076 tfidf
40 Q0 CSIRO182-03131817 98 7.72076 tfidf
40 Q0 CSIRO183-07422203 99 7.68673 tfidf
40 Q0 CSIRO141-04317784 100 7.68673 tfidf
40 Q0 CSIRO182-09655957 101 7.67419 tfidf
40 Q0 CSIRO181-11202850 102 7.67419 tfidf
40 Q0 CSIRO182-09615916 103 7.67419 tfidf
40 Q0 CSIRO181-09005363 104 7.67419 tfidf
40 Q0 CSIRO181-08964555 105 7.67419 tfidf
40 Q0 CSIRO181-08983993 106 7.67419 tfidf
40 Q0 CSIRO183-16621767 107 7.66796 tfidf
40 Q0 CSIRO183-07018548 108 7.66796 tfidf
40 Q0 CSIRO183-09357364 109 7.66796 tfidf
40 Q0 CSIRO183-10047499 110 7.66796 tfidf
40 Q0 CSIRO183-09427872 111 7.66796 tfidf
40 Q0 CSIRO182-15463537 112 7.62799 tfidf
40 Q0 CSIRO182-03796449 113 7.62799 tfidf
40 Q0 CSIRO182-03903694 114 7.62799 tfidf
40 Q0 CSIRO182-03827597 115 7.62799 tfidf
40 Q0 CSIRO182-03849699 116 7.62799 tfidf
40 Q0 CSIRO182-03881010 117 7.62799 tfidf
40 Q0 CSIRO182-03023319 118 7.62416 tfidf
40 Q0 CSIRO182-03047199 119 7.62416 tfidf
40 Q0 CSIRO182-02262816 120 7.62416 tfidf
40 Q0 CSIRO185-02983402 121 7.59554 tfidf
40 Q0 CSIRO184-14279647 122 7.57013 tfidf
40 Q0 CSIRO183-07348846 123 7.57013 tfidf
40 Q0 CSIRO181-02060624 124 7.57013 tfidf
40 Q0 CSIRO184-13030422 125 7.57013 tfidf
40 Q0 CSIRO182-16115094 126 7.56365 tfidf
40 Q0 CSIRO185-00661996 127 7.56365 tfidf
40 Q0 CSIRO183-06669052 128 7.56365 tfidf
40 Q0 CSIRO183-06997940 129 7.56365 tfidf
40 Q0 CSIRO183-08423783 130 7.56365 tfidf
40 Q0 CSIRO182-15685166 131 7.56365 tfidf
40 Q0 CSIRO182-15634439 132 7.56365 tfidf
40 Q0 CSIRO183-09383413 133 7.56365 tfidf
40 Q0 CSIRO182-15593377 134 7.56365 tfidf
40 Q0 CSIRO183-08064833 135 7.56365 tfidf
40 Q0 CSIRO182-04225638 136 7.54199 tfidf
40 Q0 CSIRO182-03228327 137 7.54199 tfidf
40 Q0 CSIRO182-03153731 138 7.54199 tfidf
40 Q0 CSIRO182-03090540 139 7.54199 tfidf
40 Q0 CSIRO182-03109958 140 7.54199 tfidf
40 Q0 CSIRO141-04378409 141 7.51139 tfidf
40 Q0 CSIRO184-14247277 142 7.51139 tfidf
40 Q0 CSIRO183-08473899 143 7.49253 tfidf
40 Q0 CSIRO183-08537326 144 7.49253 tfidf
40 Q0 CSIRO183-09788125 145 7.49253 tfidf
40 Q0 CSIRO183-09924488 146 7.49253 tfidf
40 Q0 CSIRO183-10092030 147 7.49253 tfidf
40 Q0 CSIRO183-07528177 148 7.49253 tfidf
40 Q0 CSIRO184-12358366 149 7.49253 tfidf
40 Q0 CSIRO183-09407919 150 7.49253 tfidf
40 Q0 CSIRO180-14152364 151 7.44966 tfidf
40 Q0 CSIRO183-07813844 152 7.44705 tfidf
40 Q0 CSIRO183-10534175 153 7.44705 tfidf
40 Q0 CSIRO182-15503407 154 7.43793 tfidf
40 Q0 CSIRO182-15706056 155 7.43793 tfidf
40 Q0 CSIRO184-13167111 156 7.43793 tfidf
40 Q0 CSIRO183-07997511 157 7.43793 tfidf
40 Q0 CSIRO184-12968843 158 7.38938 tfidf
40 Q0 CSIRO183-07565175 159 7.37919 tfidf
40 Q0 CSIRO183-08985210 160 7.37592 tfidf
40 Q0 CSIRO183-06395935 161 7.37592 tfidf
40 Q0 CSIRO182-02981434 162 7.37592 tfidf
40 Q0 CSIRO183-09765234 163 7.37592 tfidf
40 Q0 CSIRO183-06509080 164 7.37592 tfidf
40 Q0 CSIRO183-06602495 165 7.37592 tfidf
40 Q0 CSIRO183-09231698 166 7.37592 tfidf
40 Q0 CSIRO183-09839664 167 7.37592 tfidf
40 Q0 CSIRO182-02754981 168 7.37592 tfidf
40 Q0 CSIRO183-07396889 169 7.37592 tfidf
40 Q0 CSIRO183-07484885 170 7.37592 tfidf
40 Q0 CSIRO183-10068770 171 7.37592 tfidf
40 Q0 CSIRO183-07656348 172 7.37592 tfidf
40 Q0 CSIRO180-14541184 173 7.33935 tfidf
40 Q0 CSIRO182-04412154 174 7.33935 tfidf
40 Q0 CSIRO184-13022378 175 7.31485 tfidf
40 Q0 CSIRO183-09722675 176 7.29641 tfidf
40 Q0 CSIRO181-02862597 177 7.29641 tfidf
40 Q0 CSIRO181-03146405 178 7.29641 tfidf
40 Q0 CSIRO181-02485736 179 7.29641 tfidf
40 Q0 CSIRO183-09597213 180 7.29641 tfidf
40 Q0 CSIRO181-03167341 181 7.29641 tfidf
40 Q0 CSIRO181-03277664 182 7.29641 tfidf
40 Q0 CSIRO183-08906815 183 7.29641 tfidf
40 Q0 CSIRO183-13175038 184 7.29641 tfidf
40 Q0 CSIRO183-04113483 185 7.29641 tfidf
40 Q0 CSIRO181-10768773 186 7.29641 tfidf
40 Q0 CSIRO183-16597236 187 7.29641 tfidf
40 Q0 CSIRO181-02041707 188 7.29641 tfidf
40 Q0 CSIRO181-01990003 189 7.29641 tfidf
40 Q0 CSIRO181-02397506 190 7.28532 tfidf
40 Q0 CSIRO181-03479958 191 7.28532 tfidf
40 Q0 CSIRO183-10558509 192 7.28532 tfidf
40 Q0 CSIRO182-04470478 193 7.24372 tfidf
40 Q0 CSIRO183-06691868 194 7.24372 tfidf
40 Q0 CSIRO182-03731875 195 7.24372 tfidf
40 Q0 CSIRO182-03775150 196 7.24372 tfidf
40 Q0 CSIRO183-09449193 197 7.24372 tfidf
40 Q0 CSIRO182-04105251 198 7.24372 tfidf
40 Q0 CSIRO183-14797011 199 7.24372 tfidf
