48 Q0 CSIRO131-16185860 1 12.4596 tfidf
48 Q0 CSIRO135-09430735 2 12.0053 tfidf
48 Q0 CSIRO266-04184084 3 11.6507 tfidf
48 Q0 CSIRO135-09089936 4 11.3788 tfidf
48 Q0 CSIRO139-16754699 5 10.8934 tfidf
48 Q0 CSIRO146-06407327 6 10.7004 tfidf
48 Q0 CSIRO140-00039089 7 10.4511 tfidf
48 Q0 CSIRO135-14406953 8 10.1324 tfidf
48 Q0 CSIRO145-09420609 9 10.0213 tfidf
48 Q0 CSIRO136-05616841 10 9.75985 tfidf
48 Q0 CSIRO095-04924761 11 9.67344 tfidf
48 Q0 CSIRO145-10634137 12 9.48383 tfidf
48 Q0 CSIRO145-10624084 13 9.01132 tfidf
48 Q0 CSIRO135-15050009 14 8.97205 tfidf
48 Q0 CSIRO136-05736129 15 8.80439 tfidf
48 Q0 CSIRO145-09412278 16 8.69366 tfidf
48 Q0 CSIRO135-08674632 17 8.69111 tfidf
48 Q0 CSIRO135-15464231 18 8.61467 tfidf
48 Q0 CSIRO137-12808308 19 8.49002 tfidf
48 Q0 CSIRO112-02825901 20 8.48702 tfidf
48 Q0 CSIRO135-16682657 21 8.48444 tfidf
48 Q0 CSIRO142-04336830 22 8.3318 tfidf
48 Q0 CSIRO142-04398170 23 8.3318 tfidf
48 Q0 CSIRO138-03611465 24 8.32191 tfidf
48 Q0 CSIRO136-00770129 25 8.17658 tfidf
48 Q0 CSIRO136-00580198 26 7.62037 tfidf
48 Q0 CSIRO146-04501896 27 7.62037 tfidf
48 Q0 CSIRO137-11336893 28 7.60279 tfidf
48 Q0 CSIRO113-00316712 29 7.60279 tfidf
48 Q0 CSIRO137-12542253 30 7.22112 tfidf
48 Q0 CSIRO146-05373251 31 7.18921 tfidf
48 Q0 CSIRO117-01387491 32 7.03174 tfidf
48 Q0 CSIRO133-04650496 33 6.96018 tfidf
48 Q0 CSIRO131-10268966 34 6.77191 tfidf
48 Q0 CSIRO146-04487563 35 6.6649 tfidf
48 Q0 CSIRO135-00647052 36 6.6649 tfidf
48 Q0 CSIRO134-16553617 37 6.6649 tfidf
48 Q0 CSIRO133-08659856 38 6.6649 tfidf
48 Q0 CSIRO133-06580402 39 6.6649 tfidf
48 Q0 CSIRO132-11611944 40 6.6649 tfidf
48 Q0 CSIRO132-11541957 41 6.6649 tfidf
48 Q0 CSIRO189-10823696 42 6.50969 tfidf
48 Q0 CSIRO063-00377513 43 6.27114 tfidf
48 Q0 CSIRO146-04494730 44 6.24874 tfidf
48 Q0 CSIRO133-00436021 45 6.24874 tfidf
48 Q0 CSIRO112-02075006 46 6.23183 tfidf
48 Q0 CSIRO135-10799026 47 6.23183 tfidf
48 Q0 CSIRO190-04473040 48 6.08701 tfidf
48 Q0 CSIRO084-16416054 49 6.05008 tfidf
48 Q0 CSIRO116-03895338 50 5.92474 tfidf
48 Q0 CSIRO135-14552323 51 5.86342 tfidf
48 Q0 CSIRO062-06715916 52 5.83756 tfidf
48 Q0 CSIRO095-12070078 53 5.83756 tfidf
48 Q0 CSIRO083-00452180 54 5.83756 tfidf
48 Q0 CSIRO253-14886926 55 5.83612 tfidf
48 Q0 CSIRO131-06769442 56 5.81826 tfidf
48 Q0 CSIRO096-01908976 57 5.78913 tfidf
48 Q0 CSIRO116-02570610 58 5.78913 tfidf
48 Q0 CSIRO098-02018927 59 5.78913 tfidf
48 Q0 CSIRO066-02559832 60 5.6638 tfidf
48 Q0 CSIRO111-16237786 61 5.6638 tfidf
48 Q0 CSIRO187-02895661 62 5.63649 tfidf
48 Q0 CSIRO135-16652794 63 5.62541 tfidf
48 Q0 CSIRO254-09424513 64 5.56666 tfidf
48 Q0 CSIRO171-13175707 65 5.53732 tfidf
48 Q0 CSIRO134-10762571 66 5.53731 tfidf
48 Q0 CSIRO137-12532427 67 5.53731 tfidf
48 Q0 CSIRO134-11049916 68 5.53731 tfidf
48 Q0 CSIRO063-04106068 69 5.49117 tfidf
48 Q0 CSIRO117-06336137 70 5.49117 tfidf
48 Q0 CSIRO098-02203745 71 5.48112 tfidf
48 Q0 CSIRO082-05961346 72 5.25753 tfidf
48 Q0 CSIRO082-05949372 73 5.25753 tfidf
48 Q0 CSIRO116-15388385 74 5.25753 tfidf
48 Q0 CSIRO112-01799902 75 5.25753 tfidf
48 Q0 CSIRO098-02588672 76 5.25753 tfidf
48 Q0 CSIRO130-03533634 77 5.16891 tfidf
48 Q0 CSIRO063-04219403 78 5.12374 tfidf
48 Q0 CSIRO130-11999758 79 5.04889 tfidf
48 Q0 CSIRO115-07079715 80 5.04754 tfidf
48 Q0 CSIRO130-10332504 81 5.04754 tfidf
48 Q0 CSIRO098-03421637 82 4.96928 tfidf
48 Q0 CSIRO112-00166516 83 4.96928 tfidf
48 Q0 CSIRO189-07339634 84 4.95661 tfidf
48 Q0 CSIRO266-03377438 85 4.88206 tfidf
48 Q0 CSIRO115-09038959 86 4.82396 tfidf
48 Q0 CSIRO115-06444060 87 4.82396 tfidf
48 Q0 CSIRO118-12826374 88 4.79665 tfidf
48 Q0 CSIRO190-05543411 89 4.79665 tfidf
48 Q0 CSIRO098-00365304 90 4.7866 tfidf
48 Q0 CSIRO082-06094516 91 4.7866 tfidf
48 Q0 CSIRO084-07431470 92 4.7866 tfidf
48 Q0 CSIRO112-01071755 93 4.7866 tfidf
48 Q0 CSIRO192-05124119 94 4.7866 tfidf
48 Q0 CSIRO096-00317996 95 4.7866 tfidf
48 Q0 CSIRO189-07740486 96 4.7866 tfidf
48 Q0 CSIRO111-14787591 97 4.7866 tfidf
48 Q0 CSIRO258-08871003 98 4.77121 tfidf
48 Q0 CSIRO142-06579585 99 4.6187 tfidf
48 Q0 CSIRO266-02770346 100 4.6187 tfidf
48 Q0 CSIRO112-12309715 101 4.60106 tfidf
48 Q0 CSIRO082-05972568 102 4.56301 tfidf
48 Q0 CSIRO063-04288011 103 4.56301 tfidf
48 Q0 CSIRO253-11518039 104 4.56301 tfidf
48 Q0 CSIRO187-03380072 105 4.56301 tfidf
48 Q0 CSIRO098-06445607 106 4.56301 tfidf
48 Q0 CSIRO098-06303536 107 4.56301 tfidf
48 Q0 CSIRO082-06102568 108 4.56301 tfidf
48 Q0 CSIRO136-07238975 109 4.56301 tfidf
48 Q0 CSIRO117-06559771 110 4.56301 tfidf
48 Q0 CSIRO096-04198785 111 4.56301 tfidf
48 Q0 CSIRO124-16510174 112 4.56301 tfidf
48 Q0 CSIRO082-06114000 113 4.56301 tfidf
48 Q0 CSIRO084-07848594 114 4.56301 tfidf
48 Q0 CSIRO095-06446088 115 4.56301 tfidf
48 Q0 CSIRO180-15517031 116 4.54339 tfidf
48 Q0 CSIRO129-12648579 117 4.54302 tfidf
48 Q0 CSIRO187-12359986 118 4.54302 tfidf
48 Q0 CSIRO187-11925186 119 4.54302 tfidf
48 Q0 CSIRO172-02986196 120 4.53571 tfidf
48 Q0 CSIRO117-07839500 121 4.53571 tfidf
48 Q0 CSIRO187-03180543 122 4.53571 tfidf
48 Q0 CSIRO170-11009197 123 4.53571 tfidf
48 Q0 CSIRO130-07181385 124 4.46349 tfidf
48 Q0 CSIRO112-06425601 125 4.39038 tfidf
48 Q0 CSIRO251-04798948 126 4.35776 tfidf
48 Q0 CSIRO146-11749100 127 4.35776 tfidf
48 Q0 CSIRO146-11655024 128 4.35776 tfidf
48 Q0 CSIRO124-16237183 129 4.35518 tfidf
48 Q0 CSIRO174-09455319 130 4.31828 tfidf
48 Q0 CSIRO174-09389612 131 4.31828 tfidf
48 Q0 CSIRO112-04482173 132 4.31828 tfidf
48 Q0 CSIRO130-07646708 133 4.28208 tfidf
48 Q0 CSIRO116-02875559 134 4.27476 tfidf
48 Q0 CSIRO090-14751077 135 4.27476 tfidf
48 Q0 CSIRO253-12370447 136 4.27476 tfidf
48 Q0 CSIRO115-09583858 137 4.27476 tfidf
48 Q0 CSIRO253-13753828 138 4.27476 tfidf
48 Q0 CSIRO136-05365989 139 4.27476 tfidf
48 Q0 CSIRO253-10565722 140 4.27476 tfidf
48 Q0 CSIRO136-06052511 141 4.27476 tfidf
48 Q0 CSIRO253-11168151 142 4.27476 tfidf
48 Q0 CSIRO114-13498673 143 4.27476 tfidf
48 Q0 CSIRO111-16092873 144 4.27476 tfidf
48 Q0 CSIRO085-04878414 145 4.27476 tfidf
48 Q0 CSIRO116-14271631 146 4.27476 tfidf
48 Q0 CSIRO072-02493584 147 4.24057 tfidf
48 Q0 CSIRO142-06634554 148 4.20254 tfidf
48 Q0 CSIRO171-10223264 149 4.19345 tfidf
48 Q0 CSIRO180-12959916 150 4.16748 tfidf
48 Q0 CSIRO190-04325385 151 4.13958 tfidf
48 Q0 CSIRO093-13231464 152 4.12944 tfidf
48 Q0 CSIRO111-15452511 153 4.12944 tfidf
48 Q0 CSIRO101-15709280 154 4.12944 tfidf
48 Q0 CSIRO136-13209781 155 4.12944 tfidf
48 Q0 CSIRO138-04283717 156 4.12944 tfidf
48 Q0 CSIRO104-09825956 157 4.12944 tfidf
48 Q0 CSIRO007-02796085 158 4.12944 tfidf
48 Q0 CSIRO171-09087773 159 4.10945 tfidf
48 Q0 CSIRO197-05809057 160 4.07669 tfidf
48 Q0 CSIRO075-05166371 161 3.95681 tfidf
48 Q0 CSIRO266-02662669 162 3.9416 tfidf
48 Q0 CSIRO266-01330939 163 3.9416 tfidf
48 Q0 CSIRO112-00432459 164 3.9416 tfidf
48 Q0 CSIRO085-04191349 165 3.8685 tfidf
48 Q0 CSIRO253-12177354 166 3.8685 tfidf
48 Q0 CSIRO253-11076728 167 3.8685 tfidf
48 Q0 CSIRO098-03196317 168 3.8685 tfidf
48 Q0 CSIRO098-02961715 169 3.8685 tfidf
48 Q0 CSIRO063-10301616 170 3.8685 tfidf
48 Q0 CSIRO135-14603262 171 3.8685 tfidf
48 Q0 CSIRO196-11613685 172 3.8685 tfidf
48 Q0 CSIRO146-02714667 173 3.8685 tfidf
48 Q0 CSIRO064-13428636 174 3.8685 tfidf
48 Q0 CSIRO131-06754823 175 3.8685 tfidf
48 Q0 CSIRO091-14082657 176 3.8685 tfidf
48 Q0 CSIRO066-06105471 177 3.8685 tfidf
48 Q0 CSIRO113-05014969 178 3.8685 tfidf
48 Q0 CSIRO190-07182149 179 3.8685 tfidf
48 Q0 CSIRO130-13654454 180 3.77987 tfidf
48 Q0 CSIRO115-16611679 181 3.77987 tfidf
48 Q0 CSIRO080-04492916 182 3.77987 tfidf
48 Q0 CSIRO197-05667364 183 3.77987 tfidf
48 Q0 CSIRO099-04556324 184 3.77987 tfidf
48 Q0 CSIRO099-04533183 185 3.77987 tfidf
48 Q0 CSIRO253-12244049 186 3.77987 tfidf
48 Q0 CSIRO170-13324469 187 3.77987 tfidf
48 Q0 CSIRO130-06307088 188 3.69586 tfidf
48 Q0 CSIRO189-06909895 189 3.69586 tfidf
48 Q0 CSIRO112-00892236 190 3.69586 tfidf
48 Q0 CSIRO099-04599429 191 3.69586 tfidf
48 Q0 CSIRO099-04578305 192 3.69586 tfidf
48 Q0 CSIRO062-16223107 193 3.69586 tfidf
48 Q0 CSIRO130-01631389 194 3.69586 tfidf
48 Q0 CSIRO130-01483545 195 3.69586 tfidf
48 Q0 CSIRO130-13327668 196 3.69586 tfidf
48 Q0 CSIRO093-02130812 197 3.69586 tfidf
48 Q0 CSIRO181-00181127 198 3.69586 tfidf
48 Q0 CSIRO093-02176896 199 3.69586 tfidf
