5 Q0 CSIRO257-03932692 1 7.47771 tfidf
5 Q0 CSIRO257-03179665 2 6.38652 tfidf
5 Q0 CSIRO257-04398159 3 6.34346 tfidf
5 Q0 CSIRO119-16070692 4 6.29817 tfidf
5 Q0 CSIRO257-04292639 5 6.25041 tfidf
5 Q0 CSIRO257-03348730 6 6.18491 tfidf
5 Q0 CSIRO147-04594634 7 6.12227 tfidf
5 Q0 CSIRO192-05245392 8 6.08919 tfidf
5 Q0 CSIRO116-03668055 9 5.96246 tfidf
5 Q0 CSIRO257-03057308 10 5.96246 tfidf
5 Q0 CSIRO257-03480936 11 5.95267 tfidf
5 Q0 CSIRO127-01931802 12 5.83703 tfidf
5 Q0 CSIRO187-13369786 13 5.80266 tfidf
5 Q0 CSIRO187-13254051 14 5.71677 tfidf
5 Q0 CSIRO129-13467742 15 5.69061 tfidf
5 Q0 CSIRO257-04521418 16 5.63581 tfidf
5 Q0 CSIRO258-09588294 17 5.60706 tfidf
5 Q0 CSIRO257-04154033 18 5.57735 tfidf
5 Q0 CSIRO130-07040949 19 5.49833 tfidf
5 Q0 CSIRO145-11435393 20 5.44726 tfidf
5 Q0 CSIRO257-03695984 21 5.44726 tfidf
5 Q0 CSIRO258-09578742 22 5.39302 tfidf
5 Q0 CSIRO130-08278681 23 5.37417 tfidf
5 Q0 CSIRO145-11423992 24 5.3549 tfidf
5 Q0 CSIRO172-11297644 25 5.3549 tfidf
5 Q0 CSIRO258-09598386 26 5.3549 tfidf
5 Q0 CSIRO172-04758839 27 5.33521 tfidf
5 Q0 CSIRO257-02962820 28 5.33521 tfidf
5 Q0 CSIRO066-10349872 29 5.31506 tfidf
5 Q0 CSIRO066-10413555 30 5.31506 tfidf
5 Q0 CSIRO201-01489774 31 5.31506 tfidf
5 Q0 CSIRO066-10382051 32 5.29443 tfidf
5 Q0 CSIRO172-04701315 33 5.29443 tfidf
5 Q0 CSIRO172-06824877 34 5.29443 tfidf
5 Q0 CSIRO258-09611444 35 5.27331 tfidf
5 Q0 CSIRO130-02485072 36 5.25166 tfidf
5 Q0 CSIRO130-02259381 37 5.25166 tfidf
5 Q0 CSIRO130-03533634 38 5.22947 tfidf
5 Q0 CSIRO112-12309715 39 5.22947 tfidf
5 Q0 CSIRO257-03856977 40 5.2067 tfidf
5 Q0 CSIRO258-09538339 41 5.18333 tfidf
5 Q0 CSIRO172-04053687 42 5.15931 tfidf
5 Q0 CSIRO172-04106155 43 5.13462 tfidf
5 Q0 CSIRO172-04524058 44 5.10921 tfidf
5 Q0 CSIRO257-03581743 45 5.08305 tfidf
5 Q0 CSIRO172-04147836 46 5.05607 tfidf
5 Q0 CSIRO126-07016734 47 5.02824 tfidf
5 Q0 CSIRO135-08674632 48 5.02824 tfidf
5 Q0 CSIRO145-08514470 49 5.02824 tfidf
5 Q0 CSIRO130-01793508 50 4.9995 tfidf
5 Q0 CSIRO130-02015565 51 4.9995 tfidf
5 Q0 CSIRO201-00341640 52 4.9995 tfidf
5 Q0 CSIRO126-04369225 53 4.9995 tfidf
5 Q0 CSIRO172-05099630 54 4.96979 tfidf
5 Q0 CSIRO258-09510416 55 4.93903 tfidf
5 Q0 CSIRO126-04289983 56 4.93903 tfidf
5 Q0 CSIRO140-02175170 57 4.93903 tfidf
5 Q0 CSIRO200-10109829 58 4.93903 tfidf
5 Q0 CSIRO172-07371835 59 4.90715 tfidf
5 Q0 CSIRO257-02869941 60 4.90715 tfidf
5 Q0 CSIRO145-08503971 61 4.87407 tfidf
5 Q0 CSIRO172-04004541 62 4.87407 tfidf
5 Q0 CSIRO172-04488082 63 4.87407 tfidf
5 Q0 CSIRO258-09569746 64 4.87407 tfidf
5 Q0 CSIRO130-03084429 65 4.87407 tfidf
5 Q0 CSIRO130-03165138 66 4.87407 tfidf
5 Q0 CSIRO136-16380054 67 4.87407 tfidf
5 Q0 CSIRO200-06535435 68 4.8397 tfidf
5 Q0 CSIRO063-02599173 69 4.8397 tfidf
5 Q0 CSIRO127-05122665 70 4.8397 tfidf
5 Q0 CSIRO172-04183536 71 4.8397 tfidf
5 Q0 CSIRO103-04393319 72 4.8397 tfidf
5 Q0 CSIRO136-00770129 73 4.8397 tfidf
5 Q0 CSIRO172-04909208 74 4.80391 tfidf
5 Q0 CSIRO258-09530960 75 4.80391 tfidf
5 Q0 CSIRO130-14381058 76 4.80391 tfidf
5 Q0 CSIRO144-08979569 77 4.80391 tfidf
5 Q0 CSIRO141-02767497 78 4.80391 tfidf
5 Q0 CSIRO200-11794555 79 4.80391 tfidf
5 Q0 CSIRO190-06229998 80 4.76661 tfidf
5 Q0 CSIRO135-14851550 81 4.76661 tfidf
5 Q0 CSIRO200-11188221 82 4.76661 tfidf
5 Q0 CSIRO130-07482184 83 4.72765 tfidf
5 Q0 CSIRO116-10038514 84 4.72765 tfidf
5 Q0 CSIRO265-13848339 85 4.72765 tfidf
5 Q0 CSIRO258-09503032 86 4.72765 tfidf
5 Q0 CSIRO112-11876022 87 4.72765 tfidf
5 Q0 CSIRO201-01360817 88 4.68687 tfidf
5 Q0 CSIRO145-13241899 89 4.68687 tfidf
5 Q0 CSIRO145-13233068 90 4.68687 tfidf
5 Q0 CSIRO112-12874162 91 4.68687 tfidf
5 Q0 CSIRO172-03993518 92 4.6441 tfidf
5 Q0 CSIRO265-15334962 93 4.6441 tfidf
5 Q0 CSIRO265-14966045 94 4.6441 tfidf
5 Q0 CSIRO147-03750875 95 4.6441 tfidf
5 Q0 CSIRO258-09519659 96 4.6441 tfidf
5 Q0 CSIRO200-05823692 97 4.6441 tfidf
5 Q0 CSIRO265-14828234 98 4.6441 tfidf
5 Q0 CSIRO172-04679185 99 4.6441 tfidf
5 Q0 CSIRO137-06773887 100 4.6441 tfidf
5 Q0 CSIRO126-14389499 101 4.6441 tfidf
5 Q0 CSIRO172-04372048 102 4.6441 tfidf
5 Q0 CSIRO200-07404758 103 4.6441 tfidf
5 Q0 CSIRO258-09557736 104 4.6441 tfidf
5 Q0 CSIRO172-04643233 105 4.6441 tfidf
5 Q0 CSIRO265-14937377 106 4.6441 tfidf
5 Q0 CSIRO200-05855069 107 4.59914 tfidf
5 Q0 CSIRO200-11542307 108 4.59914 tfidf
5 Q0 CSIRO187-13233963 109 4.59914 tfidf
5 Q0 CSIRO080-08974605 110 4.59914 tfidf
5 Q0 CSIRO201-03496121 111 4.59914 tfidf
5 Q0 CSIRO144-10763586 112 4.59914 tfidf
5 Q0 CSIRO192-06319336 113 4.59914 tfidf
5 Q0 CSIRO172-04614692 114 4.55175 tfidf
5 Q0 CSIRO254-03611601 115 4.55175 tfidf
5 Q0 CSIRO126-14695029 116 4.55175 tfidf
5 Q0 CSIRO172-04314475 117 4.55175 tfidf
5 Q0 CSIRO131-14181763 118 4.55175 tfidf
5 Q0 CSIRO200-05267272 119 4.55175 tfidf
5 Q0 CSIRO131-14188199 120 4.55175 tfidf
5 Q0 CSIRO265-15370389 121 4.55175 tfidf
5 Q0 CSIRO254-04007454 122 4.55175 tfidf
5 Q0 CSIRO201-03746014 123 4.55175 tfidf
5 Q0 CSIRO200-11954690 124 4.55175 tfidf
5 Q0 CSIRO126-04787366 125 4.55175 tfidf
5 Q0 CSIRO197-06119668 126 4.55175 tfidf
5 Q0 CSIRO200-10175271 127 4.55175 tfidf
5 Q0 CSIRO172-05078187 128 4.50165 tfidf
5 Q0 CSIRO147-03119963 129 4.50165 tfidf
5 Q0 CSIRO200-08706107 130 4.50165 tfidf
5 Q0 CSIRO144-14353132 131 4.50165 tfidf
5 Q0 CSIRO144-14341634 132 4.50165 tfidf
5 Q0 CSIRO138-09723574 133 4.50165 tfidf
5 Q0 CSIRO137-09643821 134 4.50165 tfidf
5 Q0 CSIRO172-03688883 135 4.50165 tfidf
5 Q0 CSIRO200-05729436 136 4.50165 tfidf
5 Q0 CSIRO200-15545313 137 4.50165 tfidf
5 Q0 CSIRO207-03159714 138 4.50165 tfidf
5 Q0 CSIRO130-01258707 139 4.50165 tfidf
5 Q0 CSIRO130-01365692 140 4.50165 tfidf
5 Q0 CSIRO265-15006664 141 4.50165 tfidf
5 Q0 CSIRO073-02067648 142 4.50165 tfidf
5 Q0 CSIRO172-03727349 143 4.50165 tfidf
5 Q0 CSIRO265-15447119 144 4.50165 tfidf
5 Q0 CSIRO200-05330109 145 4.50165 tfidf
5 Q0 CSIRO201-01055268 146 4.50165 tfidf
5 Q0 CSIRO200-08140180 147 4.50165 tfidf
5 Q0 CSIRO068-03915327 148 4.50165 tfidf
5 Q0 CSIRO200-07626621 149 4.50165 tfidf
5 Q0 CSIRO069-00311329 150 4.50165 tfidf
5 Q0 CSIRO201-01818767 151 4.50165 tfidf
5 Q0 CSIRO201-03365340 152 4.44851 tfidf
5 Q0 CSIRO200-09845767 153 4.44851 tfidf
5 Q0 CSIRO254-03807097 154 4.44851 tfidf
5 Q0 CSIRO201-03239002 155 4.44851 tfidf
5 Q0 CSIRO200-05143463 156 4.44851 tfidf
5 Q0 CSIRO131-14647279 157 4.44851 tfidf
5 Q0 CSIRO201-01391431 158 4.44851 tfidf
5 Q0 CSIRO265-16239018 159 4.44851 tfidf
5 Q0 CSIRO130-02839540 160 4.44851 tfidf
5 Q0 CSIRO130-02746432 161 4.44851 tfidf
5 Q0 CSIRO172-05064431 162 4.44851 tfidf
5 Q0 CSIRO126-07386770 163 4.44851 tfidf
5 Q0 CSIRO265-15347234 164 4.44851 tfidf
5 Q0 CSIRO126-09305483 165 4.44851 tfidf
5 Q0 CSIRO200-06951836 166 4.44851 tfidf
5 Q0 CSIRO200-11986868 167 4.44851 tfidf
5 Q0 CSIRO138-09783410 168 4.44851 tfidf
5 Q0 CSIRO126-15102700 169 4.44851 tfidf
5 Q0 CSIRO146-05428922 170 4.44851 tfidf
5 Q0 CSIRO172-04404809 171 4.44851 tfidf
5 Q0 CSIRO201-01869403 172 4.44851 tfidf
5 Q0 CSIRO254-03841274 173 4.44851 tfidf
5 Q0 CSIRO172-04133007 174 4.44851 tfidf
5 Q0 CSIRO112-10342838 175 4.44851 tfidf
5 Q0 CSIRO200-10703914 176 4.44851 tfidf
5 Q0 CSIRO254-16557053 177 4.44851 tfidf
5 Q0 CSIRO146-06494473 178 4.44851 tfidf
5 Q0 CSIRO200-04573042 179 4.39194 tfidf
5 Q0 CSIRO146-07198309 180 4.39194 tfidf
5 Q0 CSIRO171-15402869 181 4.39194 tfidf
5 Q0 CSIRO200-10897061 182 4.39194 tfidf
5 Q0 CSIRO200-07181078 183 4.39194 tfidf
5 Q0 CSIRO145-13926923 184 4.39194 tfidf
5 Q0 CSIRO145-13916956 185 4.39194 tfidf
5 Q0 CSIRO126-14804012 186 4.39194 tfidf
5 Q0 CSIRO129-13397500 187 4.39194 tfidf
5 Q0 CSIRO126-09673034 188 4.39194 tfidf
5 Q0 CSIRO200-12208614 189 4.39194 tfidf
5 Q0 CSIRO200-14377173 190 4.39194 tfidf
5 Q0 CSIRO200-14438201 191 4.39194 tfidf
5 Q0 CSIRO137-01061432 192 4.39194 tfidf
5 Q0 CSIRO200-06256582 193 4.39194 tfidf
5 Q0 CSIRO172-05207092 194 4.39194 tfidf
5 Q0 CSIRO172-08122606 195 4.39194 tfidf
5 Q0 CSIRO201-01207339 196 4.39194 tfidf
5 Q0 CSIRO187-04670101 197 4.39194 tfidf
5 Q0 CSIRO201-03554341 198 4.39194 tfidf
5 Q0 CSIRO201-03451897 199 4.39194 tfidf
