0,0
0,0
0.333333,0.04
0.5,0.08
0.6,0.12
0.666667,0.16
0.714286,0.2
0.625,0.2
0.666667,0.24
0.6,0.24
0.545455,0.24
0.583333,0.28
0.615385,0.32
0.571429,0.32
0.533333,0.32
0.5,0.32
0.529412,0.36
0.5,0.36
0.526316,0.4
0.5,0.4
0.47619,0.4
0.5,0.44
0.521739,0.48
0.5,0.48
0.48,0.48
