0,0
0,0
0,0
0,0
0,0
0,0
0,0
0,0
0,0
0.1,0.04
0.0909091,0.04
0.0833333,0.04
0.0769231,0.04
0.0714286,0.04
0.0666667,0.04
0.0625,0.04
0.0588235,0.04
0.0555556,0.04
0.0526316,0.04
0.05,0.04
0.047619,0.04
0.0454545,0.04
0.0434783,0.04
0.0416667,0.04
0.04,0.04
