41 Q0 CSIRO190-07102649 1 10.7694 tfidf
41 Q0 CSIRO148-03728902 2 10.3506 tfidf
41 Q0 CSIRO130-11999758 3 9.99649 tfidf
41 Q0 CSIRO116-10749199 4 9.65892 tfidf
41 Q0 CSIRO265-05887307 5 9.63535 tfidf
41 Q0 CSIRO112-00000000 6 9.53368 tfidf
41 Q0 CSIRO111-15322841 7 9.49048 tfidf
41 Q0 CSIRO129-11692497 8 9.42604 tfidf
41 Q0 CSIRO130-06307088 9 9.40441 tfidf
41 Q0 CSIRO148-03695313 10 9.36992 tfidf
41 Q0 CSIRO112-02075006 11 8.98646 tfidf
41 Q0 CSIRO112-01699180 12 8.88907 tfidf
41 Q0 CSIRO130-13459112 13 8.88029 tfidf
41 Q0 CSIRO112-02488961 14 8.87777 tfidf
41 Q0 CSIRO136-00770129 15 8.85206 tfidf
41 Q0 CSIRO190-07046972 16 8.72171 tfidf
41 Q0 CSIRO144-13613342 17 8.6949 tfidf
41 Q0 CSIRO144-13595763 18 8.64642 tfidf
41 Q0 CSIRO148-04661866 19 8.59822 tfidf
41 Q0 CSIRO130-07181385 20 8.58081 tfidf
41 Q0 CSIRO141-03846042 21 8.56054 tfidf
41 Q0 CSIRO265-13950431 22 8.5044 tfidf
41 Q0 CSIRO112-02672996 23 8.43699 tfidf
41 Q0 CSIRO148-03957246 24 8.41728 tfidf
41 Q0 CSIRO148-04110586 25 8.41728 tfidf
41 Q0 CSIRO111-16324774 26 8.40754 tfidf
41 Q0 CSIRO144-13766693 27 8.39392 tfidf
41 Q0 CSIRO112-13691317 28 8.36567 tfidf
41 Q0 CSIRO112-01327399 29 8.36472 tfidf
41 Q0 CSIRO136-06353913 30 8.35895 tfidf
41 Q0 CSIRO130-06584482 31 8.34992 tfidf
41 Q0 CSIRO148-04573244 32 8.32736 tfidf
41 Q0 CSIRO136-06164239 33 8.31507 tfidf
41 Q0 CSIRO112-01901327 34 8.31496 tfidf
41 Q0 CSIRO112-01799902 35 8.28545 tfidf
41 Q0 CSIRO141-03940264 36 8.28075 tfidf
41 Q0 CSIRO144-13755689 37 8.27235 tfidf
41 Q0 CSIRO140-05473045 38 8.15889 tfidf
41 Q0 CSIRO146-06917871 39 8.11224 tfidf
41 Q0 CSIRO148-04577620 40 8.1081 tfidf
41 Q0 CSIRO148-04637485 41 8.10231 tfidf
41 Q0 CSIRO112-02275638 42 8.05337 tfidf
41 Q0 CSIRO111-14787591 43 7.9822 tfidf
41 Q0 CSIRO093-03653127 44 7.97706 tfidf
41 Q0 CSIRO093-07502117 45 7.97172 tfidf
41 Q0 CSIRO112-02174734 46 7.94325 tfidf
41 Q0 CSIRO111-14616991 47 7.92261 tfidf
41 Q0 CSIRO140-05461966 48 7.90242 tfidf
41 Q0 CSIRO130-13654454 49 7.89525 tfidf
41 Q0 CSIRO139-09812782 50 7.89427 tfidf
41 Q0 CSIRO112-00649681 51 7.87396 tfidf
41 Q0 CSIRO173-09395701 52 7.83116 tfidf
41 Q0 CSIRO148-04591632 53 7.81762 tfidf
41 Q0 CSIRO136-05449318 54 7.81578 tfidf
41 Q0 CSIRO130-09148901 55 7.81156 tfidf
41 Q0 CSIRO112-02825901 56 7.79155 tfidf
41 Q0 CSIRO135-11091369 57 7.79148 tfidf
41 Q0 CSIRO125-01113285 58 7.79148 tfidf
41 Q0 CSIRO138-11063507 59 7.76628 tfidf
41 Q0 CSIRO112-15929103 60 7.76513 tfidf
41 Q0 CSIRO116-04482165 61 7.75536 tfidf
41 Q0 CSIRO136-00274327 62 7.72914 tfidf
41 Q0 CSIRO136-05968116 63 7.72349 tfidf
41 Q0 CSIRO093-05320258 64 7.7076 tfidf
41 Q0 CSIRO093-05304114 65 7.7076 tfidf
41 Q0 CSIRO112-01974666 66 7.68899 tfidf
41 Q0 CSIRO112-00166516 67 7.67422 tfidf
41 Q0 CSIRO139-09802423 68 7.67422 tfidf
41 Q0 CSIRO111-16092873 69 7.67402 tfidf
41 Q0 CSIRO138-11154703 70 7.65286 tfidf
41 Q0 CSIRO266-04184084 71 7.64038 tfidf
41 Q0 CSIRO112-01613308 72 7.58637 tfidf
41 Q0 CSIRO115-14819552 73 7.58089 tfidf
41 Q0 CSIRO066-04952779 74 7.57485 tfidf
41 Q0 CSIRO136-07152427 75 7.57008 tfidf
41 Q0 CSIRO138-07936810 76 7.51843 tfidf
41 Q0 CSIRO148-04582665 77 7.51598 tfidf
41 Q0 CSIRO138-07922693 78 7.48279 tfidf
41 Q0 CSIRO136-00609547 79 7.46355 tfidf
41 Q0 CSIRO112-01239167 80 7.45826 tfidf
41 Q0 CSIRO132-04937491 81 7.45729 tfidf
41 Q0 CSIRO112-15466947 82 7.45013 tfidf
41 Q0 CSIRO111-16237786 83 7.43718 tfidf
41 Q0 CSIRO138-15553621 84 7.43332 tfidf
41 Q0 CSIRO066-05731279 85 7.42777 tfidf
41 Q0 CSIRO092-15207489 86 7.40329 tfidf
41 Q0 CSIRO134-10481156 87 7.39967 tfidf
41 Q0 CSIRO135-14090949 88 7.38998 tfidf
41 Q0 CSIRO112-00432459 89 7.38663 tfidf
41 Q0 CSIRO066-05028852 90 7.35953 tfidf
41 Q0 CSIRO092-01426197 91 7.34688 tfidf
41 Q0 CSIRO137-01695301 92 7.34387 tfidf
41 Q0 CSIRO141-07798295 93 7.31671 tfidf
41 Q0 CSIRO135-13610280 94 7.31671 tfidf
41 Q0 CSIRO130-10332504 95 7.30895 tfidf
41 Q0 CSIRO130-08278681 96 7.28602 tfidf
41 Q0 CSIRO126-03047156 97 7.28047 tfidf
41 Q0 CSIRO066-05753998 98 7.26034 tfidf
41 Q0 CSIRO112-00892236 99 7.25416 tfidf
41 Q0 CSIRO135-02477715 100 7.24712 tfidf
41 Q0 CSIRO066-05883418 101 7.24712 tfidf
41 Q0 CSIRO066-04802008 102 7.23839 tfidf
41 Q0 CSIRO113-07558571 103 7.23744 tfidf
41 Q0 CSIRO136-00631561 104 7.23744 tfidf
41 Q0 CSIRO066-05680472 105 7.22599 tfidf
41 Q0 CSIRO139-07403320 106 7.17824 tfidf
41 Q0 CSIRO137-03025990 107 7.16941 tfidf
41 Q0 CSIRO125-01541695 108 7.16494 tfidf
41 Q0 CSIRO093-07440838 109 7.16143 tfidf
41 Q0 CSIRO137-04402059 110 7.1451 tfidf
41 Q0 CSIRO081-06725638 111 7.14123 tfidf
41 Q0 CSIRO112-16147458 112 7.13027 tfidf
41 Q0 CSIRO147-01622179 113 7.10695 tfidf
41 Q0 CSIRO137-05312839 114 7.10695 tfidf
41 Q0 CSIRO112-01146034 115 7.10497 tfidf
41 Q0 CSIRO129-03161642 116 7.10381 tfidf
41 Q0 CSIRO132-02888400 117 7.08673 tfidf
41 Q0 CSIRO265-07070754 118 7.07293 tfidf
41 Q0 CSIRO138-15616613 119 7.07293 tfidf
41 Q0 CSIRO148-04587435 120 7.07107 tfidf
41 Q0 CSIRO111-16414166 121 7.05335 tfidf
41 Q0 CSIRO139-07451447 122 7.0528 tfidf
41 Q0 CSIRO148-03935370 123 7.04678 tfidf
41 Q0 CSIRO112-16276223 124 7.03864 tfidf
41 Q0 CSIRO130-06874841 125 7.0373 tfidf
41 Q0 CSIRO112-13867133 126 7.03694 tfidf
41 Q0 CSIRO135-08674632 127 7.02081 tfidf
41 Q0 CSIRO130-10800738 128 6.98898 tfidf
41 Q0 CSIRO148-04675001 129 6.98782 tfidf
41 Q0 CSIRO148-03902404 130 6.97332 tfidf
41 Q0 CSIRO130-09695170 131 6.96737 tfidf
41 Q0 CSIRO112-01071755 132 6.9503 tfidf
41 Q0 CSIRO112-02592360 133 6.93754 tfidf
41 Q0 CSIRO112-00344023 134 6.93419 tfidf
41 Q0 CSIRO136-13896207 135 6.9237 tfidf
41 Q0 CSIRO112-13915283 136 6.91853 tfidf
41 Q0 CSIRO145-04366291 137 6.90053 tfidf
41 Q0 CSIRO066-04856837 138 6.90029 tfidf
41 Q0 CSIRO093-03548715 139 6.88464 tfidf
41 Q0 CSIRO130-06028223 140 6.87334 tfidf
41 Q0 CSIRO130-11635126 141 6.85178 tfidf
41 Q0 CSIRO066-03881219 142 6.83863 tfidf
41 Q0 CSIRO112-15740091 143 6.83754 tfidf
41 Q0 CSIRO136-05736129 144 6.82076 tfidf
41 Q0 CSIRO133-13317794 145 6.8145 tfidf
41 Q0 CSIRO112-00807120 146 6.79304 tfidf
41 Q0 CSIRO191-04682187 147 6.77358 tfidf
41 Q0 CSIRO112-02374753 148 6.76314 tfidf
41 Q0 CSIRO119-12834177 149 6.75792 tfidf
41 Q0 CSIRO092-01030452 150 6.7511 tfidf
41 Q0 CSIRO188-02443935 151 6.71879 tfidf
41 Q0 CSIRO112-00717629 152 6.71103 tfidf
41 Q0 CSIRO136-06455195 153 6.66495 tfidf
41 Q0 CSIRO136-07447980 154 6.65959 tfidf
41 Q0 CSIRO066-05795118 155 6.65959 tfidf
41 Q0 CSIRO092-04199827 156 6.64949 tfidf
41 Q0 CSIRO112-14218522 157 6.64132 tfidf
41 Q0 CSIRO111-15586318 158 6.64132 tfidf
41 Q0 CSIRO139-09608442 159 6.64111 tfidf
41 Q0 CSIRO137-12273214 160 6.6353 tfidf
41 Q0 CSIRO139-05490267 161 6.6353 tfidf
41 Q0 CSIRO111-15914448 162 6.63389 tfidf
41 Q0 CSIRO138-00111336 163 6.60197 tfidf
41 Q0 CSIRO137-07365830 164 6.60197 tfidf
41 Q0 CSIRO140-03575543 165 6.60197 tfidf
41 Q0 CSIRO137-01118407 166 6.60197 tfidf
41 Q0 CSIRO111-16597410 167 6.58946 tfidf
41 Q0 CSIRO133-13057017 168 6.57275 tfidf
41 Q0 CSIRO136-10500499 169 6.56701 tfidf
41 Q0 CSIRO188-02578109 170 6.55136 tfidf
41 Q0 CSIRO138-03373121 171 6.55032 tfidf
41 Q0 CSIRO119-15734512 172 6.54619 tfidf
41 Q0 CSIRO145-15235583 173 6.53288 tfidf
41 Q0 CSIRO138-09051667 174 6.53288 tfidf
41 Q0 CSIRO147-05343118 175 6.52886 tfidf
41 Q0 CSIRO112-05101834 176 6.5094 tfidf
41 Q0 CSIRO092-15178406 177 6.5094 tfidf
41 Q0 CSIRO136-12309797 178 6.49374 tfidf
41 Q0 CSIRO136-04956541 179 6.49374 tfidf
41 Q0 CSIRO134-05093612 180 6.48206 tfidf
41 Q0 CSIRO146-15850188 181 6.47033 tfidf
41 Q0 CSIRO147-03954897 182 6.46844 tfidf
41 Q0 CSIRO139-16671553 183 6.46358 tfidf
41 Q0 CSIRO136-14528850 184 6.4546 tfidf
41 Q0 CSIRO141-03039384 185 6.45205 tfidf
41 Q0 CSIRO145-09527936 186 6.4364 tfidf
41 Q0 CSIRO139-09598131 187 6.4364 tfidf
41 Q0 CSIRO135-06060028 188 6.43455 tfidf
41 Q0 CSIRO147-10161356 189 6.43455 tfidf
41 Q0 CSIRO133-13238587 190 6.43455 tfidf
41 Q0 CSIRO112-16382148 191 6.43119 tfidf
41 Q0 CSIRO127-01593551 192 6.42356 tfidf
41 Q0 CSIRO100-10775393 193 6.40041 tfidf
41 Q0 CSIRO098-03297480 194 6.37975 tfidf
41 Q0 CSIRO140-00023690 195 6.37775 tfidf
41 Q0 CSIRO112-00258706 196 6.37775 tfidf
41 Q0 CSIRO146-07198309 197 6.37693 tfidf
41 Q0 CSIRO133-10831029 198 6.3621 tfidf
41 Q0 CSIRO138-07906210 199 6.3621 tfidf
