0,0
0,0
0,0
0.25,0.04
0.4,0.08
0.5,0.12
0.428571,0.12
0.375,0.12
0.333333,0.12
0.3,0.12
0.272727,0.12
0.25,0.12
0.230769,0.12
0.214286,0.12
0.2,0.12
0.1875,0.12
0.176471,0.12
0.166667,0.12
0.157895,0.12
0.2,0.16
0.190476,0.16
0.181818,0.16
0.173913,0.16
0.166667,0.16
0.16,0.16
