25 Q0 CSIRO094-04057802 1 7.80447 tfidf
25 Q0 CSIRO266-04184084 2 7.54936 tfidf
25 Q0 CSIRO189-08086680 3 6.95444 tfidf
25 Q0 CSIRO135-08674632 4 6.86394 tfidf
25 Q0 CSIRO136-07588963 5 6.80411 tfidf
25 Q0 CSIRO135-09089936 6 6.68757 tfidf
25 Q0 CSIRO146-07198309 7 6.68682 tfidf
25 Q0 CSIRO190-08328938 8 6.63297 tfidf
25 Q0 CSIRO189-08575019 9 6.60542 tfidf
25 Q0 CSIRO190-09072845 10 6.58919 tfidf
25 Q0 CSIRO130-11999758 11 6.57885 tfidf
25 Q0 CSIRO116-10324076 12 6.56591 tfidf
25 Q0 CSIRO189-10072187 13 6.55647 tfidf
25 Q0 CSIRO190-05231838 14 6.48198 tfidf
25 Q0 CSIRO135-08572433 15 6.4582 tfidf
25 Q0 CSIRO062-14831056 16 6.44262 tfidf
25 Q0 CSIRO135-09430735 17 6.3889 tfidf
25 Q0 CSIRO093-06017484 18 6.34938 tfidf
25 Q0 CSIRO135-03088202 19 6.30378 tfidf
25 Q0 CSIRO190-03446369 20 6.23014 tfidf
25 Q0 CSIRO135-08500820 21 6.19677 tfidf
25 Q0 CSIRO189-11176189 22 6.14989 tfidf
25 Q0 CSIRO189-14543526 23 6.13255 tfidf
25 Q0 CSIRO139-08735693 24 6.12918 tfidf
25 Q0 CSIRO136-00770129 25 6.09743 tfidf
25 Q0 CSIRO095-04924761 26 6.00268 tfidf
25 Q0 CSIRO139-13017426 27 6.00059 tfidf
25 Q0 CSIRO136-00565207 28 5.97088 tfidf
25 Q0 CSIRO135-15785146 29 5.9698 tfidf
25 Q0 CSIRO189-13135143 30 5.9537 tfidf
25 Q0 CSIRO190-03128299 31 5.95193 tfidf
25 Q0 CSIRO189-11851835 32 5.91 tfidf
25 Q0 CSIRO139-13068632 33 5.89463 tfidf
25 Q0 CSIRO112-01239167 34 5.86204 tfidf
25 Q0 CSIRO139-14016824 35 5.84208 tfidf
25 Q0 CSIRO131-16185860 36 5.83659 tfidf
25 Q0 CSIRO063-04799107 37 5.83212 tfidf
25 Q0 CSIRO135-14204594 38 5.81878 tfidf
25 Q0 CSIRO189-15778952 39 5.81202 tfidf
25 Q0 CSIRO112-14218522 40 5.78325 tfidf
25 Q0 CSIRO139-15005959 41 5.75341 tfidf
25 Q0 CSIRO092-01177191 42 5.74407 tfidf
25 Q0 CSIRO134-00249454 43 5.71027 tfidf
25 Q0 CSIRO190-07606506 44 5.70444 tfidf
25 Q0 CSIRO190-03828644 45 5.69803 tfidf
25 Q0 CSIRO190-04473040 46 5.6966 tfidf
25 Q0 CSIRO190-09889080 47 5.69547 tfidf
25 Q0 CSIRO139-14761138 48 5.69518 tfidf
25 Q0 CSIRO190-06856046 49 5.6887 tfidf
25 Q0 CSIRO135-03897529 50 5.68343 tfidf
25 Q0 CSIRO092-00722931 51 5.68177 tfidf
25 Q0 CSIRO146-06135833 52 5.67846 tfidf
25 Q0 CSIRO129-13467742 53 5.67607 tfidf
25 Q0 CSIRO130-09148901 54 5.67261 tfidf
25 Q0 CSIRO189-09279043 55 5.66418 tfidf
25 Q0 CSIRO189-09805056 56 5.66418 tfidf
25 Q0 CSIRO189-09526296 57 5.66418 tfidf
25 Q0 CSIRO189-09031789 58 5.66418 tfidf
25 Q0 CSIRO112-01974666 59 5.65086 tfidf
25 Q0 CSIRO093-05444415 60 5.63264 tfidf
25 Q0 CSIRO125-01541695 61 5.62351 tfidf
25 Q0 CSIRO139-14005295 62 5.62065 tfidf
25 Q0 CSIRO139-12999952 63 5.60822 tfidf
25 Q0 CSIRO189-12902364 64 5.60459 tfidf
25 Q0 CSIRO189-15416917 65 5.60404 tfidf
25 Q0 CSIRO139-14128472 66 5.60001 tfidf
25 Q0 CSIRO139-14202042 67 5.59533 tfidf
25 Q0 CSIRO112-01901327 68 5.58683 tfidf
25 Q0 CSIRO190-02760675 69 5.58052 tfidf
25 Q0 CSIRO190-02917835 70 5.58052 tfidf
25 Q0 CSIRO066-05883418 71 5.57461 tfidf
25 Q0 CSIRO253-12177354 72 5.5708 tfidf
25 Q0 CSIRO190-05543411 73 5.56219 tfidf
25 Q0 CSIRO136-05449318 74 5.56027 tfidf
25 Q0 CSIRO189-07241965 75 5.55798 tfidf
25 Q0 CSIRO190-06922862 76 5.55015 tfidf
25 Q0 CSIRO134-00130642 77 5.53974 tfidf
25 Q0 CSIRO189-13779527 78 5.53553 tfidf
25 Q0 CSIRO112-02174734 79 5.52898 tfidf
25 Q0 CSIRO139-14052626 80 5.51256 tfidf
25 Q0 CSIRO139-14995138 81 5.50567 tfidf
25 Q0 CSIRO093-05475697 82 5.50538 tfidf
25 Q0 CSIRO189-16162365 83 5.50366 tfidf
25 Q0 CSIRO139-14310570 84 5.49802 tfidf
25 Q0 CSIRO139-13051100 85 5.46693 tfidf
25 Q0 CSIRO135-12129360 86 5.46681 tfidf
25 Q0 CSIRO136-05968116 87 5.45989 tfidf
25 Q0 CSIRO135-08543597 88 5.4527 tfidf
25 Q0 CSIRO135-13186471 89 5.45238 tfidf
25 Q0 CSIRO062-13043554 90 5.44658 tfidf
25 Q0 CSIRO112-01146034 91 5.43816 tfidf
25 Q0 CSIRO139-13611732 92 5.43816 tfidf
25 Q0 CSIRO111-16597410 93 5.43685 tfidf
25 Q0 CSIRO093-05808800 94 5.43539 tfidf
25 Q0 CSIRO139-14877076 95 5.43273 tfidf
25 Q0 CSIRO135-13388940 96 5.42881 tfidf
25 Q0 CSIRO102-16056616 97 5.42511 tfidf
25 Q0 CSIRO136-05365989 98 5.41163 tfidf
25 Q0 CSIRO136-05736129 99 5.40452 tfidf
25 Q0 CSIRO136-06052511 100 5.39724 tfidf
25 Q0 CSIRO135-03788058 101 5.38237 tfidf
25 Q0 CSIRO135-10799026 102 5.382 tfidf
25 Q0 CSIRO135-14645500 103 5.37917 tfidf
25 Q0 CSIRO062-15007543 104 5.37801 tfidf
25 Q0 CSIRO135-11962203 105 5.37396 tfidf
25 Q0 CSIRO146-06045462 106 5.36904 tfidf
25 Q0 CSIRO102-02966666 107 5.36005 tfidf
25 Q0 CSIRO112-03753265 108 5.35663 tfidf
25 Q0 CSIRO095-03048895 109 5.34705 tfidf
25 Q0 CSIRO130-07646708 110 5.33776 tfidf
25 Q0 CSIRO133-16550892 111 5.32534 tfidf
25 Q0 CSIRO135-15050009 112 5.32137 tfidf
25 Q0 CSIRO112-02374753 113 5.31383 tfidf
25 Q0 CSIRO139-14117507 114 5.30183 tfidf
25 Q0 CSIRO134-14717222 115 5.30183 tfidf
25 Q0 CSIRO146-07652343 116 5.29742 tfidf
25 Q0 CSIRO139-14191398 117 5.28934 tfidf
25 Q0 CSIRO133-16679493 118 5.28664 tfidf
25 Q0 CSIRO111-14579745 119 5.26981 tfidf
25 Q0 CSIRO139-12940820 120 5.26853 tfidf
25 Q0 CSIRO146-07154719 121 5.22421 tfidf
25 Q0 CSIRO135-03816237 122 5.21807 tfidf
25 Q0 CSIRO135-14261682 123 5.21418 tfidf
25 Q0 CSIRO135-14011526 124 5.21418 tfidf
25 Q0 CSIRO112-01613308 125 5.21341 tfidf
25 Q0 CSIRO190-08700840 126 5.20668 tfidf
25 Q0 CSIRO139-14290474 127 5.19854 tfidf
25 Q0 CSIRO112-02075006 128 5.19854 tfidf
25 Q0 CSIRO135-13863313 129 5.19196 tfidf
25 Q0 CSIRO190-09032483 130 5.17716 tfidf
25 Q0 CSIRO135-03923732 131 5.17528 tfidf
25 Q0 CSIRO135-03843717 132 5.15776 tfidf
25 Q0 CSIRO141-12716231 133 5.15079 tfidf
25 Q0 CSIRO189-14037128 134 5.15079 tfidf
25 Q0 CSIRO066-05998256 135 5.14951 tfidf
25 Q0 CSIRO189-15938436 136 5.14695 tfidf
25 Q0 CSIRO190-06179592 137 5.14151 tfidf
25 Q0 CSIRO093-05524815 138 5.13716 tfidf
25 Q0 CSIRO190-07102649 139 5.13716 tfidf
25 Q0 CSIRO180-15517031 140 5.13714 tfidf
25 Q0 CSIRO136-05616841 141 5.13219 tfidf
25 Q0 CSIRO190-06518960 142 5.12192 tfidf
25 Q0 CSIRO093-05960975 143 5.10687 tfidf
25 Q0 CSIRO142-06708959 144 5.10687 tfidf
25 Q0 CSIRO139-10163554 145 5.10687 tfidf
25 Q0 CSIRO189-12469050 146 5.10091 tfidf
25 Q0 CSIRO139-13601859 147 5.09904 tfidf
25 Q0 CSIRO066-06579539 148 5.09904 tfidf
25 Q0 CSIRO139-14299961 149 5.09904 tfidf
25 Q0 CSIRO093-05933989 150 5.09153 tfidf
25 Q0 CSIRO146-07749737 151 5.08991 tfidf
25 Q0 CSIRO139-10737841 152 5.08721 tfidf
25 Q0 CSIRO135-03950595 153 5.08721 tfidf
25 Q0 CSIRO093-05857046 154 5.08578 tfidf
25 Q0 CSIRO189-08269121 155 5.08578 tfidf
25 Q0 CSIRO139-09849094 156 5.07952 tfidf
25 Q0 CSIRO141-12737467 157 5.07952 tfidf
25 Q0 CSIRO092-11140500 158 5.07952 tfidf
25 Q0 CSIRO092-11118397 159 5.07952 tfidf
25 Q0 CSIRO093-05509308 160 5.0773 tfidf
25 Q0 CSIRO190-02659883 161 5.0773 tfidf
25 Q0 CSIRO092-01913500 162 5.07698 tfidf
25 Q0 CSIRO135-11819135 163 5.07515 tfidf
25 Q0 CSIRO135-03977796 164 5.06968 tfidf
25 Q0 CSIRO118-12778416 165 5.05249 tfidf
25 Q0 CSIRO139-09774867 166 5.04979 tfidf
25 Q0 CSIRO136-05539991 167 5.03269 tfidf
25 Q0 CSIRO066-06088313 168 5.03168 tfidf
25 Q0 CSIRO135-07765374 169 5.02808 tfidf
25 Q0 CSIRO142-13895671 170 5.01722 tfidf
25 Q0 CSIRO093-05967576 171 5.01722 tfidf
25 Q0 CSIRO146-11015622 172 5.01096 tfidf
25 Q0 CSIRO189-11958698 173 5.00731 tfidf
25 Q0 CSIRO063-04705680 174 5.00731 tfidf
25 Q0 CSIRO093-06094679 175 5.00073 tfidf
25 Q0 CSIRO135-15464231 176 4.99205 tfidf
25 Q0 CSIRO115-06980216 177 4.98915 tfidf
25 Q0 CSIRO146-12956722 178 4.98891 tfidf
25 Q0 CSIRO146-12887896 179 4.971 tfidf
25 Q0 CSIRO148-05059532 180 4.96983 tfidf
25 Q0 CSIRO139-10781025 181 4.96983 tfidf
25 Q0 CSIRO093-05121617 182 4.96533 tfidf
25 Q0 CSIRO093-05085807 183 4.96533 tfidf
25 Q0 CSIRO146-10807045 184 4.96533 tfidf
25 Q0 CSIRO190-07724272 185 4.96097 tfidf
25 Q0 CSIRO142-10461976 186 4.95508 tfidf
25 Q0 CSIRO139-10691374 187 4.95136 tfidf
25 Q0 CSIRO139-10817787 188 4.94834 tfidf
25 Q0 CSIRO133-14155747 189 4.94834 tfidf
25 Q0 CSIRO146-09814252 190 4.94001 tfidf
25 Q0 CSIRO112-00985704 191 4.94001 tfidf
25 Q0 CSIRO146-11228877 192 4.94001 tfidf
25 Q0 CSIRO146-10916280 193 4.94001 tfidf
25 Q0 CSIRO135-14333594 194 4.9366 tfidf
25 Q0 CSIRO134-00608224 195 4.93439 tfidf
25 Q0 CSIRO148-13617575 196 4.93271 tfidf
25 Q0 CSIRO135-04004321 197 4.93183 tfidf
25 Q0 CSIRO135-14406953 198 4.91985 tfidf
25 Q0 CSIRO146-13786975 199 4.91266 tfidf
