18 Q0 CSIRO132-01480712 1 5.21394 bm25
18 Q0 CSIRO141-16595363 2 5.15079 bm25
18 Q0 CSIRO173-13285955 3 4.98317 bm25
18 Q0 CSIRO146-00587153 4 4.81903 bm25
18 Q0 CSIRO145-10228675 5 4.49394 bm25
18 Q0 CSIRO144-04905894 6 4.24059 bm25
18 Q0 CSIRO144-05140025 7 4.24059 bm25
18 Q0 CSIRO144-04925349 8 4.24 bm25
18 Q0 CSIRO144-04759979 9 4.00769 bm25
18 Q0 CSIRO145-04767447 10 3.26203 bm25
18 Q0 CSIRO144-09433010 11 3.06241 bm25
18 Q0 CSIRO134-11830768 12 2.99322 bm25
18 Q0 CSIRO134-11903180 13 2.95389 bm25
18 Q0 CSIRO134-08922119 14 2.90182 bm25
18 Q0 CSIRO145-00429165 15 2.77195 bm25
18 Q0 CSIRO125-11548842 16 2.34558 bm25
18 Q0 CSIRO133-01822561 17 2.32807 bm25
18 Q0 CSIRO145-10750042 18 2.28292 bm25
18 Q0 CSIRO131-16721510 19 2.1996 bm25
18 Q0 CSIRO145-02061840 20 2.07092 bm25
18 Q0 CSIRO265-12782890 21 2.01387 bm25
18 Q0 CSIRO138-16031141 22 1.7372 bm25
18 Q0 CSIRO139-16434753 23 1.71544 bm25
18 Q0 CSIRO145-05173880 24 1.69972 bm25
18 Q0 CSIRO069-15437241 25 1.68242 bm25
18 Q0 CSIRO138-15933953 26 1.6718 bm25
18 Q0 CSIRO140-11713267 27 1.25887 bm25
18 Q0 CSIRO139-00126054 28 1.23009 bm25
18 Q0 CSIRO143-04938426 29 1.0788 bm25
18 Q0 CSIRO145-04755872 30 1.07698 bm25
18 Q0 CSIRO136-07094003 31 1.07517 bm25
18 Q0 CSIRO132-01455556 32 1.07296 bm25
18 Q0 CSIRO205-15585834 33 1.07087 bm25
18 Q0 CSIRO265-14667001 34 1.05718 bm25
18 Q0 CSIRO143-04694722 35 1.02277 bm25
18 Q0 CSIRO143-04964410 36 1.02149 bm25
18 Q0 CSIRO143-05000504 37 1.0056 bm25
18 Q0 CSIRO112-14413479 38 0.931962 bm25
18 Q0 CSIRO131-05668430 39 0.822771 bm25
18 Q0 CSIRO136-06425377 40 0.777448 bm25
18 Q0 CSIRO180-15517031 41 0.0414928 bm25
