32 Q0 CSIRO134-08922119 1 4.07957 bm25
32 Q0 CSIRO145-10228675 2 3.0043 bm25
32 Q0 CSIRO143-04694722 3 2.95707 bm25
32 Q0 CSIRO173-13285955 4 2.88818 bm25
32 Q0 CSIRO136-06425377 5 2.59706 bm25
32 Q0 CSIRO133-01822561 6 2.47583 bm25
32 Q0 CSIRO134-11903180 7 2.47398 bm25
32 Q0 CSIRO145-05534443 8 2.46565 bm25
32 Q0 CSIRO132-11952760 9 2.46065 bm25
32 Q0 CSIRO133-04941278 10 2.45633 bm25
32 Q0 CSIRO144-04759979 11 2.39753 bm25
32 Q0 CSIRO132-15320355 12 2.35231 bm25
32 Q0 CSIRO146-00732297 13 2.35059 bm25
32 Q0 CSIRO132-11895269 14 2.33878 bm25
32 Q0 CSIRO133-04881416 15 2.32105 bm25
32 Q0 CSIRO143-06222087 16 2.26669 bm25
32 Q0 CSIRO143-06326150 17 2.26233 bm25
32 Q0 CSIRO143-08253479 18 2.2589 bm25
32 Q0 CSIRO132-01480712 19 2.15622 bm25
32 Q0 CSIRO143-06256522 20 1.98591 bm25
32 Q0 CSIRO132-11919193 21 1.98262 bm25
32 Q0 CSIRO133-04907302 22 1.98192 bm25
32 Q0 CSIRO132-14596615 23 1.97841 bm25
32 Q0 CSIRO143-06361582 24 1.97655 bm25
32 Q0 CSIRO143-08288718 25 1.97422 bm25
32 Q0 CSIRO069-15437241 26 1.9208 bm25
32 Q0 CSIRO132-15255187 27 1.66263 bm25
32 Q0 CSIRO135-01427234 28 1.65255 bm25
32 Q0 CSIRO134-13904277 29 1.64962 bm25
32 Q0 CSIRO133-10515246 30 1.62398 bm25
32 Q0 CSIRO144-13309868 31 1.61087 bm25
32 Q0 CSIRO141-01306006 32 1.43081 bm25
32 Q0 CSIRO129-16466164 33 1.42392 bm25
32 Q0 CSIRO145-10750042 34 1.40516 bm25
32 Q0 CSIRO139-00126054 35 1.40438 bm25
32 Q0 CSIRO143-04904874 36 1.37743 bm25
32 Q0 CSIRO133-11574847 37 1.34652 bm25
32 Q0 CSIRO135-13787078 38 1.15989 bm25
32 Q0 CSIRO101-14223919 39 1.10059 bm25
32 Q0 CSIRO145-12516153 40 1.00972 bm25
32 Q0 CSIRO143-04964410 41 0.992855 bm25
32 Q0 CSIRO131-05551059 42 0.916644 bm25
32 Q0 CSIRO197-02129838 43 0.610284 bm25
32 Q0 CSIRO112-14413479 44 0.417479 bm25
32 Q0 CSIRO092-02894761 45 0.388273 bm25
32 Q0 CSIRO081-09159321 46 0.365455 bm25
32 Q0 CSIRO180-15517031 47 0.1938 bm25
